{
  "name": "FACE_1",
  "outerPolygon": [[-106.1, -43.4089], [-106.051, -42.94], [-105.98, -42.4739], [-105.918, -42.1603], [-105.832, -41.8524], [-105.723, -41.5518], [-105.497, -41.1336], [-105.239, -40.734], [-104.952, -40.3553], [-104.636, -40], [-104.297, -39.7107], [-103.938, -39.4465], [-103.561, -39.2088], [-103.168, -38.9988], [-102.761, -38.8175], [-102.401, -38.7005], [-102.033, -38.6144], [-101.659, -38.5598], [-101.282, -38.5372], [-100.904, -38.5467], [-100.528, -38.5883], [-100.157, -38.6616], [-99.7938, -38.7661], [-99.4407, -38.9011], [-99.0865, -39.0737], [-98.7455, -39.2709], [-98.4193, -39.4918], [-98.1096, -39.7353], [-97.8179, -40], [-97.5611, -40.277], [-97.3259, -40.5726], [-97.1138, -40.8851], [-96.9258, -41.2127], [-96.7631, -41.5536], [-96.6266, -41.9059], [-96.5172, -42.2674], [-96.3968, -42.66], [-96.2447, -43.0415], [-96.0618, -43.4092], [-95.8493, -43.7606], [-95.6087, -44.0934], [-95.3416, -44.4053], [-95.0498, -44.6943], [-94.7352, -44.9583], [-94.4001, -45.1957], [-94.0466, -45.4047], [-93.6771, -45.584], [-93.2942, -45.7324], [-92.9004, -45.8489], [-92.4983, -45.9327], [-92.0908, -45.9831], [-91.6805, -46], [-59.9553, -46], [-59.545, -45.9831], [-59.1374, -45.9327], [-58.7354, -45.8489], [-58.3416, -45.7324], [-57.9586, -45.584], [-57.5892, -45.4047], [-57.2357, -45.1957], [-56.9006, -44.9583], [-56.586, -44.6943], [-56.2942, -44.4053], [-56.0271, -44.0934], [-55.7865, -43.7606], [-55.574, -43.4092], [-55.3911, -43.0415], [-55.2389, -42.66], [-55.1186, -42.2674], [-55.0091, -41.9059], [-54.8727, -41.5536], [-54.71, -41.2127], [-54.522, -40.8851], [-54.3099, -40.5726], [-54.0747, -40.277], [-53.8179, -40], [-53.4789, -39.7107], [-53.12, -39.4465], [-52.7431, -39.2088], [-52.35, -38.9988], [-51.9429, -38.8175], [-51.5834, -38.7005], [-51.2153, -38.6144], [-50.8412, -38.5598], [-50.4638, -38.5372], [-50.0859, -38.5467], [-49.7101, -38.5883], [-49.3392, -38.6616], [-48.9759, -38.7661], [-48.6228, -38.9011], [-48.2687, -39.0737], [-47.9276, -39.2709], [-47.6015, -39.4918], [-47.2917, -39.7353], [-47, -40], [-46.6898, -40.3603], [-46.4042, -40.7403], [-46.1444, -41.1385], [-45.9116, -41.5531], [-45.7614, -42.004], [-45.6482, -42.4657], [-45.5729, -42.935], [-45.536, -43.4089], [-45.536, -55.8179], [-45.498, -56.6894], [-45.3841, -57.5544], [-45.1953, -58.4061], [-44.933, -59.2381], [-44.5991, -60.0441], [-44.1963, -60.8179], [-43.7276, -61.5536], [-43.1965, -62.2458], [-42.6071, -62.889], [-41.9639, -63.4783], [-41.2718, -64.0094], [-40.536, -64.4781], [-39.7622, -64.881], [-38.9562, -65.2148], [-38.1242, -65.4771], [-37.2725, -65.666], [-36.4076, -65.7798], [-35.536, -65.8179], [-10, -65.8179], [-9.12844, -65.7798], [-8.26352, -65.666], [-7.41181, -65.4771], [-6.5798, -65.2148], [-5.77382, -64.881], [-5, -64.4781], [-4.26424, -64.0094], [-3.57212, -63.4783], [-2.92893, -62.889], [-2.33956, -62.2458], [-1.80848, -61.5536], [-1.33975, -60.8179], [-0.936922, -60.0441], [-0.603074, -59.2381], [-0.340742, -58.4061], [-0.151922, -57.5544], [-0.038053, -56.6894], [1.42109e-14, -55.8179], [0, -36.24], [-0.0180702, -35.8153], [-0.07215, -35.3937], [-0.161849, -34.9781], [-0.286518, -34.5717], [-0.445256, -34.1774], [-0.636917, -33.798], [-0.860114, -33.4362], [-1.11323, -33.0947], [-1.39445, -32.7759], [-1.70172, -32.4822], [-2.03284, -32.2156], [-2.3854, -31.9781], [-2.75686, -31.7714], [-3.14454, -31.597], [-3.54562, -31.4562], [-3.95722, -31.3499], [-4.37636, -31.279], [-4.8, -31.244], [-5.43546, -31.1914], [-6.06417, -31.0851], [-6.68157, -30.9257], [-7.28319, -30.7145], [-7.86471, -30.4529], [-8.4219, -30.1429], [-8.95074, -29.7866], [-9.44741, -29.3868], [-9.90833, -28.9462], [-10.3301, -28.468], [-10.7098, -27.9557], [-11.0446, -27.413], [-11.3321, -26.8439], [-11.5702, -26.2524], [-11.7572, -25.6428], [-11.8918, -25.0195], [-11.9729, -24.3871], [-12, -23.75], [-12, -15.5714], [-12.0171, -15.1584], [-12.0682, -14.7482], [-12.1531, -14.3436], [-12.2711, -13.9474], [-12.4214, -13.5623], [-12.603, -13.191], [-12.8147, -12.8359], [-13.0549, -12.4995], [-13.3222, -12.1841], [-13.6146, -11.8919], [-13.9301, -11.6248], [-14.2666, -11.3847], [-14.6218, -11.1732], [-14.9932, -10.9918], [-15.3784, -10.8417], [-39.1171, -2.7027], [-43.0178, -1.54046], [-47, -0.699335], [-50.3983, -0.24609], [-52.1054, -0.0905827], [-53.8179, -0.0159985], [-55.0826, -3.55271e-15], [-96.5531, -3.55271e-15], [-97.8179, -0.0159985], [-101.24, -0.228221], [-104.636, -0.699335], [-108.618, -1.54046], [-112.519, -2.7027], [-136.257, -10.8417], [-136.643, -10.9918], [-137.014, -11.1732], [-137.369, -11.3847], [-137.706, -11.6248], [-138.021, -11.8919], [-138.314, -12.1841], [-138.581, -12.4995], [-138.821, -12.8359], [-139.033, -13.191], [-139.214, -13.5623], [-139.365, -13.9474], [-139.483, -14.3436], [-139.568, -14.7482], [-139.619, -15.1584], [-139.636, -15.5714], [-139.636, -23.75], [-139.663, -24.3871], [-139.744, -25.0195], [-139.879, -25.6428], [-140.066, -26.2524], [-140.304, -26.8439], [-140.591, -27.413], [-140.926, -27.9557], [-141.306, -28.468], [-141.727, -28.9462], [-142.188, -29.3868], [-142.685, -29.7866], [-143.214, -30.1429], [-143.771, -30.4529], [-144.353, -30.7145], [-144.954, -30.9257], [-145.572, -31.0851], [-146.2, -31.1914], [-146.836, -31.244], [-147.259, -31.279], [-147.679, -31.3499], [-148.09, -31.4562], [-148.491, -31.597], [-148.879, -31.7714], [-149.25, -31.9781], [-149.603, -32.2156], [-149.934, -32.4822], [-150.241, -32.7759], [-150.523, -33.0947], [-150.776, -33.4362], [-150.999, -33.798], [-151.191, -34.1774], [-151.349, -34.5717], [-151.474, -34.9781], [-151.564, -35.3937], [-151.618, -35.8153], [-151.636, -36.24], [-151.636, -55.8179], [-151.598, -56.6894], [-151.484, -57.5544], [-151.295, -58.4061], [-151.033, -59.2381], [-150.699, -60.0441], [-150.296, -60.8179], [-149.827, -61.5536], [-149.296, -62.2458], [-148.707, -62.889], [-148.064, -63.4783], [-147.372, -64.0094], [-146.636, -64.4781], [-145.862, -64.881], [-145.056, -65.2148], [-144.224, -65.4771], [-143.372, -65.666], [-142.507, -65.7798], [-141.636, -65.8179], [-116.1, -65.8179], [-115.228, -65.7798], [-114.363, -65.666], [-113.512, -65.4771], [-112.68, -65.2148], [-111.874, -64.881], [-111.1, -64.4781], [-110.364, -64.0094], [-109.672, -63.4783], [-109.029, -62.889], [-108.439, -62.2458], [-107.908, -61.5536], [-107.439, -60.8179], [-107.037, -60.0441], [-106.703, -59.2381], [-106.44, -58.4061], [-106.252, -57.5544], [-106.138, -56.6894], [-106.1, -55.8179]],
  "innerPolygons": {
    "il0": [[-32, -23.75], [-32.0285, -24.4037], [-32.1139, -25.0524], [-32.2556, -25.6911], [-32.4523, -26.3152], [-32.7027, -26.9196], [-33.0048, -27.5], [-33.3564, -28.0518], [-33.7547, -28.5709], [-34.1967, -29.0533], [-34.6791, -29.4953], [-35.1982, -29.8936], [-35.75, -30.2452], [-36.3304, -30.5473], [-36.9348, -30.7977], [-37.5589, -30.9944], [-38.1976, -31.1361], [-38.8463, -31.2215], [-39.5, -31.25], [-40.1537, -31.2215], [-40.8024, -31.1361], [-41.4411, -30.9944], [-42.0652, -30.7977], [-42.6696, -30.5473], [-43.25, -30.2452], [-43.8018, -29.8936], [-44.3209, -29.4953], [-44.8033, -29.0533], [-45.2453, -28.5709], [-45.6436, -28.0518], [-45.9952, -27.5], [-46.2973, -26.9196], [-46.5477, -26.3152], [-46.7444, -25.6911], [-46.8861, -25.0524], [-46.9715, -24.4037], [-47, -23.75], [-46.9715, -23.0963], [-46.8861, -22.4476], [-46.7444, -21.8089], [-46.5477, -21.1848], [-46.2973, -20.5804], [-45.9952, -20], [-45.6436, -19.4482], [-45.2453, -18.9291], [-44.8033, -18.4467], [-44.3209, -18.0047], [-43.8018, -17.6064], [-43.25, -17.2548], [-42.6696, -16.9527], [-42.0652, -16.7023], [-41.4411, -16.5056], [-40.8024, -16.3639], [-40.1537, -16.2785], [-39.5, -16.25], [-38.8463, -16.2785], [-38.1976, -16.3639], [-37.5589, -16.5056], [-36.9348, -16.7023], [-36.3304, -16.9527], [-35.75, -17.2548], [-35.1982, -17.6064], [-34.6791, -18.0047], [-34.1967, -18.4467], [-33.7547, -18.9291], [-33.3564, -19.4482], [-33.0048, -20], [-32.7027, -20.5804], [-32.4523, -21.1848], [-32.2556, -21.8089], [-32.1139, -22.4476], [-32.0285, -23.0963]],
    "il1": [[-58.5257, -38.1421], [-58.5377, -38.4167], [-58.5736, -38.6891], [-58.6331, -38.9574], [-58.7157, -39.2195], [-58.8209, -39.4734], [-58.9478, -39.7171], [-59.0954, -39.9489], [-59.2627, -40.1669], [-59.4484, -40.3695], [-59.651, -40.5552], [-59.869, -40.7225], [-60.1007, -40.8701], [-60.3445, -40.997], [-60.5984, -41.1022], [-60.8605, -41.1848], [-61.1288, -41.2443], [-61.4012, -41.2801], [-61.6757, -41.2921], [-61.9503, -41.2801], [-62.2227, -41.2443], [-62.491, -41.1848], [-62.7531, -41.1022], [-63.007, -40.997], [-63.2507, -40.8701], [-63.4825, -40.7225], [-63.7005, -40.5552], [-63.9031, -40.3695], [-64.0888, -40.1669], [-64.2561, -39.9489], [-64.4037, -39.7171], [-64.5306, -39.4734], [-64.6358, -39.2195], [-64.7184, -38.9574], [-64.7779, -38.6891], [-64.8138, -38.4167], [-64.8257, -38.1421], [-64.8138, -37.8676], [-64.7779, -37.5951], [-64.7184, -37.3269], [-64.6358, -37.0648], [-64.5306, -36.8109], [-64.4037, -36.5671], [-64.2561, -36.3354], [-64.0888, -36.1174], [-63.9031, -35.9147], [-63.7005, -35.7291], [-63.4825, -35.5618], [-63.2507, -35.4142], [-63.007, -35.2873], [-62.7531, -35.1821], [-62.491, -35.0995], [-62.2227, -35.04], [-61.9503, -35.0041], [-61.6757, -34.9921], [-61.4012, -35.0041], [-61.1288, -35.04], [-60.8605, -35.0995], [-60.5984, -35.1821], [-60.3445, -35.2873], [-60.1007, -35.4142], [-59.869, -35.5618], [-59.651, -35.7291], [-59.4484, -35.9147], [-59.2627, -36.1174], [-59.0954, -36.3354], [-58.9478, -36.5671], [-58.8209, -36.8109], [-58.7157, -37.0648], [-58.6331, -37.3269], [-58.5736, -37.5951], [-58.5377, -37.8676]],
    "il2": [[-58.5257, -9.85786], [-58.5377, -10.1324], [-58.5736, -10.4049], [-58.6331, -10.6731], [-58.7157, -10.9352], [-58.8209, -11.1891], [-58.9478, -11.4329], [-59.0954, -11.6646], [-59.2627, -11.8826], [-59.4484, -12.0853], [-59.651, -12.2709], [-59.869, -12.4382], [-60.1007, -12.5858], [-60.3445, -12.7127], [-60.5984, -12.8179], [-60.8605, -12.9005], [-61.1288, -12.96], [-61.4012, -12.9959], [-61.6757, -13.0079], [-61.9503, -12.9959], [-62.2227, -12.96], [-62.491, -12.9005], [-62.7531, -12.8179], [-63.007, -12.7127], [-63.2507, -12.5858], [-63.4825, -12.4382], [-63.7005, -12.2709], [-63.9031, -12.0853], [-64.0888, -11.8826], [-64.2561, -11.6646], [-64.4037, -11.4329], [-64.5306, -11.1891], [-64.6358, -10.9352], [-64.7184, -10.6731], [-64.7779, -10.4049], [-64.8138, -10.1324], [-64.8257, -9.85786], [-64.8138, -9.58332], [-64.7779, -9.31087], [-64.7184, -9.04258], [-64.6358, -8.7805], [-64.5306, -8.52662], [-64.4037, -8.28286], [-64.2561, -8.0511], [-64.0888, -7.83308], [-63.9031, -7.63048], [-63.7005, -7.44482], [-63.4825, -7.27754], [-63.2507, -7.12988], [-63.007, -7.00299], [-62.7531, -6.89783], [-62.491, -6.8152], [-62.2227, -6.75572], [-61.9503, -6.71985], [-61.6757, -6.70786], [-61.4012, -6.71985], [-61.1288, -6.75572], [-60.8605, -6.8152], [-60.5984, -6.89783], [-60.3445, -7.00299], [-60.1007, -7.12988], [-59.869, -7.27754], [-59.651, -7.44482], [-59.4484, -7.63048], [-59.2627, -7.83308], [-59.0954, -8.0511], [-58.9478, -8.28286], [-58.8209, -8.52662], [-58.7157, -8.7805], [-58.6331, -9.04258], [-58.5736, -9.31087], [-58.5377, -9.58332]],
    "il3": [[-86.81, -9.85786], [-86.822, -10.1324], [-86.8579, -10.4049], [-86.9174, -10.6731], [-87, -10.9352], [-87.1052, -11.1891], [-87.232, -11.4329], [-87.3797, -11.6646], [-87.547, -11.8826], [-87.7326, -12.0853], [-87.9352, -12.2709], [-88.1533, -12.4382], [-88.385, -12.5858], [-88.6288, -12.7127], [-88.8827, -12.8179], [-89.1447, -12.9005], [-89.413, -12.96], [-89.6855, -12.9959], [-89.96, -13.0079], [-90.2346, -12.9959], [-90.507, -12.96], [-90.7753, -12.9005], [-91.0374, -12.8179], [-91.2913, -12.7127], [-91.535, -12.5858], [-91.7668, -12.4382], [-91.9848, -12.2709], [-92.1874, -12.0853], [-92.3731, -11.8826], [-92.5403, -11.6646], [-92.688, -11.4329], [-92.8149, -11.1891], [-92.9201, -10.9352], [-93.0027, -10.6731], [-93.0622, -10.4049], [-93.098, -10.1324], [-93.11, -9.85786], [-93.098, -9.58332], [-93.0622, -9.31087], [-93.0027, -9.04258], [-92.9201, -8.7805], [-92.8149, -8.52662], [-92.688, -8.28286], [-92.5403, -8.0511], [-92.3731, -7.83308], [-92.1874, -7.63048], [-91.9848, -7.44482], [-91.7668, -7.27754], [-91.535, -7.12988], [-91.2913, -7.00299], [-91.0374, -6.89783], [-90.7753, -6.8152], [-90.507, -6.75572], [-90.2346, -6.71985], [-89.96, -6.70786], [-89.6855, -6.71985], [-89.413, -6.75572], [-89.1447, -6.8152], [-88.8827, -6.89783], [-88.6288, -7.00299], [-88.385, -7.12988], [-88.1533, -7.27754], [-87.9352, -7.44482], [-87.7326, -7.63048], [-87.547, -7.83308], [-87.3797, -8.0511], [-87.232, -8.28286], [-87.1052, -8.52662], [-87, -8.7805], [-86.9174, -9.04258], [-86.8579, -9.31087], [-86.822, -9.58332]],
    "il4": [[-86.81, -38.1421], [-86.822, -38.4167], [-86.8579, -38.6891], [-86.9174, -38.9574], [-87, -39.2195], [-87.1052, -39.4734], [-87.232, -39.7171], [-87.3797, -39.9489], [-87.547, -40.1669], [-87.7326, -40.3695], [-87.9352, -40.5552], [-88.1533, -40.7225], [-88.385, -40.8701], [-88.6288, -40.997], [-88.8827, -41.1022], [-89.1447, -41.1848], [-89.413, -41.2443], [-89.6855, -41.2801], [-89.96, -41.2921], [-90.2346, -41.2801], [-90.507, -41.2443], [-90.7753, -41.1848], [-91.0374, -41.1022], [-91.2913, -40.997], [-91.535, -40.8701], [-91.7668, -40.7225], [-91.9848, -40.5552], [-92.1874, -40.3695], [-92.3731, -40.1669], [-92.5403, -39.9489], [-92.688, -39.7171], [-92.8149, -39.4734], [-92.9201, -39.2195], [-93.0027, -38.9574], [-93.0622, -38.6891], [-93.098, -38.4167], [-93.11, -38.1421], [-93.098, -37.8676], [-93.0622, -37.5951], [-93.0027, -37.3269], [-92.9201, -37.0648], [-92.8149, -36.8109], [-92.688, -36.5671], [-92.5403, -36.3354], [-92.3731, -36.1174], [-92.1874, -35.9147], [-91.9848, -35.7291], [-91.7668, -35.5618], [-91.535, -35.4142], [-91.2913, -35.2873], [-91.0374, -35.1821], [-90.7753, -35.0995], [-90.507, -35.04], [-90.2346, -35.0041], [-89.96, -34.9921], [-89.6855, -35.0041], [-89.413, -35.04], [-89.1447, -35.0995], [-88.8827, -35.1821], [-88.6288, -35.2873], [-88.385, -35.4142], [-88.1533, -35.5618], [-87.9352, -35.7291], [-87.7326, -35.9147], [-87.547, -36.1174], [-87.3797, -36.3354], [-87.232, -36.5671], [-87.1052, -36.8109], [-87, -37.0648], [-86.9174, -37.3269], [-86.8579, -37.5951], [-86.822, -37.8676]],
    "il5": [[-35.268, -51.6679], [-34.9063, -51.6837], [-34.5474, -51.7309], [-34.1939, -51.8093], [-33.8486, -51.9182], [-33.5142, -52.0567], [-33.193, -52.2239], [-32.8877, -52.4184], [-32.6005, -52.6388], [-32.3335, -52.8834], [-32.0889, -53.1503], [-31.8685, -53.4375], [-31.674, -53.7429], [-31.5068, -54.064], [-31.3683, -54.3985], [-31.2594, -54.7438], [-31.1811, -55.0972], [-31.1338, -55.4562], [-31.118, -55.8179], [-31.1338, -56.1796], [-31.1811, -56.5385], [-31.2594, -56.892], [-31.3683, -57.2373], [-31.5068, -57.5718], [-31.674, -57.8929], [-31.8685, -58.1982], [-32.0889, -58.4855], [-32.3335, -58.7524], [-32.6005, -58.997], [-32.8877, -59.2174], [-33.193, -59.4119], [-33.5142, -59.5791], [-33.8486, -59.7176], [-34.1939, -59.8265], [-34.5474, -59.9048], [-34.9063, -59.9521], [-35.268, -59.9679], [-35.6297, -59.9521], [-35.9887, -59.9048], [-36.3421, -59.8265], [-36.6874, -59.7176], [-37.0219, -59.5791], [-37.343, -59.4119], [-37.6484, -59.2174], [-37.9356, -58.997], [-38.2025, -58.7524], [-38.4471, -58.4855], [-38.6675, -58.1982], [-38.862, -57.8929], [-39.0292, -57.5718], [-39.1677, -57.2373], [-39.2766, -56.892], [-39.355, -56.5385], [-39.4022, -56.1796], [-39.418, -55.8179], [-39.4022, -55.4562], [-39.355, -55.0972], [-39.2766, -54.7438], [-39.1677, -54.3985], [-39.0292, -54.064], [-38.862, -53.7429], [-38.6675, -53.4375], [-38.4471, -53.1503], [-38.2025, -52.8834], [-37.9356, -52.6388], [-37.6484, -52.4184], [-37.343, -52.2239], [-37.0219, -52.0567], [-36.6874, -51.9182], [-36.3421, -51.8093], [-35.9887, -51.7309], [-35.6297, -51.6837]],
    "il6": [[-10.268, -51.6679], [-9.90633, -51.6837], [-9.54738, -51.7309], [-9.19393, -51.8093], [-8.84864, -51.9182], [-8.51416, -52.0567], [-8.19302, -52.2239], [-7.88768, -52.4184], [-7.60046, -52.6388], [-7.33353, -52.8834], [-7.08894, -53.1503], [-6.86854, -53.4375], [-6.67402, -53.7429], [-6.50685, -54.064], [-6.3683, -54.3985], [-6.25943, -54.7438], [-6.18107, -55.0972], [-6.13382, -55.4562], [-6.11802, -55.8179], [-6.13382, -56.1796], [-6.18107, -56.5385], [-6.25943, -56.892], [-6.3683, -57.2373], [-6.50685, -57.5718], [-6.67402, -57.8929], [-6.86854, -58.1982], [-7.08894, -58.4855], [-7.33353, -58.7524], [-7.60046, -58.997], [-7.88768, -59.2174], [-8.19302, -59.4119], [-8.51416, -59.5791], [-8.84864, -59.7176], [-9.19393, -59.8265], [-9.54738, -59.9048], [-9.90633, -59.9521], [-10.268, -59.9679], [-10.6297, -59.9521], [-10.9887, -59.9048], [-11.3421, -59.8265], [-11.6874, -59.7176], [-12.0219, -59.5791], [-12.343, -59.4119], [-12.6484, -59.2174], [-12.9356, -58.997], [-13.2025, -58.7524], [-13.4471, -58.4855], [-13.6675, -58.1982], [-13.862, -57.8929], [-14.0292, -57.5718], [-14.1677, -57.2373], [-14.2766, -56.892], [-14.355, -56.5385], [-14.4022, -56.1796], [-14.418, -55.8179], [-14.4022, -55.4562], [-14.355, -55.0972], [-14.2766, -54.7438], [-14.1677, -54.3985], [-14.0292, -54.064], [-13.862, -53.7429], [-13.6675, -53.4375], [-13.4471, -53.1503], [-13.2025, -52.8834], [-12.9356, -52.6388], [-12.6484, -52.4184], [-12.343, -52.2239], [-12.0219, -52.0567], [-11.6874, -51.9182], [-11.3421, -51.8093], [-10.9887, -51.7309], [-10.6297, -51.6837]],
    "il7": [[-104.636, -23.75], [-104.664, -24.4037], [-104.75, -25.0524], [-104.891, -25.6911], [-105.088, -26.3152], [-105.338, -26.9196], [-105.641, -27.5], [-105.992, -28.0518], [-106.39, -28.5709], [-106.832, -29.0533], [-107.315, -29.4953], [-107.834, -29.8936], [-108.386, -30.2452], [-108.966, -30.5473], [-109.571, -30.7977], [-110.195, -30.9944], [-110.833, -31.1361], [-111.482, -31.2215], [-112.136, -31.25], [-112.789, -31.2215], [-113.438, -31.1361], [-114.077, -30.9944], [-114.701, -30.7977], [-115.305, -30.5473], [-115.886, -30.2452], [-116.438, -29.8936], [-116.957, -29.4953], [-117.439, -29.0533], [-117.881, -28.5709], [-118.279, -28.0518], [-118.631, -27.5], [-118.933, -26.9196], [-119.183, -26.3152], [-119.38, -25.6911], [-119.522, -25.0524], [-119.607, -24.4037], [-119.636, -23.75], [-119.607, -23.0963], [-119.522, -22.4476], [-119.38, -21.8089], [-119.183, -21.1848], [-118.933, -20.5804], [-118.631, -20], [-118.279, -19.4482], [-117.881, -18.9291], [-117.439, -18.4467], [-116.957, -18.0047], [-116.438, -17.6064], [-115.886, -17.2548], [-115.305, -16.9527], [-114.701, -16.7023], [-114.077, -16.5056], [-113.438, -16.3639], [-112.789, -16.2785], [-112.136, -16.25], [-111.482, -16.2785], [-110.833, -16.3639], [-110.195, -16.5056], [-109.571, -16.7023], [-108.966, -16.9527], [-108.386, -17.2548], [-107.834, -17.6064], [-107.315, -18.0047], [-106.832, -18.4467], [-106.39, -18.9291], [-105.992, -19.4482], [-105.641, -20], [-105.338, -20.5804], [-105.088, -21.1848], [-104.891, -21.8089], [-104.75, -22.4476], [-104.664, -23.0963]],
    "il8": [[-141.368, -59.9679], [-141.729, -59.9521], [-142.088, -59.9048], [-142.442, -59.8265], [-142.787, -59.7176], [-143.122, -59.5791], [-143.443, -59.4119], [-143.748, -59.2174], [-144.035, -58.997], [-144.302, -58.7524], [-144.547, -58.4855], [-144.767, -58.1982], [-144.962, -57.8929], [-145.129, -57.5718], [-145.267, -57.2373], [-145.376, -56.892], [-145.455, -56.5385], [-145.502, -56.1796], [-145.518, -55.8179], [-145.502, -55.4562], [-145.455, -55.0972], [-145.376, -54.7438], [-145.267, -54.3985], [-145.129, -54.064], [-144.962, -53.7429], [-144.767, -53.4375], [-144.547, -53.1503], [-144.302, -52.8834], [-144.035, -52.6388], [-143.748, -52.4184], [-143.443, -52.2239], [-143.122, -52.0567], [-142.787, -51.9182], [-142.442, -51.8093], [-142.088, -51.7309], [-141.729, -51.6837], [-141.368, -51.6679], [-141.006, -51.6837], [-140.647, -51.7309], [-140.294, -51.8093], [-139.948, -51.9182], [-139.614, -52.0567], [-139.293, -52.2239], [-138.987, -52.4184], [-138.7, -52.6388], [-138.433, -52.8834], [-138.189, -53.1503], [-137.968, -53.4375], [-137.774, -53.7429], [-137.607, -54.064], [-137.468, -54.3985], [-137.359, -54.7438], [-137.281, -55.0972], [-137.234, -55.4562], [-137.218, -55.8179], [-137.234, -56.1796], [-137.281, -56.5385], [-137.359, -56.892], [-137.468, -57.2373], [-137.607, -57.5718], [-137.774, -57.8929], [-137.968, -58.1982], [-138.189, -58.4855], [-138.433, -58.7524], [-138.7, -58.997], [-138.987, -59.2174], [-139.293, -59.4119], [-139.614, -59.5791], [-139.948, -59.7176], [-140.294, -59.8265], [-140.647, -59.9048], [-141.006, -59.9521]],
    "il9": [[-116.368, -59.9679], [-116.729, -59.9521], [-117.088, -59.9048], [-117.442, -59.8265], [-117.787, -59.7176], [-118.122, -59.5791], [-118.443, -59.4119], [-118.748, -59.2174], [-119.035, -58.997], [-119.302, -58.7524], [-119.547, -58.4855], [-119.767, -58.1982], [-119.962, -57.8929], [-120.129, -57.5718], [-120.267, -57.2373], [-120.376, -56.892], [-120.455, -56.5385], [-120.502, -56.1796], [-120.518, -55.8179], [-120.502, -55.4562], [-120.455, -55.0972], [-120.376, -54.7438], [-120.267, -54.3985], [-120.129, -54.064], [-119.962, -53.7429], [-119.767, -53.4375], [-119.547, -53.1503], [-119.302, -52.8834], [-119.035, -52.6388], [-118.748, -52.4184], [-118.443, -52.2239], [-118.122, -52.0567], [-117.787, -51.9182], [-117.442, -51.8093], [-117.088, -51.7309], [-116.729, -51.6837], [-116.368, -51.6679], [-116.006, -51.6837], [-115.647, -51.7309], [-115.294, -51.8093], [-114.948, -51.9182], [-114.614, -52.0567], [-114.293, -52.2239], [-113.987, -52.4184], [-113.7, -52.6388], [-113.433, -52.8834], [-113.189, -53.1503], [-112.968, -53.4375], [-112.774, -53.7429], [-112.607, -54.064], [-112.468, -54.3985], [-112.359, -54.7438], [-112.281, -55.0972], [-112.234, -55.4562], [-112.218, -55.8179], [-112.234, -56.1796], [-112.281, -56.5385], [-112.359, -56.892], [-112.468, -57.2373], [-112.607, -57.5718], [-112.774, -57.8929], [-112.968, -58.1982], [-113.189, -58.4855], [-113.433, -58.7524], [-113.7, -58.997], [-113.987, -59.2174], [-114.293, -59.4119], [-114.614, -59.5791], [-114.948, -59.7176], [-115.294, -59.8265], [-115.647, -59.9048], [-116.006, -59.9521]]
  },
  "count": 1,
  "angleStepDeg": 30
}
