{
  "name": "FACE_1",
  "outerPolygon": [[-13.6071, 512.844], [-20.425, 512.844], [-20.425, 518.374], [-19.5463, 518.374], [-19.5463, 566.635], [-192.425, 566.635], [-192.425, 556.635], [-210.425, 556.635], [-210.425, 540.635], [-369.425, 540.635], [-369.425, 566.635], [-542.304, 566.635], [-542.304, 518.374], [-541.425, 518.374], [-541.425, 512.844], [-548.243, 512.844], [-548.243, 513.763], [-604.243, 530.884], [-604.243, 306.064], [-541.425, 306.064], [-541.425, 293.246], [-547.425, 293.246], [-547.425, 277.246], [-541.425, 277.246], [-541.425, 265.429], [-629.243, 265.429], [-629.243, 86.4214], [-539.925, 86.4214], [-539.925, 83.4214], [-547.425, 83.4214], [-547.425, 47.4214], [-541.425, 47.4214], [-541.425, 40.6035], [-582.243, 40.6035], [-582.243, -40.6035], [-404.77, -40.6035], [-404.35, -40.6213], [-403.932, -40.6743], [-403.52, -40.7623], [-403.117, -40.8847], [-402.726, -41.0405], [-402.349, -41.2287], [-401.99, -41.4479], [-401.65, -41.6965], [-401.332, -41.9729], [-401.039, -42.275], [-400.772, -42.6008], [-400.534, -42.9478], [-400.325, -43.3136], [-400.149, -43.6957], [-384.951, -80.5113], [-384.774, -80.8934], [-384.566, -81.2593], [-384.328, -81.6063], [-384.061, -81.932], [-383.767, -82.2342], [-383.45, -82.5105], [-383.11, -82.7592], [-382.751, -82.9784], [-382.374, -83.1666], [-381.983, -83.3224], [-381.58, -83.4447], [-381.168, -83.5327], [-380.75, -83.5858], [-380.33, -83.6035], [-363.675, -83.6035], [-363.262, -83.5865], [-362.852, -83.5353], [-362.448, -83.4505], [-362.051, -83.3326], [-361.666, -83.1824], [-361.295, -83.0009], [-360.94, -82.7894], [-360.604, -82.5492], [-360.289, -82.2822], [-359.996, -81.9899], [-359.729, -81.6746], [-359.489, -81.3383], [-359.278, -80.9833], [-359.096, -80.612], [-358.946, -80.227], [-358.828, -79.831], [-358.743, -79.4265], [-358.692, -79.0164], [-358.675, -78.6035], [-358.675, -19.6035], [-358.694, -19.1678], [-358.751, -18.7353], [-358.845, -18.3094], [-358.977, -17.8934], [-359.143, -17.4904], [-359.345, -17.1035], [-359.579, -16.7357], [-359.845, -16.3896], [-360.139, -16.068], [-360.461, -15.7733], [-360.807, -15.5078], [-361.175, -15.2734], [-361.562, -15.072], [-361.965, -14.9051], [-362.381, -14.7739], [-362.807, -14.6795], [-363.239, -14.6226], [-363.675, -14.6035], [-480.425, -14.6035], [-480.425, 22.8965], [-81.425, 22.8965], [-81.425, -14.6035], [-198.175, -14.6035], [-198.611, -14.6226], [-199.043, -14.6795], [-199.469, -14.7739], [-199.885, -14.9051], [-200.288, -15.072], [-200.675, -15.2734], [-201.043, -15.5078], [-201.389, -15.7733], [-201.71, -16.068], [-202.005, -16.3896], [-202.271, -16.7357], [-202.505, -17.1035], [-202.707, -17.4904], [-202.873, -17.8934], [-203.005, -18.3094], [-203.099, -18.7353], [-203.156, -19.1678], [-203.175, -19.6035], [-203.175, -78.6035], [-203.156, -79.0393], [-203.099, -79.4718], [-203.005, -79.8976], [-202.873, -80.3136], [-202.707, -80.7166], [-202.505, -81.1035], [-202.271, -81.4714], [-202.005, -81.8175], [-201.71, -82.1391], [-201.389, -82.4338], [-201.043, -82.6993], [-200.675, -82.9337], [-200.288, -83.1351], [-199.885, -83.302], [-199.469, -83.4332], [-199.043, -83.5276], [-198.611, -83.5845], [-198.175, -83.6035], [-181.52, -83.6035], [-181.1, -83.5858], [-180.682, -83.5327], [-180.27, -83.4447], [-179.867, -83.3224], [-179.476, -83.1666], [-179.099, -82.9784], [-178.74, -82.7592], [-178.4, -82.5105], [-178.082, -82.2342], [-177.789, -81.932], [-177.522, -81.6063], [-177.284, -81.2593], [-177.075, -80.8934], [-176.899, -80.5113], [-161.701, -43.6957], [-161.524, -43.3136], [-161.316, -42.9478], [-161.078, -42.6008], [-160.811, -42.275], [-160.517, -41.9729], [-160.2, -41.6965], [-159.86, -41.4479], [-159.501, -41.2287], [-159.124, -41.0405], [-158.733, -40.8847], [-158.33, -40.7623], [-157.918, -40.6743], [-157.5, -40.6213], [-157.08, -40.6035], [20.3929, -40.6035], [20.3929, 40.6035], [-20.425, 40.6035], [-20.425, 47.4214], [-14.425, 47.4214], [-14.425, 83.4214], [-21.925, 83.4214], [-21.925, 86.4214], [67.3929, 86.4214], [67.3929, 265.429], [-20.425, 265.429], [-20.425, 277.246], [-14.425, 277.246], [-14.425, 293.246], [-20.425, 293.246], [-20.425, 306.064], [42.3929, 306.064], [42.3929, 530.884], [-13.6071, 513.763]],
  "innerPolygons": {
    "il0": [[2.64292, -20.3965], [2.63436, -20.5926], [2.60874, -20.7872], [2.56625, -20.9788], [2.50723, -21.166], [2.43211, -21.3474], [2.34148, -21.5215], [2.23601, -21.687], [2.11652, -21.8427], [1.98391, -21.9875], [1.83919, -22.1201], [1.68347, -22.2396], [1.51792, -22.345], [1.34381, -22.4357], [1.16247, -22.5108], [0.975263, -22.5698], [0.783628, -22.6123], [0.58902, -22.6379], [0.39292, -22.6465], [0.19682, -22.6379], [0.00221167, -22.6123], [-0.189423, -22.5698], [-0.376625, -22.5108], [-0.557971, -22.4357], [-0.73208, -22.345], [-0.897627, -22.2396], [-1.05335, -22.1201], [-1.19807, -21.9875], [-1.33068, -21.8427], [-1.45017, -21.687], [-1.55564, -21.5215], [-1.64627, -21.3474], [-1.72139, -21.166], [-1.78041, -20.9788], [-1.8229, -20.7872], [-1.84852, -20.5926], [-1.85708, -20.3965], [-1.84852, -20.2004], [-1.8229, -20.0058], [-1.78041, -19.8141], [-1.72139, -19.6269], [-1.64627, -19.4456], [-1.55564, -19.2715], [-1.45017, -19.1059], [-1.33068, -18.9502], [-1.19807, -18.8055], [-1.05335, -18.6729], [-0.897627, -18.5534], [-0.73208, -18.4479], [-0.557971, -18.3573], [-0.376625, -18.2822], [-0.189423, -18.2231], [0.00221167, -18.1806], [0.19682, -18.155], [0.39292, -18.1465], [0.58902, -18.155], [0.783628, -18.1806], [0.975263, -18.2231], [1.16247, -18.2822], [1.34381, -18.3573], [1.51792, -18.4479], [1.68347, -18.5534], [1.83919, -18.6729], [1.98391, -18.8055], [2.11652, -18.9502], [2.23601, -19.1059], [2.34148, -19.2715], [2.43211, -19.4456], [2.50723, -19.6269], [2.56625, -19.8141], [2.60874, -20.0058], [2.63436, -20.2004]],
    "il1": [[2.64292, 19.6035], [2.63436, 19.4074], [2.60874, 19.2128], [2.56625, 19.0212], [2.50723, 18.834], [2.43211, 18.6526], [2.34148, 18.4785], [2.23601, 18.313], [2.11652, 18.1573], [1.98391, 18.0125], [1.83919, 17.8799], [1.68347, 17.7604], [1.51792, 17.655], [1.34381, 17.5643], [1.16247, 17.4892], [0.975263, 17.4302], [0.783628, 17.3877], [0.58902, 17.3621], [0.39292, 17.3535], [0.19682, 17.3621], [0.00221167, 17.3877], [-0.189423, 17.4302], [-0.376625, 17.4892], [-0.557971, 17.5643], [-0.73208, 17.655], [-0.897627, 17.7604], [-1.05335, 17.8799], [-1.19807, 18.0125], [-1.33068, 18.1573], [-1.45017, 18.313], [-1.55564, 18.4785], [-1.64627, 18.6526], [-1.72139, 18.834], [-1.78041, 19.0212], [-1.8229, 19.2128], [-1.84852, 19.4074], [-1.85708, 19.6035], [-1.84852, 19.7996], [-1.8229, 19.9942], [-1.78041, 20.1859], [-1.72139, 20.3731], [-1.64627, 20.5544], [-1.55564, 20.7285], [-1.45017, 20.8941], [-1.33068, 21.0498], [-1.19807, 21.1945], [-1.05335, 21.3271], [-0.897627, 21.4466], [-0.73208, 21.5521], [-0.557971, 21.6427], [-0.376625, 21.7178], [-0.189423, 21.7769], [0.00221167, 21.8194], [0.19682, 21.845], [0.39292, 21.8535], [0.58902, 21.845], [0.783628, 21.8194], [0.975263, 21.7769], [1.16247, 21.7178], [1.34381, 21.6427], [1.51792, 21.5521], [1.68347, 21.4466], [1.83919, 21.3271], [1.98391, 21.1945], [2.11652, 21.0498], [2.23601, 20.8941], [2.34148, 20.7285], [2.43211, 20.5544], [2.50723, 20.3731], [2.56625, 20.1859], [2.60874, 19.9942], [2.63436, 19.7996]],
    "il2": [[-457.525, 35.1035], [-457.513, 35.3737], [-457.478, 35.6418], [-457.419, 35.9059], [-457.338, 36.1638], [-457.235, 36.4137], [-457.11, 36.6535], [-456.964, 36.8816], [-456.8, 37.0962], [-456.617, 37.2956], [-456.418, 37.4783], [-456.203, 37.6429], [-455.975, 37.7882], [-455.735, 37.9131], [-455.485, 38.0166], [-455.227, 38.0979], [-454.963, 38.1564], [-454.695, 38.1917], [-454.425, 38.2035], [-454.155, 38.1917], [-453.887, 38.1564], [-453.623, 38.0979], [-453.365, 38.0166], [-453.115, 37.9131], [-452.875, 37.7882], [-452.647, 37.6429], [-452.432, 37.4783], [-452.233, 37.2956], [-452.05, 37.0962], [-451.886, 36.8816], [-451.74, 36.6535], [-451.615, 36.4137], [-451.512, 36.1638], [-451.431, 35.9059], [-451.372, 35.6418], [-451.337, 35.3737], [-451.325, 35.1035], [-451.337, 34.8334], [-451.372, 34.5652], [-451.431, 34.3012], [-451.512, 34.0433], [-451.615, 33.7934], [-451.74, 33.5535], [-451.886, 33.3255], [-452.05, 33.1109], [-452.233, 32.9115], [-452.432, 32.7288], [-452.647, 32.5642], [-452.875, 32.4189], [-453.115, 32.294], [-453.365, 32.1905], [-453.623, 32.1092], [-453.887, 32.0506], [-454.155, 32.0153], [-454.425, 32.0035], [-454.695, 32.0153], [-454.963, 32.0506], [-455.227, 32.1092], [-455.485, 32.1905], [-455.735, 32.294], [-455.975, 32.4189], [-456.203, 32.5642], [-456.418, 32.7288], [-456.617, 32.9115], [-456.8, 33.1109], [-456.964, 33.3255], [-457.11, 33.5535], [-457.235, 33.7934], [-457.338, 34.0433], [-457.419, 34.3012], [-457.478, 34.5652], [-457.513, 34.8334]],
    "il3": [[-110.525, 35.1035], [-110.513, 35.3737], [-110.478, 35.6418], [-110.419, 35.9059], [-110.338, 36.1638], [-110.235, 36.4137], [-110.11, 36.6535], [-109.964, 36.8816], [-109.8, 37.0962], [-109.617, 37.2956], [-109.418, 37.4783], [-109.203, 37.6429], [-108.975, 37.7882], [-108.735, 37.9131], [-108.485, 38.0166], [-108.227, 38.0979], [-107.963, 38.1564], [-107.695, 38.1917], [-107.425, 38.2035], [-107.155, 38.1917], [-106.887, 38.1564], [-106.623, 38.0979], [-106.365, 38.0166], [-106.115, 37.9131], [-105.875, 37.7882], [-105.647, 37.6429], [-105.432, 37.4783], [-105.233, 37.2956], [-105.05, 37.0962], [-104.886, 36.8816], [-104.74, 36.6535], [-104.615, 36.4137], [-104.512, 36.1638], [-104.431, 35.9059], [-104.372, 35.6418], [-104.337, 35.3737], [-104.325, 35.1035], [-104.337, 34.8334], [-104.372, 34.5652], [-104.431, 34.3012], [-104.512, 34.0433], [-104.615, 33.7934], [-104.74, 33.5535], [-104.886, 33.3255], [-105.05, 33.1109], [-105.233, 32.9115], [-105.432, 32.7288], [-105.647, 32.5642], [-105.875, 32.4189], [-106.115, 32.294], [-106.365, 32.1905], [-106.623, 32.1092], [-106.887, 32.0506], [-107.155, 32.0153], [-107.425, 32.0035], [-107.695, 32.0153], [-107.963, 32.0506], [-108.227, 32.1092], [-108.485, 32.1905], [-108.735, 32.294], [-108.975, 32.4189], [-109.203, 32.5642], [-109.418, 32.7288], [-109.617, 32.9115], [-109.8, 33.1109], [-109.964, 33.3255], [-110.11, 33.5535], [-110.235, 33.7934], [-110.338, 34.0433], [-110.419, 34.3012], [-110.478, 34.5652], [-110.513, 34.8334]],
    "il4": [[-560.091, 18.9457], [-560.157, 18.7607], [-560.238, 18.5821], [-560.335, 18.4112], [-560.446, 18.2495], [-560.571, 18.098], [-560.708, 17.958], [-560.858, 17.8305], [-561.017, 17.7165], [-561.187, 17.6169], [-561.364, 17.5324], [-561.548, 17.4637], [-561.737, 17.4112], [-561.93, 17.3754], [-562.125, 17.3566], [-562.321, 17.3549], [-562.517, 17.3703], [-562.711, 17.4027], [-562.901, 17.4519], [-563.086, 17.5174], [-563.264, 17.5988], [-563.435, 17.6954], [-563.597, 17.8066], [-563.748, 17.9315], [-563.888, 18.069], [-564.016, 18.2183], [-564.13, 18.3781], [-564.229, 18.5472], [-564.314, 18.7244], [-564.383, 18.9083], [-564.435, 19.0974], [-564.471, 19.2904], [-564.49, 19.4858], [-564.491, 19.6821], [-564.476, 19.8777], [-564.444, 20.0713], [-564.395, 20.2614], [-564.329, 20.4464], [-564.248, 20.625], [-564.151, 20.7959], [-564.04, 20.9576], [-563.915, 21.1091], [-563.777, 21.2491], [-563.628, 21.3766], [-563.468, 21.4905], [-563.299, 21.5902], [-563.122, 21.6747], [-562.938, 21.7434], [-562.749, 21.7959], [-562.556, 21.8316], [-562.361, 21.8505], [-562.164, 21.8522], [-561.969, 21.8368], [-561.775, 21.8044], [-561.585, 21.7552], [-561.4, 21.6897], [-561.221, 21.6083], [-561.051, 21.5116], [-560.889, 21.4005], [-560.737, 21.2756], [-560.597, 21.138], [-560.47, 20.9888], [-560.356, 20.829], [-560.256, 20.6599], [-560.172, 20.4827], [-560.103, 20.2988], [-560.051, 20.1097], [-560.015, 19.9167], [-559.996, 19.7213], [-559.994, 19.525], [-560.01, 19.3293], [-560.042, 19.1357]],
    "il5": [[-560.091, -21.0543], [-560.157, -21.2393], [-560.238, -21.4179], [-560.335, -21.5888], [-560.446, -21.7505], [-560.571, -21.902], [-560.708, -22.042], [-560.858, -22.1695], [-561.017, -22.2835], [-561.187, -22.3831], [-561.364, -22.4676], [-561.548, -22.5363], [-561.737, -22.5888], [-561.93, -22.6246], [-562.125, -22.6434], [-562.321, -22.6451], [-562.517, -22.6297], [-562.711, -22.5973], [-562.901, -22.5481], [-563.086, -22.4826], [-563.264, -22.4012], [-563.435, -22.3046], [-563.597, -22.1934], [-563.748, -22.0685], [-563.888, -21.931], [-564.016, -21.7817], [-564.13, -21.6219], [-564.229, -21.4528], [-564.314, -21.2756], [-564.383, -21.0917], [-564.435, -20.9026], [-564.471, -20.7096], [-564.49, -20.5142], [-564.491, -20.3179], [-564.476, -20.1223], [-564.444, -19.9287], [-564.395, -19.7386], [-564.329, -19.5536], [-564.248, -19.375], [-564.151, -19.2041], [-564.04, -19.0424], [-563.915, -18.8909], [-563.777, -18.7509], [-563.628, -18.6234], [-563.468, -18.5095], [-563.299, -18.4098], [-563.122, -18.3253], [-562.938, -18.2566], [-562.749, -18.2041], [-562.556, -18.1684], [-562.361, -18.1495], [-562.164, -18.1478], [-561.969, -18.1632], [-561.775, -18.1956], [-561.585, -18.2448], [-561.4, -18.3103], [-561.221, -18.3917], [-561.051, -18.4884], [-560.889, -18.5995], [-560.737, -18.7244], [-560.597, -18.862], [-560.47, -19.0112], [-560.356, -19.171], [-560.256, -19.3401], [-560.172, -19.5173], [-560.103, -19.7012], [-560.051, -19.8903], [-560.015, -20.0833], [-559.996, -20.2787], [-559.994, -20.475], [-560.01, -20.6707], [-560.042, -20.8643]],
    "il6": [[-61.425, 205.929], [-61.4421, 205.536], [-61.4933, 205.147], [-61.5783, 204.764], [-61.6963, 204.389], [-61.8466, 204.027], [-62.0278, 203.679], [-62.2388, 203.347], [-62.4778, 203.036], [-62.743, 202.747], [-63.0324, 202.481], [-63.3439, 202.242], [-63.675, 202.031], [-64.0232, 201.85], [-64.3859, 201.7], [-64.7603, 201.582], [-65.1435, 201.497], [-65.5328, 201.446], [-65.925, 201.429], [-66.3172, 201.446], [-66.7064, 201.497], [-67.0897, 201.582], [-67.4641, 201.7], [-67.8267, 201.85], [-68.175, 202.031], [-68.5061, 202.242], [-68.8175, 202.481], [-69.1069, 202.747], [-69.3722, 203.036], [-69.6111, 203.347], [-69.8221, 203.679], [-70.0033, 204.027], [-70.1536, 204.389], [-70.2716, 204.764], [-70.3566, 205.147], [-70.4078, 205.536], [-70.425, 205.929], [-70.4078, 206.321], [-70.3566, 206.71], [-70.2716, 207.093], [-70.1536, 207.468], [-70.0033, 207.83], [-69.8221, 208.179], [-69.6111, 208.51], [-69.3722, 208.821], [-69.1069, 209.11], [-68.8175, 209.376], [-68.5061, 209.615], [-68.175, 209.826], [-67.8267, 210.007], [-67.4641, 210.157], [-67.0897, 210.275], [-66.7064, 210.36], [-66.3172, 210.411], [-65.925, 210.429], [-65.5328, 210.411], [-65.1435, 210.36], [-64.7603, 210.275], [-64.3859, 210.157], [-64.0232, 210.007], [-63.675, 209.826], [-63.3439, 209.615], [-63.0324, 209.376], [-62.743, 209.11], [-62.4778, 208.821], [-62.2388, 208.51], [-62.0278, 208.179], [-61.8466, 207.83], [-61.6963, 207.468], [-61.5783, 207.093], [-61.4933, 206.71], [-61.4421, 206.321]],
    "il7": [[-278.675, 168.429], [-278.684, 168.232], [-278.709, 168.038], [-278.752, 167.846], [-278.811, 167.659], [-278.886, 167.478], [-278.976, 167.304], [-279.082, 167.138], [-279.201, 166.982], [-279.334, 166.838], [-279.479, 166.705], [-279.634, 166.585], [-279.8, 166.48], [-279.974, 166.389], [-280.155, 166.314], [-280.343, 166.255], [-280.534, 166.213], [-280.729, 166.187], [-280.925, 166.179], [-281.121, 166.187], [-281.316, 166.213], [-281.507, 166.255], [-281.695, 166.314], [-281.876, 166.389], [-282.05, 166.48], [-282.216, 166.585], [-282.371, 166.705], [-282.516, 166.838], [-282.649, 166.982], [-282.768, 167.138], [-282.874, 167.304], [-282.964, 167.478], [-283.039, 167.659], [-283.098, 167.846], [-283.141, 168.038], [-283.166, 168.232], [-283.175, 168.429], [-283.166, 168.625], [-283.141, 168.819], [-283.098, 169.011], [-283.039, 169.198], [-282.964, 169.379], [-282.874, 169.554], [-282.768, 169.719], [-282.649, 169.875], [-282.516, 170.019], [-282.371, 170.152], [-282.216, 170.272], [-282.05, 170.377], [-281.876, 170.468], [-281.695, 170.543], [-281.507, 170.602], [-281.316, 170.644], [-281.121, 170.67], [-280.925, 170.679], [-280.729, 170.67], [-280.534, 170.644], [-280.343, 170.602], [-280.155, 170.543], [-279.974, 170.468], [-279.8, 170.377], [-279.634, 170.272], [-279.479, 170.152], [-279.334, 170.019], [-279.201, 169.875], [-279.082, 169.719], [-278.976, 169.554], [-278.886, 169.379], [-278.811, 169.198], [-278.752, 169.011], [-278.709, 168.819], [-278.684, 168.625]],
    "il8": [[-278.675, 208.429], [-278.684, 208.232], [-278.709, 208.038], [-278.752, 207.846], [-278.811, 207.659], [-278.886, 207.478], [-278.976, 207.304], [-279.082, 207.138], [-279.201, 206.982], [-279.334, 206.838], [-279.479, 206.705], [-279.634, 206.585], [-279.8, 206.48], [-279.974, 206.389], [-280.155, 206.314], [-280.343, 206.255], [-280.534, 206.213], [-280.729, 206.187], [-280.925, 206.179], [-281.121, 206.187], [-281.316, 206.213], [-281.507, 206.255], [-281.695, 206.314], [-281.876, 206.389], [-282.05, 206.48], [-282.216, 206.585], [-282.371, 206.705], [-282.516, 206.838], [-282.649, 206.982], [-282.768, 207.138], [-282.874, 207.304], [-282.964, 207.478], [-283.039, 207.659], [-283.098, 207.846], [-283.141, 208.038], [-283.166, 208.232], [-283.175, 208.429], [-283.166, 208.625], [-283.141, 208.819], [-283.098, 209.011], [-283.039, 209.198], [-282.964, 209.379], [-282.874, 209.554], [-282.768, 209.719], [-282.649, 209.875], [-282.516, 210.019], [-282.371, 210.152], [-282.216, 210.272], [-282.05, 210.377], [-281.876, 210.468], [-281.695, 210.543], [-281.507, 210.602], [-281.316, 210.644], [-281.121, 210.67], [-280.925, 210.679], [-280.729, 210.67], [-280.534, 210.644], [-280.343, 210.602], [-280.155, 210.543], [-279.974, 210.468], [-279.8, 210.377], [-279.634, 210.272], [-279.479, 210.152], [-279.334, 210.019], [-279.201, 209.875], [-279.082, 209.719], [-278.976, 209.554], [-278.886, 209.379], [-278.811, 209.198], [-278.752, 209.011], [-278.709, 208.819], [-278.684, 208.625]],
    "il9": [[-491.425, 205.929], [-491.442, 205.536], [-491.493, 205.147], [-491.578, 204.764], [-491.696, 204.389], [-491.847, 204.027], [-492.028, 203.679], [-492.239, 203.347], [-492.478, 203.036], [-492.743, 202.747], [-493.032, 202.481], [-493.344, 202.242], [-493.675, 202.031], [-494.023, 201.85], [-494.386, 201.7], [-494.76, 201.582], [-495.144, 201.497], [-495.533, 201.446], [-495.925, 201.429], [-496.317, 201.446], [-496.706, 201.497], [-497.09, 201.582], [-497.464, 201.7], [-497.827, 201.85], [-498.175, 202.031], [-498.506, 202.242], [-498.818, 202.481], [-499.107, 202.747], [-499.372, 203.036], [-499.611, 203.347], [-499.822, 203.679], [-500.003, 204.027], [-500.154, 204.389], [-500.272, 204.764], [-500.357, 205.147], [-500.408, 205.536], [-500.425, 205.929], [-500.408, 206.321], [-500.357, 206.71], [-500.272, 207.093], [-500.154, 207.468], [-500.003, 207.83], [-499.822, 208.179], [-499.611, 208.51], [-499.372, 208.821], [-499.107, 209.11], [-498.818, 209.376], [-498.506, 209.615], [-498.175, 209.826], [-497.827, 210.007], [-497.464, 210.157], [-497.09, 210.275], [-496.706, 210.36], [-496.317, 210.411], [-495.925, 210.429], [-495.533, 210.411], [-495.144, 210.36], [-494.76, 210.275], [-494.386, 210.157], [-494.023, 210.007], [-493.675, 209.826], [-493.344, 209.615], [-493.032, 209.376], [-492.743, 209.11], [-492.478, 208.821], [-492.239, 208.51], [-492.028, 208.179], [-491.847, 207.83], [-491.696, 207.468], [-491.578, 207.093], [-491.493, 206.71], [-491.442, 206.321]],
    "il10": [[-491.425, 80.9285], [-491.442, 80.5363], [-491.493, 80.1471], [-491.578, 79.7638], [-491.696, 79.3894], [-491.847, 79.0267], [-492.028, 78.6785], [-492.239, 78.3474], [-492.478, 78.036], [-492.743, 77.7465], [-493.032, 77.4813], [-493.344, 77.2423], [-493.675, 77.0314], [-494.023, 76.8501], [-494.386, 76.6999], [-494.76, 76.5818], [-495.144, 76.4969], [-495.533, 76.4456], [-495.925, 76.4285], [-496.317, 76.4456], [-496.706, 76.4969], [-497.09, 76.5818], [-497.464, 76.6999], [-497.827, 76.8501], [-498.175, 77.0314], [-498.506, 77.2423], [-498.818, 77.4813], [-499.107, 77.7465], [-499.372, 78.036], [-499.611, 78.3474], [-499.822, 78.6785], [-500.003, 79.0267], [-500.154, 79.3894], [-500.272, 79.7638], [-500.357, 80.1471], [-500.408, 80.5363], [-500.425, 80.9285], [-500.408, 81.3207], [-500.357, 81.7099], [-500.272, 82.0932], [-500.154, 82.4676], [-500.003, 82.8303], [-499.822, 83.1785], [-499.611, 83.5096], [-499.372, 83.821], [-499.107, 84.1105], [-498.818, 84.3757], [-498.506, 84.6147], [-498.175, 84.8256], [-497.827, 85.0069], [-497.464, 85.1571], [-497.09, 85.2752], [-496.706, 85.3601], [-496.317, 85.4114], [-495.925, 85.4285], [-495.533, 85.4114], [-495.144, 85.3601], [-494.76, 85.2752], [-494.386, 85.1571], [-494.023, 85.0069], [-493.675, 84.8256], [-493.344, 84.6147], [-493.032, 84.3757], [-492.743, 84.1105], [-492.478, 83.821], [-492.239, 83.5096], [-492.028, 83.1785], [-491.847, 82.8303], [-491.696, 82.4676], [-491.578, 82.0932], [-491.493, 81.7099], [-491.442, 81.3207]],
    "il11": [[-61.425, 80.9285], [-61.4421, 80.5363], [-61.4933, 80.1471], [-61.5783, 79.7638], [-61.6963, 79.3894], [-61.8466, 79.0267], [-62.0278, 78.6785], [-62.2388, 78.3474], [-62.4778, 78.036], [-62.743, 77.7465], [-63.0324, 77.4813], [-63.3439, 77.2423], [-63.675, 77.0314], [-64.0232, 76.8501], [-64.3859, 76.6999], [-64.7603, 76.5818], [-65.1435, 76.4969], [-65.5328, 76.4456], [-65.925, 76.4285], [-66.3172, 76.4456], [-66.7064, 76.4969], [-67.0897, 76.5818], [-67.4641, 76.6999], [-67.8267, 76.8501], [-68.175, 77.0314], [-68.5061, 77.2423], [-68.8175, 77.4813], [-69.1069, 77.7465], [-69.3722, 78.036], [-69.6111, 78.3474], [-69.8221, 78.6785], [-70.0033, 79.0267], [-70.1536, 79.3894], [-70.2716, 79.7638], [-70.3566, 80.1471], [-70.4078, 80.5363], [-70.425, 80.9285], [-70.4078, 81.3207], [-70.3566, 81.7099], [-70.2716, 82.0932], [-70.1536, 82.4676], [-70.0033, 82.8303], [-69.8221, 83.1785], [-69.6111, 83.5096], [-69.3722, 83.821], [-69.1069, 84.1105], [-68.8175, 84.3757], [-68.5061, 84.6147], [-68.175, 84.8256], [-67.8267, 85.0069], [-67.4641, 85.1571], [-67.0897, 85.2752], [-66.7064, 85.3601], [-66.3172, 85.4114], [-65.925, 85.4285], [-65.5328, 85.4114], [-65.1435, 85.3601], [-64.7603, 85.2752], [-64.3859, 85.1571], [-64.0232, 85.0069], [-63.675, 84.8256], [-63.3439, 84.6147], [-63.0324, 84.3757], [-62.743, 84.1105], [-62.4778, 83.821], [-62.2388, 83.5096], [-62.0278, 83.1785], [-61.8466, 82.8303], [-61.6963, 82.4676], [-61.5783, 82.0932], [-61.4933, 81.7099], [-61.4421, 81.3207]],
    "il12": [[-569.901, 213.277], [-570.086, 213.342], [-570.264, 213.424], [-570.435, 213.52], [-570.597, 213.632], [-570.748, 213.756], [-570.888, 213.894], [-571.016, 214.043], [-571.13, 214.203], [-571.229, 214.372], [-571.314, 214.549], [-571.383, 214.733], [-571.435, 214.922], [-571.471, 215.115], [-571.49, 215.311], [-571.491, 215.507], [-571.476, 215.703], [-571.444, 215.896], [-571.395, 216.086], [-571.329, 216.271], [-571.248, 216.45], [-571.151, 216.621], [-571.04, 216.783], [-570.915, 216.934], [-570.777, 217.074], [-570.628, 217.202], [-570.468, 217.316], [-570.299, 217.415], [-570.122, 217.5], [-569.938, 217.568], [-569.749, 217.621], [-569.556, 217.657], [-569.361, 217.675], [-569.164, 217.677], [-568.969, 217.662], [-568.775, 217.629], [-568.585, 217.58], [-568.4, 217.515], [-568.221, 217.433], [-568.051, 217.337], [-567.889, 217.225], [-567.737, 217.101], [-567.597, 216.963], [-567.47, 216.814], [-567.356, 216.654], [-567.256, 216.485], [-567.172, 216.308], [-567.103, 216.124], [-567.051, 215.935], [-567.015, 215.742], [-566.996, 215.546], [-566.994, 215.35], [-567.01, 215.154], [-567.042, 214.961], [-567.091, 214.771], [-567.157, 214.586], [-567.238, 214.407], [-567.335, 214.236], [-567.446, 214.074], [-567.571, 213.923], [-567.708, 213.783], [-567.858, 213.655], [-568.017, 213.541], [-568.187, 213.442], [-568.364, 213.357], [-568.548, 213.289], [-568.737, 213.236], [-568.93, 213.2], [-569.125, 213.182], [-569.321, 213.18], [-569.517, 213.195], [-569.711, 213.228]],
    "il13": [[-609.901, 243.277], [-610.086, 243.342], [-610.264, 243.424], [-610.435, 243.52], [-610.597, 243.632], [-610.748, 243.756], [-610.888, 243.894], [-611.016, 244.043], [-611.13, 244.203], [-611.229, 244.372], [-611.314, 244.549], [-611.383, 244.733], [-611.435, 244.922], [-611.471, 245.115], [-611.49, 245.311], [-611.491, 245.507], [-611.476, 245.703], [-611.444, 245.896], [-611.395, 246.086], [-611.329, 246.271], [-611.248, 246.45], [-611.151, 246.621], [-611.04, 246.783], [-610.915, 246.934], [-610.777, 247.074], [-610.628, 247.202], [-610.468, 247.316], [-610.299, 247.415], [-610.122, 247.5], [-609.938, 247.568], [-609.749, 247.621], [-609.556, 247.657], [-609.361, 247.675], [-609.164, 247.677], [-608.969, 247.662], [-608.775, 247.629], [-608.585, 247.58], [-608.4, 247.515], [-608.221, 247.433], [-608.051, 247.337], [-607.889, 247.225], [-607.737, 247.101], [-607.597, 246.963], [-607.47, 246.814], [-607.356, 246.654], [-607.256, 246.485], [-607.172, 246.308], [-607.103, 246.124], [-607.051, 245.935], [-607.015, 245.742], [-606.996, 245.546], [-606.994, 245.35], [-607.01, 245.154], [-607.042, 244.961], [-607.091, 244.771], [-607.157, 244.586], [-607.238, 244.407], [-607.335, 244.236], [-607.446, 244.074], [-607.571, 243.923], [-607.708, 243.783], [-607.858, 243.655], [-608.017, 243.541], [-608.187, 243.442], [-608.364, 243.357], [-608.548, 243.289], [-608.737, 243.236], [-608.93, 243.2], [-609.125, 243.182], [-609.321, 243.18], [-609.517, 243.195], [-609.711, 243.228]],
    "il14": [[-609.901, 181.27], [-610.086, 181.335], [-610.264, 181.417], [-610.435, 181.513], [-610.597, 181.624], [-610.748, 181.749], [-610.888, 181.887], [-611.016, 182.036], [-611.13, 182.196], [-611.229, 182.365], [-611.314, 182.542], [-611.383, 182.726], [-611.435, 182.915], [-611.471, 183.108], [-611.49, 183.304], [-611.491, 183.5], [-611.476, 183.696], [-611.444, 183.889], [-611.395, 184.079], [-611.329, 184.264], [-611.248, 184.443], [-611.151, 184.614], [-611.04, 184.776], [-610.915, 184.927], [-610.777, 185.067], [-610.628, 185.194], [-610.468, 185.308], [-610.299, 185.408], [-610.122, 185.493], [-609.938, 185.561], [-609.749, 185.614], [-609.556, 185.65], [-609.361, 185.668], [-609.164, 185.67], [-608.969, 185.655], [-608.775, 185.622], [-608.585, 185.573], [-608.4, 185.508], [-608.221, 185.426], [-608.051, 185.33], [-607.889, 185.218], [-607.737, 185.094], [-607.597, 184.956], [-607.47, 184.807], [-607.356, 184.647], [-607.256, 184.478], [-607.172, 184.301], [-607.103, 184.117], [-607.051, 183.928], [-607.015, 183.735], [-606.996, 183.539], [-606.994, 183.343], [-607.01, 183.147], [-607.042, 182.954], [-607.091, 182.764], [-607.157, 182.579], [-607.238, 182.4], [-607.335, 182.229], [-607.446, 182.067], [-607.571, 181.916], [-607.708, 181.776], [-607.858, 181.648], [-608.017, 181.534], [-608.187, 181.435], [-608.364, 181.35], [-608.548, 181.282], [-608.737, 181.229], [-608.93, 181.193], [-609.125, 181.175], [-609.321, 181.173], [-609.517, 181.188], [-609.711, 181.221]],
    "il15": [[-609.901, 101.27], [-610.086, 101.335], [-610.264, 101.417], [-610.435, 101.513], [-610.597, 101.624], [-610.748, 101.749], [-610.888, 101.887], [-611.016, 102.036], [-611.13, 102.196], [-611.229, 102.365], [-611.314, 102.542], [-611.383, 102.726], [-611.435, 102.915], [-611.471, 103.108], [-611.49, 103.304], [-611.491, 103.5], [-611.476, 103.696], [-611.444, 103.889], [-611.395, 104.079], [-611.329, 104.264], [-611.248, 104.443], [-611.151, 104.614], [-611.04, 104.776], [-610.915, 104.927], [-610.777, 105.067], [-610.628, 105.194], [-610.468, 105.308], [-610.299, 105.408], [-610.122, 105.493], [-609.938, 105.561], [-609.749, 105.614], [-609.556, 105.65], [-609.361, 105.668], [-609.164, 105.67], [-608.969, 105.655], [-608.775, 105.622], [-608.585, 105.573], [-608.4, 105.508], [-608.221, 105.426], [-608.051, 105.33], [-607.889, 105.218], [-607.737, 105.094], [-607.597, 104.956], [-607.47, 104.807], [-607.356, 104.647], [-607.256, 104.478], [-607.172, 104.301], [-607.103, 104.117], [-607.051, 103.928], [-607.015, 103.735], [-606.996, 103.539], [-606.994, 103.343], [-607.01, 103.147], [-607.042, 102.954], [-607.091, 102.764], [-607.157, 102.579], [-607.238, 102.4], [-607.335, 102.229], [-607.446, 102.067], [-607.571, 101.916], [-607.708, 101.776], [-607.858, 101.648], [-608.017, 101.534], [-608.187, 101.435], [-608.364, 101.35], [-608.548, 101.282], [-608.737, 101.229], [-608.93, 101.193], [-609.125, 101.175], [-609.321, 101.173], [-609.517, 101.188], [-609.711, 101.221]],
    "il16": [[-569.901, 141.27], [-570.086, 141.335], [-570.264, 141.417], [-570.435, 141.513], [-570.597, 141.624], [-570.748, 141.749], [-570.888, 141.887], [-571.016, 142.036], [-571.13, 142.196], [-571.229, 142.365], [-571.314, 142.542], [-571.383, 142.726], [-571.435, 142.915], [-571.471, 143.108], [-571.49, 143.304], [-571.491, 143.5], [-571.476, 143.696], [-571.444, 143.889], [-571.395, 144.079], [-571.329, 144.264], [-571.248, 144.443], [-571.151, 144.614], [-571.04, 144.776], [-570.915, 144.927], [-570.777, 145.067], [-570.628, 145.194], [-570.468, 145.308], [-570.299, 145.408], [-570.122, 145.493], [-569.938, 145.561], [-569.749, 145.614], [-569.556, 145.65], [-569.361, 145.668], [-569.164, 145.67], [-568.969, 145.655], [-568.775, 145.622], [-568.585, 145.573], [-568.4, 145.508], [-568.221, 145.426], [-568.051, 145.33], [-567.889, 145.218], [-567.737, 145.094], [-567.597, 144.956], [-567.47, 144.807], [-567.356, 144.647], [-567.256, 144.478], [-567.172, 144.301], [-567.103, 144.117], [-567.051, 143.928], [-567.015, 143.735], [-566.996, 143.539], [-566.994, 143.343], [-567.01, 143.147], [-567.042, 142.954], [-567.091, 142.764], [-567.157, 142.579], [-567.238, 142.4], [-567.335, 142.229], [-567.446, 142.067], [-567.571, 141.916], [-567.708, 141.776], [-567.858, 141.648], [-568.017, 141.534], [-568.187, 141.435], [-568.364, 141.35], [-568.548, 141.282], [-568.737, 141.229], [-568.93, 141.193], [-569.125, 141.175], [-569.321, 141.173], [-569.517, 141.188], [-569.711, 141.221]],
    "il17": [[47.3929, 105.671], [47.589, 105.663], [47.7836, 105.637], [47.9753, 105.595], [48.1625, 105.536], [48.3438, 105.461], [48.5179, 105.37], [48.6835, 105.265], [48.8392, 105.145], [48.9839, 105.012], [49.1165, 104.868], [49.236, 104.712], [49.3415, 104.546], [49.4321, 104.372], [49.5072, 104.191], [49.5663, 104.004], [49.6087, 103.812], [49.6344, 103.618], [49.6429, 103.421], [49.6344, 103.225], [49.6087, 103.031], [49.5663, 102.839], [49.5072, 102.652], [49.4321, 102.471], [49.3415, 102.296], [49.236, 102.131], [49.1165, 101.975], [48.9839, 101.83], [48.8392, 101.698], [48.6835, 101.578], [48.5179, 101.473], [48.3438, 101.382], [48.1625, 101.307], [47.9753, 101.248], [47.7836, 101.206], [47.589, 101.18], [47.3929, 101.171], [47.1968, 101.18], [47.0022, 101.206], [46.8106, 101.248], [46.6234, 101.307], [46.442, 101.382], [46.2679, 101.473], [46.1024, 101.578], [45.9466, 101.698], [45.8019, 101.83], [45.6693, 101.975], [45.5498, 102.131], [45.4444, 102.296], [45.3537, 102.471], [45.2786, 102.652], [45.2196, 102.839], [45.1771, 103.031], [45.1515, 103.225], [45.1429, 103.421], [45.1515, 103.618], [45.1771, 103.812], [45.2196, 104.004], [45.2786, 104.191], [45.3537, 104.372], [45.4444, 104.546], [45.5498, 104.712], [45.6693, 104.868], [45.8019, 105.012], [45.9466, 105.145], [46.1024, 105.265], [46.2679, 105.37], [46.442, 105.461], [46.6234, 105.536], [46.8106, 105.595], [47.0022, 105.637], [47.1968, 105.663]],
    "il18": [[7.39292, 145.671], [7.58902, 145.663], [7.78363, 145.637], [7.97526, 145.595], [8.16247, 145.536], [8.34381, 145.461], [8.51792, 145.37], [8.68347, 145.265], [8.83919, 145.145], [8.98391, 145.012], [9.11652, 144.868], [9.23601, 144.712], [9.34148, 144.546], [9.43211, 144.372], [9.50723, 144.191], [9.56625, 144.004], [9.60874, 143.812], [9.63436, 143.618], [9.64292, 143.421], [9.63436, 143.225], [9.60874, 143.031], [9.56625, 142.839], [9.50723, 142.652], [9.43211, 142.471], [9.34148, 142.296], [9.23601, 142.131], [9.11652, 141.975], [8.98391, 141.83], [8.83919, 141.698], [8.68347, 141.578], [8.51792, 141.473], [8.34381, 141.382], [8.16247, 141.307], [7.97526, 141.248], [7.78363, 141.206], [7.58902, 141.18], [7.39292, 141.171], [7.19682, 141.18], [7.00221, 141.206], [6.81058, 141.248], [6.62337, 141.307], [6.44203, 141.382], [6.26792, 141.473], [6.10237, 141.578], [5.94665, 141.698], [5.80193, 141.83], [5.66932, 141.975], [5.54983, 142.131], [5.44436, 142.296], [5.35373, 142.471], [5.27861, 142.652], [5.21959, 142.839], [5.1771, 143.031], [5.15148, 143.225], [5.14292, 143.421], [5.15148, 143.618], [5.1771, 143.812], [5.21959, 144.004], [5.27861, 144.191], [5.35373, 144.372], [5.44436, 144.546], [5.54983, 144.712], [5.66932, 144.868], [5.80193, 145.012], [5.94665, 145.145], [6.10237, 145.265], [6.26792, 145.37], [6.44203, 145.461], [6.62337, 145.536], [6.81058, 145.595], [7.00221, 145.637], [7.19682, 145.663]],
    "il19": [[47.3929, 247.679], [47.589, 247.67], [47.7836, 247.644], [47.9753, 247.602], [48.1625, 247.543], [48.3438, 247.468], [48.5179, 247.377], [48.6835, 247.272], [48.8392, 247.152], [48.9839, 247.019], [49.1165, 246.875], [49.236, 246.719], [49.3415, 246.554], [49.4321, 246.379], [49.5072, 246.198], [49.5663, 246.011], [49.6087, 245.819], [49.6344, 245.625], [49.6429, 245.429], [49.6344, 245.232], [49.6087, 245.038], [49.5663, 244.846], [49.5072, 244.659], [49.4321, 244.478], [49.3415, 244.304], [49.236, 244.138], [49.1165, 243.982], [48.9839, 243.838], [48.8392, 243.705], [48.6835, 243.585], [48.5179, 243.48], [48.3438, 243.389], [48.1625, 243.314], [47.9753, 243.255], [47.7836, 243.213], [47.589, 243.187], [47.3929, 243.179], [47.1968, 243.187], [47.0022, 243.213], [46.8106, 243.255], [46.6234, 243.314], [46.442, 243.389], [46.2679, 243.48], [46.1024, 243.585], [45.9466, 243.705], [45.8019, 243.838], [45.6693, 243.982], [45.5498, 244.138], [45.4444, 244.304], [45.3537, 244.478], [45.2786, 244.659], [45.2196, 244.846], [45.1771, 245.038], [45.1515, 245.232], [45.1429, 245.429], [45.1515, 245.625], [45.1771, 245.819], [45.2196, 246.011], [45.2786, 246.198], [45.3537, 246.379], [45.4444, 246.554], [45.5498, 246.719], [45.6693, 246.875], [45.8019, 247.019], [45.9466, 247.152], [46.1024, 247.272], [46.2679, 247.377], [46.442, 247.468], [46.6234, 247.543], [46.8106, 247.602], [47.0022, 247.644], [47.1968, 247.67]],
    "il20": [[7.39292, 217.679], [7.58902, 217.67], [7.78363, 217.644], [7.97526, 217.602], [8.16247, 217.543], [8.34381, 217.468], [8.51792, 217.377], [8.68347, 217.272], [8.83919, 217.152], [8.98391, 217.019], [9.11652, 216.875], [9.23601, 216.719], [9.34148, 216.554], [9.43211, 216.379], [9.50723, 216.198], [9.56625, 216.011], [9.60874, 215.819], [9.63436, 215.625], [9.64292, 215.429], [9.63436, 215.232], [9.60874, 215.038], [9.56625, 214.846], [9.50723, 214.659], [9.43211, 214.478], [9.34148, 214.304], [9.23601, 214.138], [9.11652, 213.982], [8.98391, 213.838], [8.83919, 213.705], [8.68347, 213.585], [8.51792, 213.48], [8.34381, 213.389], [8.16247, 213.314], [7.97526, 213.255], [7.78363, 213.213], [7.58902, 213.187], [7.39292, 213.179], [7.19682, 213.187], [7.00221, 213.213], [6.81058, 213.255], [6.62337, 213.314], [6.44203, 213.389], [6.26792, 213.48], [6.10237, 213.585], [5.94665, 213.705], [5.80193, 213.838], [5.66932, 213.982], [5.54983, 214.138], [5.44436, 214.304], [5.35373, 214.478], [5.27861, 214.659], [5.21959, 214.846], [5.1771, 215.038], [5.15148, 215.232], [5.14292, 215.429], [5.15148, 215.625], [5.1771, 215.819], [5.21959, 216.011], [5.27861, 216.198], [5.35373, 216.379], [5.44436, 216.554], [5.54983, 216.719], [5.66932, 216.875], [5.80193, 217.019], [5.94665, 217.152], [6.10237, 217.272], [6.26792, 217.377], [6.44203, 217.468], [6.62337, 217.543], [6.81058, 217.602], [7.00221, 217.644], [7.19682, 217.67]],
    "il21": [[47.3929, 185.671], [47.589, 185.663], [47.7836, 185.637], [47.9753, 185.595], [48.1625, 185.536], [48.3438, 185.461], [48.5179, 185.37], [48.6835, 185.265], [48.8392, 185.145], [48.9839, 185.012], [49.1165, 184.868], [49.236, 184.712], [49.3415, 184.546], [49.4321, 184.372], [49.5072, 184.191], [49.5663, 184.004], [49.6087, 183.812], [49.6344, 183.618], [49.6429, 183.421], [49.6344, 183.225], [49.6087, 183.031], [49.5663, 182.839], [49.5072, 182.652], [49.4321, 182.471], [49.3415, 182.296], [49.236, 182.131], [49.1165, 181.975], [48.9839, 181.83], [48.8392, 181.698], [48.6835, 181.578], [48.5179, 181.473], [48.3438, 181.382], [48.1625, 181.307], [47.9753, 181.248], [47.7836, 181.206], [47.589, 181.18], [47.3929, 181.171], [47.1968, 181.18], [47.0022, 181.206], [46.8106, 181.248], [46.6234, 181.307], [46.442, 181.382], [46.2679, 181.473], [46.1024, 181.578], [45.9466, 181.698], [45.8019, 181.83], [45.6693, 181.975], [45.5498, 182.131], [45.4444, 182.296], [45.3537, 182.471], [45.2786, 182.652], [45.2196, 182.839], [45.1771, 183.031], [45.1515, 183.225], [45.1429, 183.421], [45.1515, 183.618], [45.1771, 183.812], [45.2196, 184.004], [45.2786, 184.191], [45.3537, 184.372], [45.4444, 184.546], [45.5498, 184.712], [45.6693, 184.868], [45.8019, 185.012], [45.9466, 185.145], [46.1024, 185.265], [46.2679, 185.37], [46.442, 185.461], [46.6234, 185.536], [46.8106, 185.595], [47.0022, 185.637], [47.1968, 185.663]],
    "il22": [[-431.425, 376.564], [-431.442, 376.172], [-431.493, 375.783], [-431.578, 375.4], [-431.696, 375.025], [-431.847, 374.663], [-432.028, 374.314], [-432.239, 373.983], [-432.478, 373.672], [-432.743, 373.382], [-433.032, 373.117], [-433.344, 372.878], [-433.675, 372.667], [-434.023, 372.486], [-434.386, 372.336], [-434.76, 372.218], [-435.144, 372.133], [-435.533, 372.082], [-435.925, 372.064], [-436.317, 372.082], [-436.706, 372.133], [-437.09, 372.218], [-437.464, 372.336], [-437.827, 372.486], [-438.175, 372.667], [-438.506, 372.878], [-438.818, 373.117], [-439.107, 373.382], [-439.372, 373.672], [-439.611, 373.983], [-439.822, 374.314], [-440.003, 374.663], [-440.154, 375.025], [-440.272, 375.4], [-440.357, 375.783], [-440.408, 376.172], [-440.425, 376.564], [-440.408, 376.957], [-440.357, 377.346], [-440.272, 377.729], [-440.154, 378.103], [-440.003, 378.466], [-439.822, 378.814], [-439.611, 379.145], [-439.372, 379.457], [-439.107, 379.746], [-438.818, 380.012], [-438.506, 380.251], [-438.175, 380.462], [-437.827, 380.643], [-437.464, 380.793], [-437.09, 380.911], [-436.706, 380.996], [-436.317, 381.047], [-435.925, 381.064], [-435.533, 381.047], [-435.144, 380.996], [-434.76, 380.911], [-434.386, 380.793], [-434.023, 380.643], [-433.675, 380.462], [-433.344, 380.251], [-433.032, 380.012], [-432.743, 379.746], [-432.478, 379.457], [-432.239, 379.145], [-432.028, 378.814], [-431.847, 378.466], [-431.696, 378.103], [-431.578, 377.729], [-431.493, 377.346], [-431.442, 376.957]],
    "il23": [[-270.925, 492.844], [-270.963, 491.973], [-271.077, 491.108], [-271.266, 490.256], [-271.528, 489.424], [-271.862, 488.618], [-272.265, 487.844], [-272.733, 487.109], [-273.265, 486.417], [-273.854, 485.773], [-274.497, 485.184], [-275.189, 484.653], [-275.925, 484.184], [-276.699, 483.781], [-277.505, 483.447], [-278.337, 483.185], [-279.188, 482.996], [-280.053, 482.882], [-280.925, 482.844], [-281.797, 482.882], [-282.661, 482.996], [-283.513, 483.185], [-284.345, 483.447], [-285.151, 483.781], [-285.925, 484.184], [-286.661, 484.653], [-287.353, 485.184], [-287.996, 485.773], [-288.585, 486.417], [-289.116, 487.109], [-289.585, 487.844], [-289.988, 488.618], [-290.322, 489.424], [-290.584, 490.256], [-290.773, 491.108], [-290.887, 491.973], [-290.925, 492.844], [-290.887, 493.716], [-290.773, 494.581], [-290.584, 495.433], [-290.322, 496.265], [-289.988, 497.071], [-289.585, 497.844], [-289.116, 498.58], [-288.585, 499.272], [-287.996, 499.915], [-287.353, 500.505], [-286.661, 501.036], [-285.925, 501.505], [-285.151, 501.907], [-284.345, 502.241], [-283.513, 502.504], [-282.661, 502.692], [-281.797, 502.806], [-280.925, 502.844], [-280.053, 502.806], [-279.188, 502.692], [-278.337, 502.504], [-277.505, 502.241], [-276.699, 501.907], [-275.925, 501.505], [-275.189, 501.036], [-274.497, 500.505], [-273.854, 499.915], [-273.265, 499.272], [-272.733, 498.58], [-272.265, 497.844], [-271.862, 497.071], [-271.528, 496.265], [-271.266, 495.433], [-271.077, 494.581], [-270.963, 493.716]],
    "il24": [[-121.425, 376.564], [-121.442, 376.172], [-121.493, 375.783], [-121.578, 375.4], [-121.696, 375.025], [-121.847, 374.663], [-122.028, 374.314], [-122.239, 373.983], [-122.478, 373.672], [-122.743, 373.382], [-123.032, 373.117], [-123.344, 372.878], [-123.675, 372.667], [-124.023, 372.486], [-124.386, 372.336], [-124.76, 372.218], [-125.144, 372.133], [-125.533, 372.082], [-125.925, 372.064], [-126.317, 372.082], [-126.706, 372.133], [-127.09, 372.218], [-127.464, 372.336], [-127.827, 372.486], [-128.175, 372.667], [-128.506, 372.878], [-128.818, 373.117], [-129.107, 373.382], [-129.372, 373.672], [-129.611, 373.983], [-129.822, 374.314], [-130.003, 374.663], [-130.154, 375.025], [-130.272, 375.4], [-130.357, 375.783], [-130.408, 376.172], [-130.425, 376.564], [-130.408, 376.957], [-130.357, 377.346], [-130.272, 377.729], [-130.154, 378.103], [-130.003, 378.466], [-129.822, 378.814], [-129.611, 379.145], [-129.372, 379.457], [-129.107, 379.746], [-128.818, 380.012], [-128.506, 380.251], [-128.175, 380.462], [-127.827, 380.643], [-127.464, 380.793], [-127.09, 380.911], [-126.706, 380.996], [-126.317, 381.047], [-125.925, 381.064], [-125.533, 381.047], [-125.144, 380.996], [-124.76, 380.911], [-124.386, 380.793], [-124.023, 380.643], [-123.675, 380.462], [-123.344, 380.251], [-123.032, 380.012], [-122.743, 379.746], [-122.478, 379.457], [-122.239, 379.145], [-122.028, 378.814], [-121.847, 378.466], [-121.696, 378.103], [-121.578, 377.729], [-121.493, 377.346], [-121.442, 376.957]],
    "il25": [[-583.901, 497.913], [-584.086, 497.978], [-584.264, 498.06], [-584.435, 498.156], [-584.597, 498.267], [-584.748, 498.392], [-584.888, 498.53], [-585.016, 498.679], [-585.13, 498.839], [-585.229, 499.008], [-585.314, 499.185], [-585.383, 499.369], [-585.435, 499.558], [-585.471, 499.751], [-585.49, 499.947], [-585.491, 500.143], [-585.476, 500.338], [-585.444, 500.532], [-585.395, 500.722], [-585.329, 500.907], [-585.248, 501.086], [-585.151, 501.257], [-585.04, 501.418], [-584.915, 501.57], [-584.777, 501.71], [-584.628, 501.837], [-584.468, 501.951], [-584.299, 502.051], [-584.122, 502.135], [-583.938, 502.204], [-583.749, 502.257], [-583.556, 502.292], [-583.361, 502.311], [-583.164, 502.313], [-582.969, 502.298], [-582.775, 502.265], [-582.585, 502.216], [-582.4, 502.15], [-582.221, 502.069], [-582.051, 501.972], [-581.889, 501.861], [-581.737, 501.736], [-581.597, 501.599], [-581.47, 501.45], [-581.356, 501.29], [-581.256, 501.121], [-581.172, 500.943], [-581.103, 500.76], [-581.051, 500.57], [-581.015, 500.377], [-580.996, 500.182], [-580.994, 499.986], [-581.01, 499.79], [-581.042, 499.596], [-581.091, 499.406], [-581.157, 499.221], [-581.238, 499.043], [-581.335, 498.872], [-581.446, 498.71], [-581.571, 498.559], [-581.708, 498.419], [-581.858, 498.291], [-582.017, 498.177], [-582.187, 498.078], [-582.364, 497.993], [-582.548, 497.924], [-582.737, 497.872], [-582.93, 497.836], [-583.125, 497.817], [-583.321, 497.816], [-583.517, 497.831], [-583.711, 497.863]],
    "il26": [[-583.901, 407.913], [-584.086, 407.978], [-584.264, 408.06], [-584.435, 408.156], [-584.597, 408.267], [-584.748, 408.392], [-584.888, 408.53], [-585.016, 408.679], [-585.13, 408.839], [-585.229, 409.008], [-585.314, 409.185], [-585.383, 409.369], [-585.435, 409.558], [-585.471, 409.751], [-585.49, 409.947], [-585.491, 410.143], [-585.476, 410.338], [-585.444, 410.532], [-585.395, 410.722], [-585.329, 410.907], [-585.248, 411.086], [-585.151, 411.257], [-585.04, 411.418], [-584.915, 411.57], [-584.777, 411.71], [-584.628, 411.837], [-584.468, 411.951], [-584.299, 412.051], [-584.122, 412.135], [-583.938, 412.204], [-583.749, 412.257], [-583.556, 412.292], [-583.361, 412.311], [-583.164, 412.313], [-582.969, 412.298], [-582.775, 412.265], [-582.585, 412.216], [-582.4, 412.15], [-582.221, 412.069], [-582.051, 411.972], [-581.889, 411.861], [-581.737, 411.736], [-581.597, 411.599], [-581.47, 411.45], [-581.356, 411.29], [-581.256, 411.121], [-581.172, 410.943], [-581.103, 410.76], [-581.051, 410.57], [-581.015, 410.377], [-580.996, 410.182], [-580.994, 409.986], [-581.01, 409.79], [-581.042, 409.596], [-581.091, 409.406], [-581.157, 409.221], [-581.238, 409.043], [-581.335, 408.872], [-581.446, 408.71], [-581.571, 408.559], [-581.708, 408.419], [-581.858, 408.291], [-582.017, 408.177], [-582.187, 408.078], [-582.364, 407.993], [-582.548, 407.924], [-582.737, 407.872], [-582.93, 407.836], [-583.125, 407.817], [-583.321, 407.816], [-583.517, 407.831], [-583.711, 407.863]],
    "il27": [[-583.901, 317.913], [-584.086, 317.978], [-584.264, 318.06], [-584.435, 318.156], [-584.597, 318.267], [-584.748, 318.392], [-584.888, 318.53], [-585.016, 318.679], [-585.13, 318.839], [-585.229, 319.008], [-585.314, 319.185], [-585.383, 319.369], [-585.435, 319.558], [-585.471, 319.751], [-585.49, 319.947], [-585.491, 320.143], [-585.476, 320.338], [-585.444, 320.532], [-585.395, 320.722], [-585.329, 320.907], [-585.248, 321.086], [-585.151, 321.257], [-585.04, 321.418], [-584.915, 321.57], [-584.777, 321.71], [-584.628, 321.837], [-584.468, 321.951], [-584.299, 322.051], [-584.122, 322.135], [-583.938, 322.204], [-583.749, 322.257], [-583.556, 322.292], [-583.361, 322.311], [-583.164, 322.313], [-582.969, 322.298], [-582.775, 322.265], [-582.585, 322.216], [-582.4, 322.15], [-582.221, 322.069], [-582.051, 321.972], [-581.889, 321.861], [-581.737, 321.736], [-581.597, 321.599], [-581.47, 321.45], [-581.356, 321.29], [-581.256, 321.121], [-581.172, 320.943], [-581.103, 320.76], [-581.051, 320.57], [-581.015, 320.377], [-580.996, 320.182], [-580.994, 319.986], [-581.01, 319.79], [-581.042, 319.596], [-581.091, 319.406], [-581.157, 319.221], [-581.238, 319.043], [-581.335, 318.872], [-581.446, 318.71], [-581.571, 318.559], [-581.708, 318.419], [-581.858, 318.291], [-582.017, 318.177], [-582.187, 318.078], [-582.364, 317.993], [-582.548, 317.924], [-582.737, 317.872], [-582.93, 317.836], [-583.125, 317.817], [-583.321, 317.816], [-583.517, 317.831], [-583.711, 317.863]],
    "il28": [[21.3929, 412.314], [21.589, 412.306], [21.7836, 412.28], [21.9753, 412.238], [22.1625, 412.179], [22.3438, 412.103], [22.5179, 412.013], [22.6835, 411.907], [22.8392, 411.788], [22.9839, 411.655], [23.1165, 411.511], [23.236, 411.355], [23.3415, 411.189], [23.4321, 411.015], [23.5072, 410.834], [23.5663, 410.647], [23.6087, 410.455], [23.6344, 410.26], [23.6429, 410.064], [23.6344, 409.868], [23.6087, 409.674], [23.5663, 409.482], [23.5072, 409.295], [23.4321, 409.113], [23.3415, 408.939], [23.236, 408.774], [23.1165, 408.618], [22.9839, 408.473], [22.8392, 408.341], [22.6835, 408.221], [22.5179, 408.116], [22.3438, 408.025], [22.1625, 407.95], [21.9753, 407.891], [21.7836, 407.848], [21.589, 407.823], [21.3929, 407.814], [21.1968, 407.823], [21.0022, 407.848], [20.8106, 407.891], [20.6234, 407.95], [20.442, 408.025], [20.2679, 408.116], [20.1024, 408.221], [19.9466, 408.341], [19.8019, 408.473], [19.6693, 408.618], [19.5498, 408.774], [19.4444, 408.939], [19.3537, 409.113], [19.2786, 409.295], [19.2196, 409.482], [19.1771, 409.674], [19.1515, 409.868], [19.1429, 410.064], [19.1515, 410.26], [19.1771, 410.455], [19.2196, 410.647], [19.2786, 410.834], [19.3537, 411.015], [19.4444, 411.189], [19.5498, 411.355], [19.6693, 411.511], [19.8019, 411.655], [19.9466, 411.788], [20.1024, 411.907], [20.2679, 412.013], [20.442, 412.103], [20.6234, 412.179], [20.8106, 412.238], [21.0022, 412.28], [21.1968, 412.306]],
    "il29": [[21.3929, 322.314], [21.589, 322.306], [21.7836, 322.28], [21.9753, 322.238], [22.1625, 322.179], [22.3438, 322.103], [22.5179, 322.013], [22.6835, 321.907], [22.8392, 321.788], [22.9839, 321.655], [23.1165, 321.511], [23.236, 321.355], [23.3415, 321.189], [23.4321, 321.015], [23.5072, 320.834], [23.5663, 320.647], [23.6087, 320.455], [23.6344, 320.26], [23.6429, 320.064], [23.6344, 319.868], [23.6087, 319.674], [23.5663, 319.482], [23.5072, 319.295], [23.4321, 319.113], [23.3415, 318.939], [23.236, 318.774], [23.1165, 318.618], [22.9839, 318.473], [22.8392, 318.341], [22.6835, 318.221], [22.5179, 318.116], [22.3438, 318.025], [22.1625, 317.95], [21.9753, 317.891], [21.7836, 317.848], [21.589, 317.823], [21.3929, 317.814], [21.1968, 317.823], [21.0022, 317.848], [20.8106, 317.891], [20.6234, 317.95], [20.442, 318.025], [20.2679, 318.116], [20.1024, 318.221], [19.9466, 318.341], [19.8019, 318.473], [19.6693, 318.618], [19.5498, 318.774], [19.4444, 318.939], [19.3537, 319.113], [19.2786, 319.295], [19.2196, 319.482], [19.1771, 319.674], [19.1515, 319.868], [19.1429, 320.064], [19.1515, 320.26], [19.1771, 320.455], [19.2196, 320.647], [19.2786, 320.834], [19.3537, 321.015], [19.4444, 321.189], [19.5498, 321.355], [19.6693, 321.511], [19.8019, 321.655], [19.9466, 321.788], [20.1024, 321.907], [20.2679, 322.013], [20.442, 322.103], [20.6234, 322.179], [20.8106, 322.238], [21.0022, 322.28], [21.1968, 322.306]],
    "il30": [[21.3929, 502.314], [21.589, 502.306], [21.7836, 502.28], [21.9753, 502.238], [22.1625, 502.179], [22.3438, 502.103], [22.5179, 502.013], [22.6835, 501.907], [22.8392, 501.788], [22.9839, 501.655], [23.1165, 501.511], [23.236, 501.355], [23.3415, 501.189], [23.4321, 501.015], [23.5072, 500.834], [23.5663, 500.647], [23.6087, 500.455], [23.6344, 500.26], [23.6429, 500.064], [23.6344, 499.868], [23.6087, 499.674], [23.5663, 499.482], [23.5072, 499.295], [23.4321, 499.113], [23.3415, 498.939], [23.236, 498.774], [23.1165, 498.618], [22.9839, 498.473], [22.8392, 498.341], [22.6835, 498.221], [22.5179, 498.116], [22.3438, 498.025], [22.1625, 497.95], [21.9753, 497.891], [21.7836, 497.848], [21.589, 497.823], [21.3929, 497.814], [21.1968, 497.823], [21.0022, 497.848], [20.8106, 497.891], [20.6234, 497.95], [20.442, 498.025], [20.2679, 498.116], [20.1024, 498.221], [19.9466, 498.341], [19.8019, 498.473], [19.6693, 498.618], [19.5498, 498.774], [19.4444, 498.939], [19.3537, 499.113], [19.2786, 499.295], [19.2196, 499.482], [19.1771, 499.674], [19.1515, 499.868], [19.1429, 500.064], [19.1515, 500.26], [19.1771, 500.455], [19.2196, 500.647], [19.2786, 500.834], [19.3537, 501.015], [19.4444, 501.189], [19.5498, 501.355], [19.6693, 501.511], [19.8019, 501.655], [19.9466, 501.788], [20.1024, 501.907], [20.2679, 502.013], [20.442, 502.103], [20.6234, 502.179], [20.8106, 502.238], [21.0022, 502.28], [21.1968, 502.306]]
  },
  "count": 1,
  "angleStepDeg": 30
}
