{
  "name": "FACE_1",
  "outerPolygon": [[19, 39.25], [18.9898, 39.4977], [18.9591, 39.7438], [18.9082, 39.9865], [18.8375, 40.2241], [18.7473, 40.4551], [18.6384, 40.6778], [18.5115, 40.8908], [18.3674, 41.0926], [18.2072, 41.2818], [18.0318, 41.4572], [17.8426, 41.6174], [17.6408, 41.7615], [17.4278, 41.8884], [17.2051, 41.9973], [16.9741, 42.0875], [16.7365, 42.1582], [16.4938, 42.2091], [16.2477, 42.2398], [16, 42.25], [-11.5303, 42.25], [-11.0935, 42.6762], [-10.6236, 43.0655], [-10.1235, 43.4153], [-9.59669, 43.7233], [-9.04657, 43.9875], [-8.47678, 44.206], [-7.89112, 44.3775], [-7.29345, 44.5009], [-6.68773, 44.5752], [-6.07798, 44.6], [19.0376, 44.6], [19.6913, 44.6285], [20.34, 44.7139], [20.9788, 44.8556], [21.6028, 45.0523], [22.2072, 45.3027], [22.7876, 45.6048], [23.3394, 45.9564], [23.8585, 46.3547], [24.3409, 46.7967], [24.7829, 47.2791], [25.1813, 47.7982], [25.5328, 48.35], [25.8349, 48.9304], [26.0853, 49.5348], [26.2821, 50.1589], [26.4237, 50.7976], [26.5091, 51.4463], [26.5376, 52.1], [26.5091, 52.7537], [26.4237, 53.4024], [26.2821, 54.0411], [26.0853, 54.6652], [25.8349, 55.2696], [25.5328, 55.85], [25.1813, 56.4018], [24.7829, 56.9209], [24.3409, 57.4033], [23.8585, 57.8453], [23.3394, 58.2436], [22.7876, 58.5952], [22.2072, 58.8973], [21.6028, 59.1477], [20.9788, 59.3444], [20.34, 59.4861], [19.6913, 59.5715], [19.0376, 59.6], [2.71973, 59.6], [2.71973, 75.5438], [2.69432, 76.1606], [2.61829, 76.7732], [2.49214, 77.3774], [2.31673, 77.9692], [2.09324, 78.5446], [1.8232, 79.0997], [1.50842, 79.6307], [1.15104, 80.134], [0.753489, 80.6062], [0.318451, 81.0441], [-0.151126, 81.4448], [-0.652059, 81.8055], [-1.18096, 82.1237], [-1.73423, 82.3974], [-85.8258, 119.771], [-86.4091, 120.002], [-87.0096, 120.183], [-87.6231, 120.313], [-88.2453, 120.392], [-88.8719, 120.418], [-105.28, 120.418], [-105.28, 59.6], [-117.28, 59.6], [-117.28, 99.9759], [-117.295, 100.354], [-117.337, 100.729], [-117.408, 101.101], [-117.507, 101.466], [-117.634, 101.822], [-117.786, 102.168], [-118.837, 104.322], [-119.042, 104.7], [-119.278, 105.058], [-119.544, 105.395], [-119.838, 105.708], [-120.158, 105.995], [-120.502, 106.253], [-120.866, 106.48], [-121.248, 106.676], [-121.646, 106.838], [-122.056, 106.965], [-122.476, 107.057], [-122.902, 107.112], [-123.331, 107.13], [-163.207, 107.13], [-182.802, 97.063], [-183.371, 96.7389], [-183.909, 96.3665], [-184.412, 95.9486], [-184.877, 95.4885], [-185.3, 94.9895], [-185.679, 94.4556], [-186.009, 93.8907], [-186.288, 93.2992], [-186.515, 92.6856], [-186.688, 92.0545], [-186.805, 91.4108], [-186.866, 90.7593], [-186.869, 90.105], [-186.816, 89.4529], [-186.706, 88.808], [-186.54, 88.1751], [-186.319, 87.5591], [-186.046, 86.9646], [-176.974, 69.3068], [-176.65, 68.7384], [-176.278, 68.2004], [-175.86, 67.697], [-175.4, 67.2318], [-174.901, 66.8086], [-174.367, 66.4304], [-173.802, 66.1002], [-173.21, 65.8205], [-172.597, 65.5934], [-171.966, 65.4207], [-171.322, 65.3036], [-170.67, 65.2431], [-170.016, 65.2396], [-169.364, 65.2931], [-168.719, 65.4033], [-168.086, 65.5692], [-167.47, 65.7897], [-166.876, 66.063], [-147.28, 76.1303], [-147.28, 59.6], [-194.098, 59.6], [-194.098, 107.918], [-355.098, 107.918], [-355.098, 59.6], [-401.916, 59.6], [-401.916, 76.1303], [-382.321, 66.063], [-381.726, 65.7897], [-381.11, 65.5692], [-380.477, 65.4033], [-379.832, 65.2931], [-379.18, 65.2396], [-378.526, 65.2431], [-377.874, 65.3036], [-377.231, 65.4207], [-376.6, 65.5934], [-375.986, 65.8205], [-375.394, 66.1002], [-374.83, 66.4304], [-374.296, 66.8086], [-373.797, 67.2318], [-373.337, 67.697], [-372.919, 68.2004], [-372.546, 68.7384], [-372.222, 69.3068], [-363.15, 86.9646], [-362.877, 87.5591], [-362.657, 88.1751], [-362.491, 88.808], [-362.38, 89.4529], [-362.327, 90.105], [-362.33, 90.7593], [-362.391, 91.4108], [-362.508, 92.0545], [-362.681, 92.6856], [-362.908, 93.2992], [-363.188, 93.8907], [-363.518, 94.4556], [-363.896, 94.9895], [-364.319, 95.4885], [-364.784, 95.9486], [-365.288, 96.3665], [-365.826, 96.7389], [-366.394, 97.063], [-385.99, 107.13], [-425.865, 107.13], [-426.294, 107.112], [-426.72, 107.057], [-427.14, 106.965], [-427.55, 106.838], [-427.948, 106.676], [-428.33, 106.48], [-428.695, 106.253], [-429.038, 105.995], [-429.358, 105.708], [-429.652, 105.395], [-429.918, 105.058], [-430.155, 104.7], [-430.359, 104.322], [-431.41, 102.168], [-431.563, 101.822], [-431.689, 101.466], [-431.788, 101.101], [-431.859, 100.729], [-431.902, 100.354], [-431.916, 99.9759], [-431.916, 59.6], [-443.916, 59.6], [-443.916, 120.418], [-460.324, 120.418], [-460.951, 120.392], [-461.573, 120.313], [-462.187, 120.183], [-462.787, 120.002], [-463.37, 119.771], [-547.462, 82.3974], [-548.015, 82.1237], [-548.544, 81.8055], [-549.045, 81.4448], [-549.515, 81.0441], [-549.95, 80.6062], [-550.347, 80.134], [-550.705, 79.6307], [-551.02, 79.0997], [-551.29, 78.5446], [-551.513, 77.9692], [-551.688, 77.3774], [-551.815, 76.7732], [-551.891, 76.1606], [-551.916, 75.5438], [-551.916, 59.6], [-568.234, 59.6], [-568.888, 59.5715], [-569.536, 59.4861], [-570.175, 59.3444], [-570.799, 59.1477], [-571.404, 58.8973], [-571.984, 58.5952], [-572.536, 58.2436], [-573.055, 57.8453], [-573.537, 57.4033], [-573.979, 56.9209], [-574.378, 56.4018], [-574.729, 55.85], [-575.031, 55.2696], [-575.282, 54.6652], [-575.478, 54.0411], [-575.62, 53.4024], [-575.705, 52.7537], [-575.734, 52.1], [-575.705, 51.4463], [-575.62, 50.7976], [-575.478, 50.1589], [-575.282, 49.5348], [-575.031, 48.9304], [-574.729, 48.35], [-574.378, 47.7982], [-573.979, 47.2791], [-573.537, 46.7967], [-573.055, 46.3547], [-572.536, 45.9564], [-571.984, 45.6048], [-571.404, 45.3027], [-570.799, 45.0523], [-570.175, 44.8556], [-569.536, 44.7139], [-568.888, 44.6285], [-568.234, 44.6], [-543.118, 44.6], [-542.509, 44.5752], [-541.903, 44.5009], [-541.305, 44.3775], [-540.72, 44.206], [-540.15, 43.9875], [-539.6, 43.7233], [-539.073, 43.4153], [-538.573, 43.0655], [-538.103, 42.6762], [-537.666, 42.25], [-565.196, 42.25], [-565.444, 42.2398], [-565.69, 42.2091], [-565.933, 42.1582], [-566.17, 42.0875], [-566.401, 41.9973], [-566.624, 41.8884], [-566.837, 41.7615], [-567.039, 41.6174], [-567.228, 41.4572], [-567.403, 41.2818], [-567.564, 41.0926], [-567.708, 40.8908], [-567.835, 40.6778], [-567.944, 40.4551], [-568.034, 40.2241], [-568.105, 39.9865], [-568.155, 39.7438], [-568.186, 39.4977], [-568.196, 39.25], [-568.196, 37], [-568.208, 36.7385], [-568.242, 36.4791], [-568.299, 36.2235], [-568.377, 35.9739], [-568.477, 35.7321], [-568.598, 35.5], [-568.739, 35.2793], [-568.898, 35.0716], [-569.075, 34.8787], [-569.268, 34.7019], [-569.476, 34.5425], [-569.696, 34.4019], [-569.928, 34.2811], [-570.17, 34.1809], [-570.42, 34.1022], [-570.675, 34.0456], [-570.935, 34.0114], [-571.196, 34], [-580.196, 34], [-580.458, 33.9886], [-580.717, 33.9544], [-580.973, 33.8978], [-581.222, 33.8191], [-581.464, 33.7189], [-581.696, 33.5981], [-581.917, 33.4575], [-582.125, 33.2981], [-582.318, 33.1213], [-582.494, 32.9284], [-582.654, 32.7207], [-582.794, 32.5], [-582.915, 32.2679], [-583.015, 32.0261], [-583.094, 31.7765], [-583.151, 31.5209], [-583.185, 31.2615], [-583.196, 31], [-583.196, 3], [-583.185, 2.73853], [-583.151, 2.47906], [-583.094, 2.22354], [-583.015, 1.97394], [-582.915, 1.73215], [-582.794, 1.5], [-582.654, 1.27927], [-582.494, 1.07164], [-582.318, 0.87868], [-582.125, 0.701867], [-581.917, 0.542544], [-581.696, 0.401924], [-581.464, 0.281077], [-581.222, 0.180922], [-580.973, 0.102223], [-580.717, 0.0455767], [-580.458, 0.0114159], [-580.196, -1.3286e-08], [-537.666, -7.0132e-10], [-537.666, -13.4], [-537.695, -14.0537], [-537.78, -14.7024], [-537.922, -15.3411], [-538.118, -15.9652], [-538.369, -16.5696], [-538.671, -17.15], [-539.022, -17.7018], [-539.421, -18.2209], [-539.863, -18.7033], [-540.345, -19.1453], [-540.864, -19.5436], [-541.416, -19.8952], [-541.996, -20.1973], [-542.601, -20.4477], [-543.225, -20.6444], [-543.864, -20.7861], [-544.512, -20.8715], [-545.166, -20.9], [-568.234, -20.9], [-568.888, -20.9285], [-569.536, -21.0139], [-570.175, -21.1556], [-570.799, -21.3523], [-571.404, -21.6027], [-571.984, -21.9048], [-572.536, -22.2564], [-573.055, -22.6547], [-573.537, -23.0967], [-573.979, -23.5791], [-574.378, -24.0982], [-574.729, -24.65], [-575.031, -25.2304], [-575.282, -25.8348], [-575.478, -26.4589], [-575.62, -27.0976], [-575.705, -27.7463], [-575.734, -28.4], [-575.705, -29.0537], [-575.62, -29.7024], [-575.478, -30.3411], [-575.282, -30.9652], [-575.031, -31.5696], [-574.729, -32.15], [-574.378, -32.7018], [-573.979, -33.2209], [-573.537, -33.7033], [-573.055, -34.1453], [-572.536, -34.5436], [-571.984, -34.8952], [-571.404, -35.1973], [-570.799, -35.4477], [-570.175, -35.6444], [-569.536, -35.7861], [-568.888, -35.8715], [-568.234, -35.9], [-555.916, -35.9], [-555.916, -46.204], [-555.889, -46.8372], [-555.809, -47.4658], [-555.676, -48.0855], [-555.491, -48.6917], [-555.256, -49.2802], [-554.972, -49.8467], [-554.641, -50.3872], [-554.266, -50.8978], [-553.848, -51.3749], [-553.392, -51.8151], [-552.901, -52.2152], [-552.377, -52.5724], [-551.826, -52.8841], [-551.249, -53.1481], [-550.653, -53.3626], [-477.009, -76.3765], [-476.461, -76.5252], [-475.903, -76.632], [-475.339, -76.6964], [-474.771, -76.7179], [-463.916, -76.7179], [-463.916, -35.9], [-461.916, -35.9], [-461.916, -72.9679], [-461.6, -80.2018], [-460.655, -87.3807], [-459.088, -94.4499], [-456.911, -101.356], [-454.14, -108.045], [-450.796, -114.468], [-446.906, -120.575], [-442.498, -126.319], [-437.606, -131.658], [-432.267, -136.55], [-426.523, -140.958], [-420.416, -144.848], [-413.993, -148.191], [-407.304, -150.962], [-400.398, -153.14], [-393.329, -154.707], [-386.15, -155.652], [-378.916, -155.968], [-309.416, -155.968], [-308.762, -155.939], [-308.114, -155.854], [-307.475, -155.712], [-306.851, -155.516], [-306.246, -155.265], [-305.666, -154.963], [-305.114, -154.612], [-304.595, -154.213], [-304.113, -153.771], [-303.671, -153.289], [-303.272, -152.77], [-302.921, -152.218], [-302.619, -151.638], [-302.368, -151.033], [-302.172, -150.409], [-302.03, -149.77], [-301.945, -149.122], [-301.916, -148.468], [-301.916, -115.468], [-301.945, -114.814], [-302.03, -114.166], [-302.172, -113.527], [-302.368, -112.903], [-302.619, -112.298], [-302.921, -111.718], [-303.272, -111.166], [-303.671, -110.647], [-304.113, -110.165], [-304.595, -109.723], [-305.114, -109.324], [-305.666, -108.973], [-306.246, -108.671], [-306.851, -108.42], [-307.475, -108.223], [-308.114, -108.082], [-308.762, -107.996], [-309.416, -107.968], [-371.916, -107.968], [-374.531, -107.854], [-377.125, -107.512], [-379.681, -106.946], [-382.177, -106.159], [-384.595, -105.157], [-386.916, -103.949], [-389.123, -102.542], [-391.2, -100.949], [-393.129, -99.1811], [-394.897, -97.2515], [-396.491, -95.1752], [-397.897, -92.9679], [-399.105, -90.6464], [-400.107, -88.2285], [-400.894, -85.7325], [-401.46, -83.1773], [-401.802, -80.5826], [-401.916, -77.9679], [-401.916, -35.9], [-395.098, -35.9], [-395.098, -46.7179], [-398.098, -46.7179], [-398.098, -81.2179], [-375.098, -104.218], [-174.098, -104.218], [-151.098, -81.2179], [-151.098, -46.7179], [-154.098, -46.7179], [-154.098, -35.9], [-147.28, -35.9], [-147.28, -77.9679], [-147.394, -80.5826], [-147.736, -83.1773], [-148.302, -85.7325], [-149.089, -88.2285], [-150.091, -90.6464], [-151.3, -92.9679], [-152.706, -95.1752], [-154.299, -97.2515], [-156.067, -99.1811], [-157.997, -100.949], [-160.073, -102.542], [-162.28, -103.949], [-164.602, -105.157], [-167.02, -106.159], [-169.516, -106.946], [-172.071, -107.512], [-174.666, -107.854], [-177.28, -107.968], [-239.78, -107.968], [-240.434, -107.996], [-241.083, -108.082], [-241.721, -108.223], [-242.345, -108.42], [-242.95, -108.671], [-243.53, -108.973], [-244.082, -109.324], [-244.601, -109.723], [-245.084, -110.165], [-245.526, -110.647], [-245.924, -111.166], [-246.275, -111.718], [-246.578, -112.298], [-246.828, -112.903], [-247.025, -113.527], [-247.166, -114.166], [-247.252, -114.814], [-247.28, -115.468], [-247.28, -148.468], [-247.252, -149.122], [-247.166, -149.77], [-247.025, -150.409], [-246.828, -151.033], [-246.578, -151.638], [-246.275, -152.218], [-245.924, -152.77], [-245.526, -153.289], [-245.084, -153.771], [-244.601, -154.213], [-244.082, -154.612], [-243.53, -154.963], [-242.95, -155.265], [-242.345, -155.516], [-241.721, -155.712], [-241.083, -155.854], [-240.434, -155.939], [-239.78, -155.968], [-170.28, -155.968], [-163.046, -155.652], [-155.867, -154.707], [-148.798, -153.14], [-141.893, -150.962], [-135.203, -148.191], [-128.78, -144.848], [-122.673, -140.958], [-116.929, -136.55], [-111.59, -131.658], [-106.699, -126.319], [-102.291, -120.575], [-98.4002, -114.468], [-95.0567, -108.045], [-92.2858, -101.356], [-90.1084, -94.4499], [-88.5412, -87.3807], [-87.5961, -80.2018], [-87.2803, -72.9679], [-87.2803, -35.9], [-85.2803, -35.9], [-85.2803, -76.7179], [-74.4249, -76.7179], [-73.8575, -76.6964], [-73.2934, -76.632], [-72.7357, -76.5252], [-72.1878, -76.3765], [1.45679, -53.3626], [2.05318, -53.1481], [2.62934, -52.8841], [3.18115, -52.5724], [3.70467, -52.2152], [4.19617, -51.8151], [4.65214, -51.3749], [5.06931, -50.8978], [5.44471, -50.3872], [5.77567, -49.8467], [6.0598, -49.2802], [6.2951, -48.6917], [6.47988, -48.0855], [6.61281, -47.4658], [6.69295, -46.8372], [6.71973, -46.204], [6.71973, -35.9], [19.0376, -35.9], [19.6913, -35.8715], [20.34, -35.7861], [20.9788, -35.6444], [21.6028, -35.4477], [22.2072, -35.1973], [22.7876, -34.8952], [23.3394, -34.5436], [23.8585, -34.1453], [24.3409, -33.7033], [24.7829, -33.2209], [25.1813, -32.7018], [25.5328, -32.15], [25.8349, -31.5696], [26.0853, -30.9652], [26.2821, -30.3411], [26.4237, -29.7024], [26.5091, -29.0537], [26.5376, -28.4], [26.5091, -27.7463], [26.4237, -27.0976], [26.2821, -26.4589], [26.0853, -25.8348], [25.8349, -25.2304], [25.5328, -24.65], [25.1813, -24.0982], [24.7829, -23.5791], [24.3409, -23.0967], [23.8585, -22.6547], [23.3394, -22.2564], [22.7876, -21.9048], [22.2072, -21.6027], [21.6028, -21.3523], [20.9788, -21.1556], [20.34, -21.0139], [19.6913, -20.9285], [19.0376, -20.9], [-4.03027, -20.9], [-4.68394, -20.8715], [-5.33263, -20.7861], [-5.97142, -20.6444], [-6.59542, -20.4477], [-7.19991, -20.1973], [-7.78027, -19.8952], [-8.3321, -19.5436], [-8.85118, -19.1453], [-9.33357, -18.7033], [-9.77561, -18.2209], [-10.1739, -17.7018], [-10.5255, -17.15], [-10.8276, -16.5696], [-11.078, -15.9652], [-11.2747, -15.3411], [-11.4163, -14.7024], [-11.5017, -14.0537], [-11.5303, -13.4], [-11.5303, -1.86233e-11], [31, 0], [31.2615, 0.0114159], [31.5209, 0.0455767], [31.7765, 0.102223], [32.0261, 0.180922], [32.2679, 0.281077], [32.5, 0.401924], [32.7207, 0.542544], [32.9284, 0.701867], [33.1213, 0.87868], [33.2981, 1.07164], [33.4575, 1.27927], [33.5981, 1.5], [33.7189, 1.73215], [33.8191, 1.97394], [33.8978, 2.22354], [33.9544, 2.47906], [33.9886, 2.73853], [34, 3], [34, 31], [33.9898, 31.2477], [33.9591, 31.4938], [33.9082, 31.7365], [33.8375, 31.9741], [33.7473, 32.2051], [33.6384, 32.4278], [33.5115, 32.6408], [33.3674, 32.8426], [33.2072, 33.0318], [33.0318, 33.2072], [32.8426, 33.3674], [32.6408, 33.5115], [32.4278, 33.6384], [32.2051, 33.7473], [31.9741, 33.8375], [31.7365, 33.9082], [31.4938, 33.9591], [31.2477, 33.9898], [31, 34], [22, 34], [21.7385, 34.0114], [21.4791, 34.0456], [21.2235, 34.1022], [20.9739, 34.1809], [20.7321, 34.2811], [20.5, 34.4019], [20.2793, 34.5425], [20.0716, 34.7019], [19.8787, 34.8787], [19.7019, 35.0716], [19.5425, 35.2793], [19.4019, 35.5], [19.2811, 35.7321], [19.1809, 35.9739], [19.1022, 36.2235], [19.0456, 36.4791], [19.0114, 36.7385], [19, 37]],
  "innerPolygons": {
    "il0": [[11, 35.8], [10.8257, 35.8076], [10.6527, 35.8304], [10.4824, 35.8681], [10.316, 35.9206], [10.1548, 35.9874], [10, 36.0679], [9.85285, 36.1617], [9.71442, 36.2679], [9.58579, 36.3858], [9.46791, 36.5144], [9.3617, 36.6528], [9.26795, 36.8], [9.18738, 36.9548], [9.12061, 37.116], [9.06815, 37.2824], [9.03038, 37.4527], [9.00761, 37.6257], [9, 37.8], [9.00761, 37.9743], [9.03038, 38.1473], [9.06815, 38.3176], [9.12061, 38.484], [9.18738, 38.6452], [9.26795, 38.8], [9.3617, 38.9472], [9.46791, 39.0856], [9.58579, 39.2142], [9.71442, 39.3321], [9.85285, 39.4383], [10, 39.5321], [10.1548, 39.6126], [10.316, 39.6794], [10.4824, 39.7319], [10.6527, 39.7696], [10.8257, 39.7924], [11, 39.8], [11.1743, 39.7924], [11.3473, 39.7696], [11.5176, 39.7319], [11.684, 39.6794], [11.8452, 39.6126], [12, 39.5321], [12.1472, 39.4383], [12.2856, 39.3321], [12.4142, 39.2142], [12.5321, 39.0856], [12.6383, 38.9472], [12.7321, 38.8], [12.8126, 38.6452], [12.8794, 38.484], [12.9319, 38.3176], [12.9696, 38.1473], [12.9924, 37.9743], [13, 37.8], [12.9924, 37.6257], [12.9696, 37.4527], [12.9319, 37.2824], [12.8794, 37.116], [12.8126, 36.9548], [12.7321, 36.8], [12.6383, 36.6528], [12.5321, 36.5144], [12.4142, 36.3858], [12.2856, 36.2679], [12.1472, 36.1617], [12, 36.0679], [11.8452, 35.9874], [11.684, 35.9206], [11.5176, 35.8681], [11.3473, 35.8304], [11.1743, 35.8076]],
    "il1": [[11, 2.5], [10.8257, 2.50761], [10.6527, 2.53038], [10.4824, 2.56815], [10.316, 2.62061], [10.1548, 2.68738], [10, 2.76795], [9.85285, 2.8617], [9.71442, 2.96791], [9.58579, 3.08579], [9.46791, 3.21442], [9.3617, 3.35285], [9.26795, 3.5], [9.18738, 3.65476], [9.12061, 3.81596], [9.06815, 3.98236], [9.03038, 4.1527], [9.00761, 4.32569], [9, 4.5], [9.00761, 4.67431], [9.03038, 4.8473], [9.06815, 5.01764], [9.12061, 5.18404], [9.18738, 5.34524], [9.26795, 5.5], [9.3617, 5.64715], [9.46791, 5.78558], [9.58579, 5.91421], [9.71442, 6.03209], [9.85285, 6.1383], [10, 6.23205], [10.1548, 6.31262], [10.316, 6.37939], [10.4824, 6.43185], [10.6527, 6.46962], [10.8257, 6.49239], [11, 6.5], [11.1743, 6.49239], [11.3473, 6.46962], [11.5176, 6.43185], [11.684, 6.37939], [11.8452, 6.31262], [12, 6.23205], [12.1472, 6.1383], [12.2856, 6.03209], [12.4142, 5.91421], [12.5321, 5.78558], [12.6383, 5.64715], [12.7321, 5.5], [12.8126, 5.34524], [12.8794, 5.18404], [12.9319, 5.01764], [12.9696, 4.8473], [12.9924, 4.67431], [13, 4.5], [12.9924, 4.32569], [12.9696, 4.1527], [12.9319, 3.98236], [12.8794, 3.81596], [12.8126, 3.65476], [12.7321, 3.5], [12.6383, 3.35285], [12.5321, 3.21442], [12.4142, 3.08579], [12.2856, 2.96791], [12.1472, 2.8617], [12, 2.76795], [11.8452, 2.68738], [11.684, 2.62061], [11.5176, 2.56815], [11.3473, 2.53038], [11.1743, 2.50761]],
    "il2": [[5, 10.15], [5, 32.15], [5.01142, 32.4115], [5.04558, 32.6709], [5.10222, 32.9265], [5.18092, 33.1761], [5.28108, 33.4179], [5.40192, 33.65], [5.54254, 33.8707], [5.70187, 34.0784], [5.87868, 34.2713], [6.07164, 34.4481], [6.27927, 34.6075], [6.5, 34.7481], [6.73215, 34.8689], [6.97394, 34.9691], [7.22354, 35.0478], [7.47906, 35.1044], [7.73853, 35.1386], [8, 35.15], [14, 35.15], [14.2615, 35.1386], [14.5209, 35.1044], [14.7765, 35.0478], [15.0261, 34.9691], [15.2679, 34.8689], [15.5, 34.7481], [15.7207, 34.6075], [15.9284, 34.4481], [16.1213, 34.2713], [16.2981, 34.0784], [16.4575, 33.8707], [16.5981, 33.65], [16.7189, 33.4179], [16.8191, 33.1761], [16.8978, 32.9265], [16.9544, 32.6709], [16.9886, 32.4115], [17, 32.15], [17, 10.15], [16.9886, 9.88853], [16.9544, 9.62906], [16.8978, 9.37354], [16.8191, 9.12394], [16.7189, 8.88215], [16.5981, 8.65], [16.4575, 8.42927], [16.2981, 8.22164], [16.1213, 8.02868], [15.9284, 7.85187], [15.7207, 7.69254], [15.5, 7.55192], [15.2679, 7.43108], [15.0261, 7.33092], [14.7765, 7.25222], [14.5209, 7.19558], [14.2615, 7.16142], [14, 7.15], [8, 7.15], [7.73853, 7.16142], [7.47906, 7.19558], [7.22354, 7.25222], [6.97394, 7.33092], [6.73215, 7.43108], [6.5, 7.55192], [6.27927, 7.69254], [6.07164, 7.85187], [5.87868, 8.02868], [5.70187, 8.22164], [5.54254, 8.42927], [5.40192, 8.65], [5.28108, 8.88215], [5.18092, 9.12394], [5.10222, 9.37354], [5.04558, 9.62906], [5.01142, 9.88853]],
    "il3": [[15.5376, 52.1], [15.5509, 52.405], [15.5908, 52.7078], [15.6569, 53.0059], [15.7487, 53.2971], [15.8655, 53.5792], [16.0065, 53.85], [16.1706, 54.1075], [16.3565, 54.3498], [16.5627, 54.5749], [16.7879, 54.7812], [17.0301, 54.967], [17.2876, 55.1311], [17.5584, 55.2721], [17.8405, 55.3889], [18.1317, 55.4807], [18.4298, 55.5468], [18.7326, 55.5867], [19.0376, 55.6], [19.3427, 55.5867], [19.6454, 55.5468], [19.9435, 55.4807], [20.2347, 55.3889], [20.5168, 55.2721], [20.7876, 55.1311], [21.0451, 54.967], [21.2874, 54.7812], [21.5125, 54.5749], [21.7188, 54.3498], [21.9046, 54.1075], [22.0687, 53.85], [22.2097, 53.5792], [22.3265, 53.2971], [22.4184, 53.0059], [22.4844, 52.7078], [22.5243, 52.405], [22.5376, 52.1], [22.5243, 51.795], [22.4844, 51.4922], [22.4184, 51.1941], [22.3265, 50.9029], [22.2097, 50.6208], [22.0687, 50.35], [21.9046, 50.0925], [21.7188, 49.8502], [21.5125, 49.6251], [21.2874, 49.4188], [21.0451, 49.233], [20.7876, 49.0689], [20.5168, 48.9279], [20.2347, 48.8111], [19.9435, 48.7193], [19.6454, 48.6532], [19.3427, 48.6133], [19.0376, 48.6], [18.7326, 48.6133], [18.4298, 48.6532], [18.1317, 48.7193], [17.8405, 48.8111], [17.5584, 48.9279], [17.2876, 49.0689], [17.0301, 49.233], [16.7879, 49.4188], [16.5627, 49.6251], [16.3565, 49.8502], [16.1706, 50.0925], [16.0065, 50.35], [15.8655, 50.6208], [15.7487, 50.9029], [15.6569, 51.1941], [15.5908, 51.4922], [15.5509, 51.795]],
    "il4": [[15.5376, -28.4], [15.5509, -28.095], [15.5908, -27.7922], [15.6569, -27.4941], [15.7487, -27.2029], [15.8655, -26.9208], [16.0065, -26.65], [16.1706, -26.3925], [16.3565, -26.1502], [16.5627, -25.9251], [16.7879, -25.7188], [17.0301, -25.533], [17.2876, -25.3689], [17.5584, -25.2279], [17.8405, -25.1111], [18.1317, -25.0193], [18.4298, -24.9532], [18.7326, -24.9133], [19.0376, -24.9], [19.3427, -24.9133], [19.6454, -24.9532], [19.9435, -25.0193], [20.2347, -25.1111], [20.5168, -25.2279], [20.7876, -25.3689], [21.0451, -25.533], [21.2874, -25.7188], [21.5125, -25.9251], [21.7188, -26.1502], [21.9046, -26.3925], [22.0687, -26.65], [22.2097, -26.9208], [22.3265, -27.2029], [22.4184, -27.4941], [22.4844, -27.7922], [22.5243, -28.095], [22.5376, -28.4], [22.5243, -28.705], [22.4844, -29.0078], [22.4184, -29.3059], [22.3265, -29.5971], [22.2097, -29.8792], [22.0687, -30.15], [21.9046, -30.4075], [21.7188, -30.6498], [21.5125, -30.8749], [21.2874, -31.0812], [21.0451, -31.267], [20.7876, -31.4311], [20.5168, -31.5721], [20.2347, -31.6889], [19.9435, -31.7807], [19.6454, -31.8468], [19.3427, -31.8867], [19.0376, -31.9], [18.7326, -31.8867], [18.4298, -31.8468], [18.1317, -31.7807], [17.8405, -31.6889], [17.5584, -31.5721], [17.2876, -31.4311], [17.0301, -31.267], [16.7879, -31.0812], [16.5627, -30.8749], [16.3565, -30.6498], [16.1706, -30.4075], [16.0065, -30.15], [15.8655, -29.8792], [15.7487, -29.5971], [15.6569, -29.3059], [15.5908, -29.0078], [15.5509, -28.705]],
    "il5": [[-232.78, -142.718], [-232.792, -142.979], [-232.826, -143.239], [-232.882, -143.494], [-232.961, -143.744], [-233.061, -143.986], [-233.182, -144.218], [-233.323, -144.439], [-233.482, -144.646], [-233.659, -144.839], [-233.852, -145.016], [-234.06, -145.175], [-234.28, -145.316], [-234.512, -145.437], [-234.754, -145.537], [-235.004, -145.616], [-235.259, -145.672], [-235.519, -145.706], [-235.78, -145.718], [-240.78, -145.718], [-241.042, -145.706], [-241.301, -145.672], [-241.557, -145.616], [-241.806, -145.537], [-242.048, -145.437], [-242.28, -145.316], [-242.501, -145.175], [-242.709, -145.016], [-242.902, -144.839], [-243.078, -144.646], [-243.238, -144.439], [-243.378, -144.218], [-243.499, -143.986], [-243.599, -143.744], [-243.678, -143.494], [-243.735, -143.239], [-243.769, -142.979], [-243.78, -142.718], [-243.78, -120.718], [-243.769, -120.456], [-243.735, -120.197], [-243.678, -119.941], [-243.599, -119.692], [-243.499, -119.45], [-243.378, -119.218], [-243.238, -118.997], [-243.078, -118.79], [-242.902, -118.597], [-242.709, -118.42], [-242.501, -118.26], [-242.28, -118.12], [-242.048, -117.999], [-241.806, -117.899], [-241.557, -117.82], [-241.301, -117.763], [-241.042, -117.729], [-240.78, -117.718], [-235.78, -117.718], [-235.519, -117.729], [-235.259, -117.763], [-235.004, -117.82], [-234.754, -117.899], [-234.512, -117.999], [-234.28, -118.12], [-234.06, -118.26], [-233.852, -118.42], [-233.659, -118.597], [-233.482, -118.79], [-233.323, -118.997], [-233.182, -119.218], [-233.061, -119.45], [-232.961, -119.692], [-232.882, -119.941], [-232.826, -120.197], [-232.792, -120.456], [-232.78, -120.718]],
    "il6": [[-238.28, -146.968], [-238.128, -146.975], [-237.976, -146.994], [-237.827, -147.028], [-237.682, -147.073], [-237.541, -147.132], [-237.405, -147.202], [-237.277, -147.284], [-237.155, -147.377], [-237.043, -147.48], [-236.94, -147.593], [-236.847, -147.714], [-236.765, -147.843], [-236.694, -147.978], [-236.636, -148.119], [-236.59, -148.265], [-236.557, -148.414], [-236.537, -148.565], [-236.53, -148.718], [-236.537, -148.87], [-236.557, -149.022], [-236.59, -149.171], [-236.636, -149.316], [-236.694, -149.457], [-236.765, -149.593], [-236.847, -149.722], [-236.94, -149.843], [-237.043, -149.955], [-237.155, -150.058], [-237.277, -150.151], [-237.405, -150.233], [-237.541, -150.304], [-237.682, -150.362], [-237.827, -150.408], [-237.976, -150.441], [-238.128, -150.461], [-238.28, -150.468], [-238.433, -150.461], [-238.584, -150.441], [-238.733, -150.408], [-238.879, -150.362], [-239.02, -150.304], [-239.155, -150.233], [-239.284, -150.151], [-239.405, -150.058], [-239.518, -149.955], [-239.621, -149.843], [-239.714, -149.722], [-239.796, -149.593], [-239.866, -149.457], [-239.925, -149.316], [-239.971, -149.171], [-240.004, -149.022], [-240.024, -148.87], [-240.03, -148.718], [-240.024, -148.565], [-240.004, -148.414], [-239.971, -148.265], [-239.925, -148.119], [-239.866, -147.978], [-239.796, -147.843], [-239.714, -147.714], [-239.621, -147.593], [-239.518, -147.48], [-239.405, -147.377], [-239.284, -147.284], [-239.155, -147.202], [-239.02, -147.132], [-238.879, -147.073], [-238.733, -147.028], [-238.584, -146.994], [-238.433, -146.975]],
    "il7": [[-238.28, -113.468], [-238.128, -113.475], [-237.976, -113.494], [-237.827, -113.528], [-237.682, -113.573], [-237.541, -113.632], [-237.405, -113.702], [-237.277, -113.784], [-237.155, -113.877], [-237.043, -113.98], [-236.94, -114.093], [-236.847, -114.214], [-236.765, -114.343], [-236.694, -114.478], [-236.636, -114.619], [-236.59, -114.765], [-236.557, -114.914], [-236.537, -115.065], [-236.53, -115.218], [-236.537, -115.37], [-236.557, -115.522], [-236.59, -115.671], [-236.636, -115.816], [-236.694, -115.957], [-236.765, -116.093], [-236.847, -116.222], [-236.94, -116.343], [-237.043, -116.455], [-237.155, -116.558], [-237.277, -116.651], [-237.405, -116.733], [-237.541, -116.804], [-237.682, -116.862], [-237.827, -116.908], [-237.976, -116.941], [-238.128, -116.961], [-238.28, -116.968], [-238.433, -116.961], [-238.584, -116.941], [-238.733, -116.908], [-238.879, -116.862], [-239.02, -116.804], [-239.155, -116.733], [-239.284, -116.651], [-239.405, -116.558], [-239.518, -116.455], [-239.621, -116.343], [-239.714, -116.222], [-239.796, -116.093], [-239.866, -115.957], [-239.925, -115.816], [-239.971, -115.671], [-240.004, -115.522], [-240.024, -115.37], [-240.03, -115.218], [-240.024, -115.065], [-240.004, -114.914], [-239.971, -114.765], [-239.925, -114.619], [-239.866, -114.478], [-239.796, -114.343], [-239.714, -114.214], [-239.621, -114.093], [-239.518, -113.98], [-239.405, -113.877], [-239.284, -113.784], [-239.155, -113.702], [-239.02, -113.632], [-238.879, -113.573], [-238.733, -113.528], [-238.584, -113.494], [-238.433, -113.475]],
    "il8": [[-277.598, -13.9], [-277.61, -14.1615], [-277.644, -14.4209], [-277.7, -14.6765], [-277.779, -14.9261], [-277.879, -15.1679], [-278, -15.4], [-278.141, -15.6207], [-278.3, -15.8284], [-278.477, -16.0213], [-278.67, -16.1981], [-278.877, -16.3575], [-279.098, -16.4981], [-279.33, -16.6189], [-279.572, -16.7191], [-279.822, -16.7978], [-280.077, -16.8544], [-280.337, -16.8886], [-280.598, -16.9], [-285.598, -16.9], [-285.86, -16.8886], [-286.119, -16.8544], [-286.375, -16.7978], [-286.624, -16.7191], [-286.866, -16.6189], [-287.098, -16.4981], [-287.319, -16.3575], [-287.527, -16.1981], [-287.719, -16.0213], [-287.896, -15.8284], [-288.056, -15.6207], [-288.196, -15.4], [-288.317, -15.1679], [-288.417, -14.9261], [-288.496, -14.6765], [-288.553, -14.4209], [-288.587, -14.1615], [-288.598, -13.9], [-288.598, 0.1], [-288.587, 0.361467], [-288.553, 0.620945], [-288.496, 0.876457], [-288.417, 1.12606], [-288.317, 1.36785], [-288.196, 1.6], [-288.056, 1.82073], [-287.896, 2.02836], [-287.719, 2.22132], [-287.527, 2.39813], [-287.319, 2.55746], [-287.098, 2.69808], [-286.866, 2.81892], [-286.624, 2.91908], [-286.375, 2.99778], [-286.119, 3.05442], [-285.86, 3.08858], [-285.598, 3.1], [-280.598, 3.1], [-280.337, 3.08858], [-280.077, 3.05442], [-279.822, 2.99778], [-279.572, 2.91908], [-279.33, 2.81892], [-279.098, 2.69808], [-278.877, 2.55746], [-278.67, 2.39813], [-278.477, 2.22132], [-278.3, 2.02836], [-278.141, 1.82073], [-278, 1.6], [-277.879, 1.36785], [-277.779, 1.12606], [-277.7, 0.876457], [-277.644, 0.620945], [-277.61, 0.361467], [-277.598, 0.1]],
    "il9": [[-386.848, 48.85], [-386.855, 48.6975], [-386.875, 48.5461], [-386.908, 48.3971], [-386.954, 48.2515], [-387.012, 48.1104], [-387.083, 47.975], [-387.165, 47.8462], [-387.258, 47.7251], [-387.361, 47.6126], [-387.473, 47.5094], [-387.594, 47.4165], [-387.723, 47.3345], [-387.859, 47.264], [-388, 47.2055], [-388.145, 47.1596], [-388.294, 47.1266], [-388.446, 47.1067], [-388.598, 47.1], [-388.751, 47.1067], [-388.902, 47.1266], [-389.051, 47.1596], [-389.197, 47.2055], [-389.338, 47.264], [-389.473, 47.3345], [-389.602, 47.4165], [-389.723, 47.5094], [-389.836, 47.6126], [-389.939, 47.7251], [-390.032, 47.8462], [-390.114, 47.975], [-390.184, 48.1104], [-390.243, 48.2515], [-390.289, 48.3971], [-390.322, 48.5461], [-390.341, 48.6975], [-390.348, 48.85], [-390.341, 49.0025], [-390.322, 49.1539], [-390.289, 49.3029], [-390.243, 49.4485], [-390.184, 49.5896], [-390.114, 49.725], [-390.032, 49.8538], [-389.939, 49.9749], [-389.836, 50.0874], [-389.723, 50.1906], [-389.602, 50.2835], [-389.473, 50.3655], [-389.338, 50.436], [-389.197, 50.4945], [-389.051, 50.5404], [-388.902, 50.5734], [-388.751, 50.5933], [-388.598, 50.6], [-388.446, 50.5933], [-388.294, 50.5734], [-388.145, 50.5404], [-388, 50.4945], [-387.859, 50.436], [-387.723, 50.3655], [-387.594, 50.2835], [-387.473, 50.1906], [-387.361, 50.0874], [-387.258, 49.9749], [-387.165, 49.8538], [-387.083, 49.725], [-387.012, 49.5896], [-386.954, 49.4485], [-386.908, 49.3029], [-386.875, 49.1539], [-386.855, 49.0025]],
    "il10": [[-386.848, 23.85], [-386.855, 23.6975], [-386.875, 23.5461], [-386.908, 23.3971], [-386.954, 23.2515], [-387.012, 23.1104], [-387.083, 22.975], [-387.165, 22.8462], [-387.258, 22.7251], [-387.361, 22.6126], [-387.473, 22.5094], [-387.594, 22.4165], [-387.723, 22.3345], [-387.859, 22.264], [-388, 22.2055], [-388.145, 22.1596], [-388.294, 22.1266], [-388.446, 22.1067], [-388.598, 22.1], [-388.751, 22.1067], [-388.902, 22.1266], [-389.051, 22.1596], [-389.197, 22.2055], [-389.338, 22.264], [-389.473, 22.3345], [-389.602, 22.4165], [-389.723, 22.5094], [-389.836, 22.6126], [-389.939, 22.7251], [-390.032, 22.8462], [-390.114, 22.975], [-390.184, 23.1104], [-390.243, 23.2515], [-390.289, 23.3971], [-390.322, 23.5461], [-390.341, 23.6975], [-390.348, 23.85], [-390.341, 24.0025], [-390.322, 24.1539], [-390.289, 24.3029], [-390.243, 24.4485], [-390.184, 24.5896], [-390.114, 24.725], [-390.032, 24.8538], [-389.939, 24.9749], [-389.836, 25.0874], [-389.723, 25.1906], [-389.602, 25.2835], [-389.473, 25.3655], [-389.338, 25.436], [-389.197, 25.4945], [-389.051, 25.5404], [-388.902, 25.5734], [-388.751, 25.5933], [-388.598, 25.6], [-388.446, 25.5933], [-388.294, 25.5734], [-388.145, 25.5404], [-388, 25.4945], [-387.859, 25.436], [-387.723, 25.3655], [-387.594, 25.2835], [-387.473, 25.1906], [-387.361, 25.0874], [-387.258, 24.9749], [-387.165, 24.8538], [-387.083, 24.725], [-387.012, 24.5896], [-386.954, 24.4485], [-386.908, 24.3029], [-386.875, 24.1539], [-386.855, 24.0025]],
    "il11": [[-350.848, 48.85], [-350.855, 48.6975], [-350.875, 48.5461], [-350.908, 48.3971], [-350.954, 48.2515], [-351.012, 48.1104], [-351.083, 47.975], [-351.165, 47.8462], [-351.258, 47.7251], [-351.361, 47.6126], [-351.473, 47.5094], [-351.594, 47.4165], [-351.723, 47.3345], [-351.859, 47.264], [-352, 47.2055], [-352.145, 47.1596], [-352.294, 47.1266], [-352.446, 47.1067], [-352.598, 47.1], [-352.751, 47.1067], [-352.902, 47.1266], [-353.051, 47.1596], [-353.197, 47.2055], [-353.338, 47.264], [-353.473, 47.3345], [-353.602, 47.4165], [-353.723, 47.5094], [-353.836, 47.6126], [-353.939, 47.7251], [-354.032, 47.8462], [-354.114, 47.975], [-354.184, 48.1104], [-354.243, 48.2515], [-354.289, 48.3971], [-354.322, 48.5461], [-354.341, 48.6975], [-354.348, 48.85], [-354.341, 49.0025], [-354.322, 49.1539], [-354.289, 49.3029], [-354.243, 49.4485], [-354.184, 49.5896], [-354.114, 49.725], [-354.032, 49.8538], [-353.939, 49.9749], [-353.836, 50.0874], [-353.723, 50.1906], [-353.602, 50.2835], [-353.473, 50.3655], [-353.338, 50.436], [-353.197, 50.4945], [-353.051, 50.5404], [-352.902, 50.5734], [-352.751, 50.5933], [-352.598, 50.6], [-352.446, 50.5933], [-352.294, 50.5734], [-352.145, 50.5404], [-352, 50.4945], [-351.859, 50.436], [-351.723, 50.3655], [-351.594, 50.2835], [-351.473, 50.1906], [-351.361, 50.0874], [-351.258, 49.9749], [-351.165, 49.8538], [-351.083, 49.725], [-351.012, 49.5896], [-350.954, 49.4485], [-350.908, 49.3029], [-350.875, 49.1539], [-350.855, 49.0025]],
    "il12": [[-350.848, 23.85], [-350.855, 23.6975], [-350.875, 23.5461], [-350.908, 23.3971], [-350.954, 23.2515], [-351.012, 23.1104], [-351.083, 22.975], [-351.165, 22.8462], [-351.258, 22.7251], [-351.361, 22.6126], [-351.473, 22.5094], [-351.594, 22.4165], [-351.723, 22.3345], [-351.859, 22.264], [-352, 22.2055], [-352.145, 22.1596], [-352.294, 22.1266], [-352.446, 22.1067], [-352.598, 22.1], [-352.751, 22.1067], [-352.902, 22.1266], [-353.051, 22.1596], [-353.197, 22.2055], [-353.338, 22.264], [-353.473, 22.3345], [-353.602, 22.4165], [-353.723, 22.5094], [-353.836, 22.6126], [-353.939, 22.7251], [-354.032, 22.8462], [-354.114, 22.975], [-354.184, 23.1104], [-354.243, 23.2515], [-354.289, 23.3971], [-354.322, 23.5461], [-354.341, 23.6975], [-354.348, 23.85], [-354.341, 24.0025], [-354.322, 24.1539], [-354.289, 24.3029], [-354.243, 24.4485], [-354.184, 24.5896], [-354.114, 24.725], [-354.032, 24.8538], [-353.939, 24.9749], [-353.836, 25.0874], [-353.723, 25.1906], [-353.602, 25.2835], [-353.473, 25.3655], [-353.338, 25.436], [-353.197, 25.4945], [-353.051, 25.5404], [-352.902, 25.5734], [-352.751, 25.5933], [-352.598, 25.6], [-352.446, 25.5933], [-352.294, 25.5734], [-352.145, 25.5404], [-352, 25.4945], [-351.859, 25.436], [-351.723, 25.3655], [-351.594, 25.2835], [-351.473, 25.1906], [-351.361, 25.0874], [-351.258, 24.9749], [-351.165, 24.8538], [-351.083, 24.725], [-351.012, 24.5896], [-350.954, 24.4485], [-350.908, 24.3029], [-350.875, 24.1539], [-350.855, 24.0025]],
    "il13": [[-246.848, 48.85], [-246.855, 48.6975], [-246.875, 48.5461], [-246.908, 48.3971], [-246.954, 48.2515], [-247.012, 48.1104], [-247.083, 47.975], [-247.165, 47.8462], [-247.258, 47.7251], [-247.361, 47.6126], [-247.473, 47.5094], [-247.594, 47.4165], [-247.723, 47.3345], [-247.859, 47.264], [-248, 47.2055], [-248.145, 47.1596], [-248.294, 47.1266], [-248.446, 47.1067], [-248.598, 47.1], [-248.751, 47.1067], [-248.902, 47.1266], [-249.051, 47.1596], [-249.197, 47.2055], [-249.338, 47.264], [-249.473, 47.3345], [-249.602, 47.4165], [-249.723, 47.5094], [-249.836, 47.6126], [-249.939, 47.7251], [-250.032, 47.8462], [-250.114, 47.975], [-250.184, 48.1104], [-250.243, 48.2515], [-250.289, 48.3971], [-250.322, 48.5461], [-250.341, 48.6975], [-250.348, 48.85], [-250.341, 49.0025], [-250.322, 49.1539], [-250.289, 49.3029], [-250.243, 49.4485], [-250.184, 49.5896], [-250.114, 49.725], [-250.032, 49.8538], [-249.939, 49.9749], [-249.836, 50.0874], [-249.723, 50.1906], [-249.602, 50.2835], [-249.473, 50.3655], [-249.338, 50.436], [-249.197, 50.4945], [-249.051, 50.5404], [-248.902, 50.5734], [-248.751, 50.5933], [-248.598, 50.6], [-248.446, 50.5933], [-248.294, 50.5734], [-248.145, 50.5404], [-248, 50.4945], [-247.859, 50.436], [-247.723, 50.3655], [-247.594, 50.2835], [-247.473, 50.1906], [-247.361, 50.0874], [-247.258, 49.9749], [-247.165, 49.8538], [-247.083, 49.725], [-247.012, 49.5896], [-246.954, 49.4485], [-246.908, 49.3029], [-246.875, 49.1539], [-246.855, 49.0025]],
    "il14": [[-246.848, 23.85], [-246.855, 23.6975], [-246.875, 23.5461], [-246.908, 23.3971], [-246.954, 23.2515], [-247.012, 23.1104], [-247.083, 22.975], [-247.165, 22.8462], [-247.258, 22.7251], [-247.361, 22.6126], [-247.473, 22.5094], [-247.594, 22.4165], [-247.723, 22.3345], [-247.859, 22.264], [-248, 22.2055], [-248.145, 22.1596], [-248.294, 22.1266], [-248.446, 22.1067], [-248.598, 22.1], [-248.751, 22.1067], [-248.902, 22.1266], [-249.051, 22.1596], [-249.197, 22.2055], [-249.338, 22.264], [-249.473, 22.3345], [-249.602, 22.4165], [-249.723, 22.5094], [-249.836, 22.6126], [-249.939, 22.7251], [-250.032, 22.8462], [-250.114, 22.975], [-250.184, 23.1104], [-250.243, 23.2515], [-250.289, 23.3971], [-250.322, 23.5461], [-250.341, 23.6975], [-250.348, 23.85], [-250.341, 24.0025], [-250.322, 24.1539], [-250.289, 24.3029], [-250.243, 24.4485], [-250.184, 24.5896], [-250.114, 24.725], [-250.032, 24.8538], [-249.939, 24.9749], [-249.836, 25.0874], [-249.723, 25.1906], [-249.602, 25.2835], [-249.473, 25.3655], [-249.338, 25.436], [-249.197, 25.4945], [-249.051, 25.5404], [-248.902, 25.5734], [-248.751, 25.5933], [-248.598, 25.6], [-248.446, 25.5933], [-248.294, 25.5734], [-248.145, 25.5404], [-248, 25.4945], [-247.859, 25.436], [-247.723, 25.3655], [-247.594, 25.2835], [-247.473, 25.1906], [-247.361, 25.0874], [-247.258, 24.9749], [-247.165, 24.8538], [-247.083, 24.725], [-247.012, 24.5896], [-246.954, 24.4485], [-246.908, 24.3029], [-246.875, 24.1539], [-246.855, 24.0025]],
    "il15": [[-210.848, 48.85], [-210.855, 48.6975], [-210.875, 48.5461], [-210.908, 48.3971], [-210.954, 48.2515], [-211.012, 48.1104], [-211.083, 47.975], [-211.165, 47.8462], [-211.258, 47.7251], [-211.361, 47.6126], [-211.473, 47.5094], [-211.594, 47.4165], [-211.723, 47.3345], [-211.859, 47.264], [-212, 47.2055], [-212.145, 47.1596], [-212.294, 47.1266], [-212.446, 47.1067], [-212.598, 47.1], [-212.751, 47.1067], [-212.902, 47.1266], [-213.051, 47.1596], [-213.197, 47.2055], [-213.338, 47.264], [-213.473, 47.3345], [-213.602, 47.4165], [-213.723, 47.5094], [-213.836, 47.6126], [-213.939, 47.7251], [-214.032, 47.8462], [-214.114, 47.975], [-214.184, 48.1104], [-214.243, 48.2515], [-214.289, 48.3971], [-214.322, 48.5461], [-214.341, 48.6975], [-214.348, 48.85], [-214.341, 49.0025], [-214.322, 49.1539], [-214.289, 49.3029], [-214.243, 49.4485], [-214.184, 49.5896], [-214.114, 49.725], [-214.032, 49.8538], [-213.939, 49.9749], [-213.836, 50.0874], [-213.723, 50.1906], [-213.602, 50.2835], [-213.473, 50.3655], [-213.338, 50.436], [-213.197, 50.4945], [-213.051, 50.5404], [-212.902, 50.5734], [-212.751, 50.5933], [-212.598, 50.6], [-212.446, 50.5933], [-212.294, 50.5734], [-212.145, 50.5404], [-212, 50.4945], [-211.859, 50.436], [-211.723, 50.3655], [-211.594, 50.2835], [-211.473, 50.1906], [-211.361, 50.0874], [-211.258, 49.9749], [-211.165, 49.8538], [-211.083, 49.725], [-211.012, 49.5896], [-210.954, 49.4485], [-210.908, 49.3029], [-210.875, 49.1539], [-210.855, 49.0025]],
    "il16": [[-210.848, 23.85], [-210.855, 23.6975], [-210.875, 23.5461], [-210.908, 23.3971], [-210.954, 23.2515], [-211.012, 23.1104], [-211.083, 22.975], [-211.165, 22.8462], [-211.258, 22.7251], [-211.361, 22.6126], [-211.473, 22.5094], [-211.594, 22.4165], [-211.723, 22.3345], [-211.859, 22.264], [-212, 22.2055], [-212.145, 22.1596], [-212.294, 22.1266], [-212.446, 22.1067], [-212.598, 22.1], [-212.751, 22.1067], [-212.902, 22.1266], [-213.051, 22.1596], [-213.197, 22.2055], [-213.338, 22.264], [-213.473, 22.3345], [-213.602, 22.4165], [-213.723, 22.5094], [-213.836, 22.6126], [-213.939, 22.7251], [-214.032, 22.8462], [-214.114, 22.975], [-214.184, 23.1104], [-214.243, 23.2515], [-214.289, 23.3971], [-214.322, 23.5461], [-214.341, 23.6975], [-214.348, 23.85], [-214.341, 24.0025], [-214.322, 24.1539], [-214.289, 24.3029], [-214.243, 24.4485], [-214.184, 24.5896], [-214.114, 24.725], [-214.032, 24.8538], [-213.939, 24.9749], [-213.836, 25.0874], [-213.723, 25.1906], [-213.602, 25.2835], [-213.473, 25.3655], [-213.338, 25.436], [-213.197, 25.4945], [-213.051, 25.5404], [-212.902, 25.5734], [-212.751, 25.5933], [-212.598, 25.6], [-212.446, 25.5933], [-212.294, 25.5734], [-212.145, 25.5404], [-212, 25.4945], [-211.859, 25.436], [-211.723, 25.3655], [-211.594, 25.2835], [-211.473, 25.1906], [-211.361, 25.0874], [-211.258, 24.9749], [-211.165, 24.8538], [-211.083, 24.725], [-211.012, 24.5896], [-210.954, 24.4485], [-210.908, 24.3029], [-210.875, 24.1539], [-210.855, 24.0025]],
    "il17": [[-174.598, 48.85], [-174.605, 48.6975], [-174.625, 48.5461], [-174.658, 48.3971], [-174.704, 48.2515], [-174.762, 48.1104], [-174.833, 47.975], [-174.915, 47.8462], [-175.008, 47.7251], [-175.111, 47.6126], [-175.223, 47.5094], [-175.344, 47.4165], [-175.473, 47.3345], [-175.609, 47.264], [-175.75, 47.2055], [-175.895, 47.1596], [-176.044, 47.1266], [-176.196, 47.1067], [-176.348, 47.1], [-176.501, 47.1067], [-176.652, 47.1266], [-176.801, 47.1596], [-176.947, 47.2055], [-177.088, 47.264], [-177.223, 47.3345], [-177.352, 47.4165], [-177.473, 47.5094], [-177.586, 47.6126], [-177.689, 47.7251], [-177.782, 47.8462], [-177.864, 47.975], [-177.934, 48.1104], [-177.993, 48.2515], [-178.039, 48.3971], [-178.072, 48.5461], [-178.091, 48.6975], [-178.098, 48.85], [-178.091, 49.0025], [-178.072, 49.1539], [-178.039, 49.3029], [-177.993, 49.4485], [-177.934, 49.5896], [-177.864, 49.725], [-177.782, 49.8538], [-177.689, 49.9749], [-177.586, 50.0874], [-177.473, 50.1906], [-177.352, 50.2835], [-177.223, 50.3655], [-177.088, 50.436], [-176.947, 50.4945], [-176.801, 50.5404], [-176.652, 50.5734], [-176.501, 50.5933], [-176.348, 50.6], [-176.196, 50.5933], [-176.044, 50.5734], [-175.895, 50.5404], [-175.75, 50.4945], [-175.609, 50.436], [-175.473, 50.3655], [-175.344, 50.2835], [-175.223, 50.1906], [-175.111, 50.0874], [-175.008, 49.9749], [-174.915, 49.8538], [-174.833, 49.725], [-174.762, 49.5896], [-174.704, 49.4485], [-174.658, 49.3029], [-174.625, 49.1539], [-174.605, 49.0025]],
    "il18": [[-174.598, 23.85], [-174.605, 23.6975], [-174.625, 23.5461], [-174.658, 23.3971], [-174.704, 23.2515], [-174.762, 23.1104], [-174.833, 22.975], [-174.915, 22.8462], [-175.008, 22.7251], [-175.111, 22.6126], [-175.223, 22.5094], [-175.344, 22.4165], [-175.473, 22.3345], [-175.609, 22.264], [-175.75, 22.2055], [-175.895, 22.1596], [-176.044, 22.1266], [-176.196, 22.1067], [-176.348, 22.1], [-176.501, 22.1067], [-176.652, 22.1266], [-176.801, 22.1596], [-176.947, 22.2055], [-177.088, 22.264], [-177.223, 22.3345], [-177.352, 22.4165], [-177.473, 22.5094], [-177.586, 22.6126], [-177.689, 22.7251], [-177.782, 22.8462], [-177.864, 22.975], [-177.934, 23.1104], [-177.993, 23.2515], [-178.039, 23.3971], [-178.072, 23.5461], [-178.091, 23.6975], [-178.098, 23.85], [-178.091, 24.0025], [-178.072, 24.1539], [-178.039, 24.3029], [-177.993, 24.4485], [-177.934, 24.5896], [-177.864, 24.725], [-177.782, 24.8538], [-177.689, 24.9749], [-177.586, 25.0874], [-177.473, 25.1906], [-177.352, 25.2835], [-177.223, 25.3655], [-177.088, 25.436], [-176.947, 25.4945], [-176.801, 25.5404], [-176.652, 25.5734], [-176.501, 25.5933], [-176.348, 25.6], [-176.196, 25.5933], [-176.044, 25.5734], [-175.895, 25.5404], [-175.75, 25.4945], [-175.609, 25.436], [-175.473, 25.3655], [-175.344, 25.2835], [-175.223, 25.1906], [-175.111, 25.0874], [-175.008, 24.9749], [-174.915, 24.8538], [-174.833, 24.725], [-174.762, 24.5896], [-174.704, 24.4485], [-174.658, 24.3029], [-174.625, 24.1539], [-174.605, 24.0025]],
    "il19": [[-282.848, 48.85], [-282.855, 48.6975], [-282.875, 48.5461], [-282.908, 48.3971], [-282.954, 48.2515], [-283.012, 48.1104], [-283.083, 47.975], [-283.165, 47.8462], [-283.258, 47.7251], [-283.361, 47.6126], [-283.473, 47.5094], [-283.594, 47.4165], [-283.723, 47.3345], [-283.859, 47.264], [-284, 47.2055], [-284.145, 47.1596], [-284.294, 47.1266], [-284.446, 47.1067], [-284.598, 47.1], [-284.751, 47.1067], [-284.902, 47.1266], [-285.051, 47.1596], [-285.197, 47.2055], [-285.338, 47.264], [-285.473, 47.3345], [-285.602, 47.4165], [-285.723, 47.5094], [-285.836, 47.6126], [-285.939, 47.7251], [-286.032, 47.8462], [-286.114, 47.975], [-286.184, 48.1104], [-286.243, 48.2515], [-286.289, 48.3971], [-286.322, 48.5461], [-286.341, 48.6975], [-286.348, 48.85], [-286.341, 49.0025], [-286.322, 49.1539], [-286.289, 49.3029], [-286.243, 49.4485], [-286.184, 49.5896], [-286.114, 49.725], [-286.032, 49.8538], [-285.939, 49.9749], [-285.836, 50.0874], [-285.723, 50.1906], [-285.602, 50.2835], [-285.473, 50.3655], [-285.338, 50.436], [-285.197, 50.4945], [-285.051, 50.5404], [-284.902, 50.5734], [-284.751, 50.5933], [-284.598, 50.6], [-284.446, 50.5933], [-284.294, 50.5734], [-284.145, 50.5404], [-284, 50.4945], [-283.859, 50.436], [-283.723, 50.3655], [-283.594, 50.2835], [-283.473, 50.1906], [-283.361, 50.0874], [-283.258, 49.9749], [-283.165, 49.8538], [-283.083, 49.725], [-283.012, 49.5896], [-282.954, 49.4485], [-282.908, 49.3029], [-282.875, 49.1539], [-282.855, 49.0025]],
    "il20": [[-282.848, 23.85], [-282.855, 23.6975], [-282.875, 23.5461], [-282.908, 23.3971], [-282.954, 23.2515], [-283.012, 23.1104], [-283.083, 22.975], [-283.165, 22.8462], [-283.258, 22.7251], [-283.361, 22.6126], [-283.473, 22.5094], [-283.594, 22.4165], [-283.723, 22.3345], [-283.859, 22.264], [-284, 22.2055], [-284.145, 22.1596], [-284.294, 22.1266], [-284.446, 22.1067], [-284.598, 22.1], [-284.751, 22.1067], [-284.902, 22.1266], [-285.051, 22.1596], [-285.197, 22.2055], [-285.338, 22.264], [-285.473, 22.3345], [-285.602, 22.4165], [-285.723, 22.5094], [-285.836, 22.6126], [-285.939, 22.7251], [-286.032, 22.8462], [-286.114, 22.975], [-286.184, 23.1104], [-286.243, 23.2515], [-286.289, 23.3971], [-286.322, 23.5461], [-286.341, 23.6975], [-286.348, 23.85], [-286.341, 24.0025], [-286.322, 24.1539], [-286.289, 24.3029], [-286.243, 24.4485], [-286.184, 24.5896], [-286.114, 24.725], [-286.032, 24.8538], [-285.939, 24.9749], [-285.836, 25.0874], [-285.723, 25.1906], [-285.602, 25.2835], [-285.473, 25.3655], [-285.338, 25.436], [-285.197, 25.4945], [-285.051, 25.5404], [-284.902, 25.5734], [-284.751, 25.5933], [-284.598, 25.6], [-284.446, 25.5933], [-284.294, 25.5734], [-284.145, 25.5404], [-284, 25.4945], [-283.859, 25.436], [-283.723, 25.3655], [-283.594, 25.2835], [-283.473, 25.1906], [-283.361, 25.0874], [-283.258, 24.9749], [-283.165, 24.8538], [-283.083, 24.725], [-283.012, 24.5896], [-282.954, 24.4485], [-282.908, 24.3029], [-282.875, 24.1539], [-282.855, 24.0025]],
    "il21": [[-393.598, 28.7335], [-393.598, 43.9665], [-393.591, 44.1408], [-393.568, 44.3138], [-393.53, 44.4841], [-393.478, 44.6505], [-393.411, 44.8117], [-393.33, 44.9665], [-393.236, 45.1136], [-393.13, 45.2521], [-393.012, 45.3807], [-392.884, 45.4986], [-392.745, 45.6048], [-392.598, 45.6985], [-392.443, 45.7791], [-392.282, 45.8459], [-392.116, 45.8983], [-391.945, 45.9361], [-391.772, 45.9589], [-391.598, 45.9665], [-391.424, 45.9589], [-391.251, 45.9361], [-385.251, 44.8781], [-385.081, 44.8404], [-384.914, 44.7879], [-384.753, 44.7211], [-384.598, 44.6406], [-384.451, 44.5468], [-384.313, 44.4406], [-384.184, 44.3227], [-384.066, 44.1941], [-383.96, 44.0557], [-383.866, 43.9085], [-383.786, 43.7538], [-383.719, 43.5926], [-383.666, 43.4262], [-383.629, 43.2558], [-383.606, 43.0828], [-383.598, 42.9085], [-383.598, 29.7915], [-383.605, 29.6274], [-383.625, 29.4644], [-383.659, 29.3036], [-383.705, 29.1462], [-383.764, 28.993], [-383.836, 28.8453], [-383.92, 28.7039], [-384.015, 28.5699], [-384.12, 28.4441], [-384.236, 28.3274], [-384.36, 28.2205], [-384.493, 28.1243], [-384.634, 28.0393], [-384.781, 27.9661], [-384.933, 27.9052], [-385.09, 27.857], [-385.251, 27.8219], [-391.251, 26.7639], [-391.416, 26.7419], [-391.582, 26.7336], [-391.748, 26.7391], [-391.913, 26.7584], [-392.076, 26.7913], [-392.235, 26.8377], [-392.39, 26.8971], [-392.54, 26.9692], [-392.683, 27.0535], [-392.819, 27.1493], [-392.946, 27.2561], [-393.064, 27.3732], [-393.172, 27.4996], [-393.269, 27.6345], [-393.355, 27.777], [-393.428, 27.9261], [-393.489, 28.0808], [-393.536, 28.24], [-393.571, 28.4026], [-393.591, 28.5675]],
    "il22": [[-357.598, 28.7335], [-357.598, 43.9665], [-357.591, 44.1408], [-357.568, 44.3138], [-357.53, 44.4841], [-357.478, 44.6505], [-357.411, 44.8117], [-357.33, 44.9665], [-357.236, 45.1136], [-357.13, 45.2521], [-357.012, 45.3807], [-356.884, 45.4986], [-356.745, 45.6048], [-356.598, 45.6985], [-356.443, 45.7791], [-356.282, 45.8459], [-356.116, 45.8983], [-355.945, 45.9361], [-355.772, 45.9589], [-355.598, 45.9665], [-355.424, 45.9589], [-355.251, 45.9361], [-349.251, 44.8781], [-349.081, 44.8404], [-348.914, 44.7879], [-348.753, 44.7211], [-348.598, 44.6406], [-348.451, 44.5468], [-348.313, 44.4406], [-348.184, 44.3227], [-348.066, 44.1941], [-347.96, 44.0557], [-347.866, 43.9085], [-347.786, 43.7538], [-347.719, 43.5926], [-347.666, 43.4262], [-347.629, 43.2558], [-347.606, 43.0828], [-347.598, 42.9085], [-347.598, 29.7915], [-347.605, 29.6274], [-347.625, 29.4644], [-347.659, 29.3036], [-347.705, 29.1462], [-347.764, 28.993], [-347.836, 28.8453], [-347.92, 28.7039], [-348.015, 28.5699], [-348.12, 28.4441], [-348.236, 28.3274], [-348.36, 28.2205], [-348.493, 28.1243], [-348.634, 28.0393], [-348.781, 27.9661], [-348.933, 27.9052], [-349.09, 27.857], [-349.251, 27.8219], [-355.251, 26.7639], [-355.416, 26.7419], [-355.582, 26.7336], [-355.748, 26.7391], [-355.913, 26.7584], [-356.076, 26.7913], [-356.235, 26.8377], [-356.39, 26.8971], [-356.54, 26.9692], [-356.683, 27.0535], [-356.819, 27.1493], [-356.946, 27.2561], [-357.064, 27.3732], [-357.172, 27.4996], [-357.269, 27.6345], [-357.355, 27.777], [-357.428, 27.9261], [-357.489, 28.0808], [-357.536, 28.24], [-357.571, 28.4026], [-357.591, 28.5675]],
    "il23": [[-253.598, 28.7335], [-253.598, 43.9665], [-253.591, 44.1408], [-253.568, 44.3138], [-253.53, 44.4841], [-253.478, 44.6505], [-253.411, 44.8117], [-253.33, 44.9665], [-253.236, 45.1136], [-253.13, 45.2521], [-253.012, 45.3807], [-252.884, 45.4986], [-252.745, 45.6048], [-252.598, 45.6985], [-252.443, 45.7791], [-252.282, 45.8459], [-252.116, 45.8983], [-251.945, 45.9361], [-251.772, 45.9589], [-251.598, 45.9665], [-251.424, 45.9589], [-251.251, 45.9361], [-245.251, 44.8781], [-245.081, 44.8404], [-244.914, 44.7879], [-244.753, 44.7211], [-244.598, 44.6406], [-244.451, 44.5468], [-244.313, 44.4406], [-244.184, 44.3227], [-244.066, 44.1941], [-243.96, 44.0557], [-243.866, 43.9085], [-243.786, 43.7538], [-243.719, 43.5926], [-243.666, 43.4262], [-243.629, 43.2558], [-243.606, 43.0828], [-243.598, 42.9085], [-243.598, 29.7915], [-243.605, 29.6274], [-243.625, 29.4644], [-243.659, 29.3036], [-243.705, 29.1462], [-243.764, 28.993], [-243.836, 28.8453], [-243.92, 28.7039], [-244.015, 28.5699], [-244.12, 28.4441], [-244.236, 28.3274], [-244.36, 28.2205], [-244.493, 28.1243], [-244.634, 28.0393], [-244.781, 27.9661], [-244.933, 27.9052], [-245.09, 27.857], [-245.251, 27.8219], [-251.251, 26.7639], [-251.416, 26.7419], [-251.582, 26.7336], [-251.748, 26.7391], [-251.913, 26.7584], [-252.076, 26.7913], [-252.235, 26.8377], [-252.39, 26.8971], [-252.54, 26.9692], [-252.683, 27.0535], [-252.819, 27.1493], [-252.946, 27.2561], [-253.064, 27.3732], [-253.172, 27.4996], [-253.269, 27.6345], [-253.355, 27.777], [-253.428, 27.9261], [-253.489, 28.0808], [-253.536, 28.24], [-253.571, 28.4026], [-253.591, 28.5675]],
    "il24": [[-217.598, 28.7335], [-217.598, 43.9665], [-217.591, 44.1408], [-217.568, 44.3138], [-217.53, 44.4841], [-217.478, 44.6505], [-217.411, 44.8117], [-217.33, 44.9665], [-217.236, 45.1136], [-217.13, 45.2521], [-217.012, 45.3807], [-216.884, 45.4986], [-216.745, 45.6048], [-216.598, 45.6985], [-216.443, 45.7791], [-216.282, 45.8459], [-216.116, 45.8983], [-215.945, 45.9361], [-215.772, 45.9589], [-215.598, 45.9665], [-215.424, 45.9589], [-215.251, 45.9361], [-209.251, 44.8781], [-209.081, 44.8404], [-208.914, 44.7879], [-208.753, 44.7211], [-208.598, 44.6406], [-208.451, 44.5468], [-208.313, 44.4406], [-208.184, 44.3227], [-208.066, 44.1941], [-207.96, 44.0557], [-207.866, 43.9085], [-207.786, 43.7538], [-207.719, 43.5926], [-207.666, 43.4262], [-207.629, 43.2558], [-207.606, 43.0828], [-207.598, 42.9085], [-207.598, 29.7915], [-207.605, 29.6274], [-207.625, 29.4644], [-207.659, 29.3036], [-207.705, 29.1462], [-207.764, 28.993], [-207.836, 28.8453], [-207.92, 28.7039], [-208.015, 28.5699], [-208.12, 28.4441], [-208.236, 28.3274], [-208.36, 28.2205], [-208.493, 28.1243], [-208.634, 28.0393], [-208.781, 27.9661], [-208.933, 27.9052], [-209.09, 27.857], [-209.251, 27.8219], [-215.251, 26.7639], [-215.416, 26.7419], [-215.582, 26.7336], [-215.748, 26.7391], [-215.913, 26.7584], [-216.076, 26.7913], [-216.235, 26.8377], [-216.39, 26.8971], [-216.54, 26.9692], [-216.683, 27.0535], [-216.819, 27.1493], [-216.946, 27.2561], [-217.064, 27.3732], [-217.172, 27.4996], [-217.269, 27.6345], [-217.355, 27.777], [-217.428, 27.9261], [-217.489, 28.0808], [-217.536, 28.24], [-217.571, 28.4026], [-217.591, 28.5675]],
    "il25": [[-181.348, 28.7335], [-181.348, 43.9665], [-181.341, 44.1408], [-181.318, 44.3138], [-181.28, 44.4841], [-181.228, 44.6505], [-181.161, 44.8117], [-181.08, 44.9665], [-180.986, 45.1136], [-180.88, 45.2521], [-180.762, 45.3807], [-180.634, 45.4986], [-180.495, 45.6048], [-180.348, 45.6985], [-180.193, 45.7791], [-180.032, 45.8459], [-179.866, 45.8983], [-179.695, 45.9361], [-179.522, 45.9589], [-179.348, 45.9665], [-179.174, 45.9589], [-179.001, 45.9361], [-173.001, 44.8781], [-172.831, 44.8404], [-172.664, 44.7879], [-172.503, 44.7211], [-172.348, 44.6406], [-172.201, 44.5468], [-172.063, 44.4406], [-171.934, 44.3227], [-171.816, 44.1941], [-171.71, 44.0557], [-171.616, 43.9085], [-171.536, 43.7538], [-171.469, 43.5926], [-171.416, 43.4262], [-171.379, 43.2558], [-171.356, 43.0828], [-171.348, 42.9085], [-171.348, 29.7915], [-171.355, 29.6274], [-171.375, 29.4644], [-171.409, 29.3036], [-171.455, 29.1462], [-171.514, 28.993], [-171.586, 28.8453], [-171.67, 28.7039], [-171.765, 28.5699], [-171.87, 28.4441], [-171.986, 28.3274], [-172.11, 28.2205], [-172.243, 28.1243], [-172.384, 28.0393], [-172.531, 27.9661], [-172.683, 27.9052], [-172.84, 27.857], [-173.001, 27.8219], [-179.001, 26.7639], [-179.166, 26.7419], [-179.332, 26.7336], [-179.498, 26.7391], [-179.663, 26.7584], [-179.826, 26.7913], [-179.985, 26.8377], [-180.14, 26.8971], [-180.29, 26.9692], [-180.433, 27.0535], [-180.569, 27.1493], [-180.696, 27.2561], [-180.814, 27.3732], [-180.922, 27.4996], [-181.019, 27.6345], [-181.105, 27.777], [-181.178, 27.9261], [-181.239, 28.0808], [-181.286, 28.24], [-181.321, 28.4026], [-181.341, 28.5675]],
    "il26": [[-289.598, 28.7335], [-289.598, 43.9665], [-289.591, 44.1408], [-289.568, 44.3138], [-289.53, 44.4841], [-289.478, 44.6505], [-289.411, 44.8117], [-289.33, 44.9665], [-289.236, 45.1136], [-289.13, 45.2521], [-289.012, 45.3807], [-288.884, 45.4986], [-288.745, 45.6048], [-288.598, 45.6985], [-288.443, 45.7791], [-288.282, 45.8459], [-288.116, 45.8983], [-287.945, 45.9361], [-287.772, 45.9589], [-287.598, 45.9665], [-287.424, 45.9589], [-287.251, 45.9361], [-281.251, 44.8781], [-281.081, 44.8404], [-280.914, 44.7879], [-280.753, 44.7211], [-280.598, 44.6406], [-280.451, 44.5468], [-280.313, 44.4406], [-280.184, 44.3227], [-280.066, 44.1941], [-279.96, 44.0557], [-279.866, 43.9085], [-279.786, 43.7538], [-279.719, 43.5926], [-279.666, 43.4262], [-279.629, 43.2558], [-279.606, 43.0828], [-279.598, 42.9085], [-279.598, 29.7915], [-279.605, 29.6274], [-279.625, 29.4644], [-279.659, 29.3036], [-279.705, 29.1462], [-279.764, 28.993], [-279.836, 28.8453], [-279.92, 28.7039], [-280.015, 28.5699], [-280.12, 28.4441], [-280.236, 28.3274], [-280.36, 28.2205], [-280.493, 28.1243], [-280.634, 28.0393], [-280.781, 27.9661], [-280.933, 27.9052], [-281.09, 27.857], [-281.251, 27.8219], [-287.251, 26.7639], [-287.416, 26.7419], [-287.582, 26.7336], [-287.748, 26.7391], [-287.913, 26.7584], [-288.076, 26.7913], [-288.235, 26.8377], [-288.39, 26.8971], [-288.54, 26.9692], [-288.683, 27.0535], [-288.819, 27.1493], [-288.946, 27.2561], [-289.064, 27.3732], [-289.172, 27.4996], [-289.269, 27.6345], [-289.355, 27.777], [-289.428, 27.9261], [-289.489, 28.0808], [-289.536, 28.24], [-289.571, 28.4026], [-289.591, 28.5675]],
    "il27": [[-385.498, 5.6], [-385.504, 5.46055], [-385.522, 5.32216], [-385.553, 5.18589], [-385.595, 5.05277], [-385.648, 4.92381], [-385.713, 4.8], [-385.788, 4.68228], [-385.872, 4.57154], [-385.967, 4.46863], [-386.07, 4.37433], [-386.18, 4.28936], [-386.298, 4.21436], [-386.422, 4.14991], [-386.551, 4.09649], [-386.684, 4.05452], [-386.82, 4.02431], [-386.959, 4.00609], [-387.098, 4], [-387.238, 4.00609], [-387.376, 4.02431], [-387.512, 4.05452], [-387.645, 4.09649], [-387.774, 4.14991], [-387.898, 4.21436], [-388.016, 4.28936], [-388.127, 4.37433], [-388.23, 4.46863], [-388.324, 4.57154], [-388.409, 4.68228], [-388.484, 4.8], [-388.548, 4.92381], [-388.602, 5.05277], [-388.644, 5.18589], [-388.674, 5.32216], [-388.692, 5.46055], [-388.698, 5.6], [-388.692, 5.73945], [-388.674, 5.87784], [-388.644, 6.01411], [-388.602, 6.14723], [-388.548, 6.27619], [-388.484, 6.4], [-388.409, 6.51772], [-388.324, 6.62846], [-388.23, 6.73137], [-388.127, 6.82567], [-388.016, 6.91064], [-387.898, 6.98564], [-387.774, 7.05009], [-387.645, 7.10351], [-387.512, 7.14548], [-387.376, 7.17569], [-387.238, 7.19391], [-387.098, 7.2], [-386.959, 7.19391], [-386.82, 7.17569], [-386.684, 7.14548], [-386.551, 7.10351], [-386.422, 7.05009], [-386.298, 6.98564], [-386.18, 6.91064], [-386.07, 6.82567], [-385.967, 6.73137], [-385.872, 6.62846], [-385.788, 6.51772], [-385.713, 6.4], [-385.648, 6.27619], [-385.595, 6.14723], [-385.553, 6.01411], [-385.522, 5.87784], [-385.504, 5.73945]],
    "il28": [[-385.498, -19.4], [-385.504, -19.5394], [-385.522, -19.6778], [-385.553, -19.8141], [-385.595, -19.9472], [-385.648, -20.0762], [-385.713, -20.2], [-385.788, -20.3177], [-385.872, -20.4285], [-385.967, -20.5314], [-386.07, -20.6257], [-386.18, -20.7106], [-386.298, -20.7856], [-386.422, -20.8501], [-386.551, -20.9035], [-386.684, -20.9455], [-386.82, -20.9757], [-386.959, -20.9939], [-387.098, -21], [-387.238, -20.9939], [-387.376, -20.9757], [-387.512, -20.9455], [-387.645, -20.9035], [-387.774, -20.8501], [-387.898, -20.7856], [-388.016, -20.7106], [-388.127, -20.6257], [-388.23, -20.5314], [-388.324, -20.4285], [-388.409, -20.3177], [-388.484, -20.2], [-388.548, -20.0762], [-388.602, -19.9472], [-388.644, -19.8141], [-388.674, -19.6778], [-388.692, -19.5394], [-388.698, -19.4], [-388.692, -19.2606], [-388.674, -19.1222], [-388.644, -18.9859], [-388.602, -18.8528], [-388.548, -18.7238], [-388.484, -18.6], [-388.409, -18.4823], [-388.324, -18.3715], [-388.23, -18.2686], [-388.127, -18.1743], [-388.016, -18.0894], [-387.898, -18.0144], [-387.774, -17.9499], [-387.645, -17.8965], [-387.512, -17.8545], [-387.376, -17.8243], [-387.238, -17.8061], [-387.098, -17.8], [-386.959, -17.8061], [-386.82, -17.8243], [-386.684, -17.8545], [-386.551, -17.8965], [-386.422, -17.9499], [-386.298, -18.0144], [-386.18, -18.0894], [-386.07, -18.1743], [-385.967, -18.2686], [-385.872, -18.3715], [-385.788, -18.4823], [-385.713, -18.6], [-385.648, -18.7238], [-385.595, -18.8528], [-385.553, -18.9859], [-385.522, -19.1222], [-385.504, -19.2606]],
    "il29": [[-245.498, 5.6], [-245.504, 5.46055], [-245.522, 5.32216], [-245.553, 5.18589], [-245.595, 5.05277], [-245.648, 4.92381], [-245.713, 4.8], [-245.788, 4.68228], [-245.872, 4.57154], [-245.967, 4.46863], [-246.07, 4.37433], [-246.18, 4.28936], [-246.298, 4.21436], [-246.422, 4.14991], [-246.551, 4.09649], [-246.684, 4.05452], [-246.82, 4.02431], [-246.959, 4.00609], [-247.098, 4], [-247.238, 4.00609], [-247.376, 4.02431], [-247.512, 4.05452], [-247.645, 4.09649], [-247.774, 4.14991], [-247.898, 4.21436], [-248.016, 4.28936], [-248.127, 4.37433], [-248.23, 4.46863], [-248.324, 4.57154], [-248.409, 4.68228], [-248.484, 4.8], [-248.548, 4.92381], [-248.602, 5.05277], [-248.644, 5.18589], [-248.674, 5.32216], [-248.692, 5.46055], [-248.698, 5.6], [-248.692, 5.73945], [-248.674, 5.87784], [-248.644, 6.01411], [-248.602, 6.14723], [-248.548, 6.27619], [-248.484, 6.4], [-248.409, 6.51772], [-248.324, 6.62846], [-248.23, 6.73137], [-248.127, 6.82567], [-248.016, 6.91064], [-247.898, 6.98564], [-247.774, 7.05009], [-247.645, 7.10351], [-247.512, 7.14548], [-247.376, 7.17569], [-247.238, 7.19391], [-247.098, 7.2], [-246.959, 7.19391], [-246.82, 7.17569], [-246.684, 7.14548], [-246.551, 7.10351], [-246.422, 7.05009], [-246.298, 6.98564], [-246.18, 6.91064], [-246.07, 6.82567], [-245.967, 6.73137], [-245.872, 6.62846], [-245.788, 6.51772], [-245.713, 6.4], [-245.648, 6.27619], [-245.595, 6.14723], [-245.553, 6.01411], [-245.522, 5.87784], [-245.504, 5.73945]],
    "il30": [[-245.498, -19.4], [-245.504, -19.5394], [-245.522, -19.6778], [-245.553, -19.8141], [-245.595, -19.9472], [-245.648, -20.0762], [-245.713, -20.2], [-245.788, -20.3177], [-245.872, -20.4285], [-245.967, -20.5314], [-246.07, -20.6257], [-246.18, -20.7106], [-246.298, -20.7856], [-246.422, -20.8501], [-246.551, -20.9035], [-246.684, -20.9455], [-246.82, -20.9757], [-246.959, -20.9939], [-247.098, -21], [-247.238, -20.9939], [-247.376, -20.9757], [-247.512, -20.9455], [-247.645, -20.9035], [-247.774, -20.8501], [-247.898, -20.7856], [-248.016, -20.7106], [-248.127, -20.6257], [-248.23, -20.5314], [-248.324, -20.4285], [-248.409, -20.3177], [-248.484, -20.2], [-248.548, -20.0762], [-248.602, -19.9472], [-248.644, -19.8141], [-248.674, -19.6778], [-248.692, -19.5394], [-248.698, -19.4], [-248.692, -19.2606], [-248.674, -19.1222], [-248.644, -18.9859], [-248.602, -18.8528], [-248.548, -18.7238], [-248.484, -18.6], [-248.409, -18.4823], [-248.324, -18.3715], [-248.23, -18.2686], [-248.127, -18.1743], [-248.016, -18.0894], [-247.898, -18.0144], [-247.774, -17.9499], [-247.645, -17.8965], [-247.512, -17.8545], [-247.376, -17.8243], [-247.238, -17.8061], [-247.098, -17.8], [-246.959, -17.8061], [-246.82, -17.8243], [-246.684, -17.8545], [-246.551, -17.8965], [-246.422, -17.9499], [-246.298, -18.0144], [-246.18, -18.0894], [-246.07, -18.1743], [-245.967, -18.2686], [-245.872, -18.3715], [-245.788, -18.4823], [-245.713, -18.6], [-245.648, -18.7238], [-245.595, -18.8528], [-245.553, -18.9859], [-245.522, -19.1222], [-245.504, -19.2606]],
    "il31": [[-209.498, 5.6], [-209.504, 5.46055], [-209.522, 5.32216], [-209.553, 5.18589], [-209.595, 5.05277], [-209.648, 4.92381], [-209.713, 4.8], [-209.788, 4.68228], [-209.872, 4.57154], [-209.967, 4.46863], [-210.07, 4.37433], [-210.18, 4.28936], [-210.298, 4.21436], [-210.422, 4.14991], [-210.551, 4.09649], [-210.684, 4.05452], [-210.82, 4.02431], [-210.959, 4.00609], [-211.098, 4], [-211.238, 4.00609], [-211.376, 4.02431], [-211.512, 4.05452], [-211.645, 4.09649], [-211.774, 4.14991], [-211.898, 4.21436], [-212.016, 4.28936], [-212.127, 4.37433], [-212.23, 4.46863], [-212.324, 4.57154], [-212.409, 4.68228], [-212.484, 4.8], [-212.548, 4.92381], [-212.602, 5.05277], [-212.644, 5.18589], [-212.674, 5.32216], [-212.692, 5.46055], [-212.698, 5.6], [-212.692, 5.73945], [-212.674, 5.87784], [-212.644, 6.01411], [-212.602, 6.14723], [-212.548, 6.27619], [-212.484, 6.4], [-212.409, 6.51772], [-212.324, 6.62846], [-212.23, 6.73137], [-212.127, 6.82567], [-212.016, 6.91064], [-211.898, 6.98564], [-211.774, 7.05009], [-211.645, 7.10351], [-211.512, 7.14548], [-211.376, 7.17569], [-211.238, 7.19391], [-211.098, 7.2], [-210.959, 7.19391], [-210.82, 7.17569], [-210.684, 7.14548], [-210.551, 7.10351], [-210.422, 7.05009], [-210.298, 6.98564], [-210.18, 6.91064], [-210.07, 6.82567], [-209.967, 6.73137], [-209.872, 6.62846], [-209.788, 6.51772], [-209.713, 6.4], [-209.648, 6.27619], [-209.595, 6.14723], [-209.553, 6.01411], [-209.522, 5.87784], [-209.504, 5.73945]],
    "il32": [[-209.498, -19.4], [-209.504, -19.5394], [-209.522, -19.6778], [-209.553, -19.8141], [-209.595, -19.9472], [-209.648, -20.0762], [-209.713, -20.2], [-209.788, -20.3177], [-209.872, -20.4285], [-209.967, -20.5314], [-210.07, -20.6257], [-210.18, -20.7106], [-210.298, -20.7856], [-210.422, -20.8501], [-210.551, -20.9035], [-210.684, -20.9455], [-210.82, -20.9757], [-210.959, -20.9939], [-211.098, -21], [-211.238, -20.9939], [-211.376, -20.9757], [-211.512, -20.9455], [-211.645, -20.9035], [-211.774, -20.8501], [-211.898, -20.7856], [-212.016, -20.7106], [-212.127, -20.6257], [-212.23, -20.5314], [-212.324, -20.4285], [-212.409, -20.3177], [-212.484, -20.2], [-212.548, -20.0762], [-212.602, -19.9472], [-212.644, -19.8141], [-212.674, -19.6778], [-212.692, -19.5394], [-212.698, -19.4], [-212.692, -19.2606], [-212.674, -19.1222], [-212.644, -18.9859], [-212.602, -18.8528], [-212.548, -18.7238], [-212.484, -18.6], [-212.409, -18.4823], [-212.324, -18.3715], [-212.23, -18.2686], [-212.127, -18.1743], [-212.016, -18.0894], [-211.898, -18.0144], [-211.774, -17.9499], [-211.645, -17.8965], [-211.512, -17.8545], [-211.376, -17.8243], [-211.238, -17.8061], [-211.098, -17.8], [-210.959, -17.8061], [-210.82, -17.8243], [-210.684, -17.8545], [-210.551, -17.8965], [-210.422, -17.9499], [-210.298, -18.0144], [-210.18, -18.0894], [-210.07, -18.1743], [-209.967, -18.2686], [-209.872, -18.3715], [-209.788, -18.4823], [-209.713, -18.6], [-209.648, -18.7238], [-209.595, -18.8528], [-209.553, -18.9859], [-209.522, -19.1222], [-209.504, -19.2606]],
    "il33": [[-173.498, 5.6], [-173.504, 5.46055], [-173.522, 5.32216], [-173.553, 5.18589], [-173.595, 5.05277], [-173.648, 4.92381], [-173.713, 4.8], [-173.788, 4.68228], [-173.872, 4.57154], [-173.967, 4.46863], [-174.07, 4.37433], [-174.18, 4.28936], [-174.298, 4.21436], [-174.422, 4.14991], [-174.551, 4.09649], [-174.684, 4.05452], [-174.82, 4.02431], [-174.959, 4.00609], [-175.098, 4], [-175.238, 4.00609], [-175.376, 4.02431], [-175.512, 4.05452], [-175.645, 4.09649], [-175.774, 4.14991], [-175.898, 4.21436], [-176.016, 4.28936], [-176.127, 4.37433], [-176.23, 4.46863], [-176.324, 4.57154], [-176.409, 4.68228], [-176.484, 4.8], [-176.548, 4.92381], [-176.602, 5.05277], [-176.644, 5.18589], [-176.674, 5.32216], [-176.692, 5.46055], [-176.698, 5.6], [-176.692, 5.73945], [-176.674, 5.87784], [-176.644, 6.01411], [-176.602, 6.14723], [-176.548, 6.27619], [-176.484, 6.4], [-176.409, 6.51772], [-176.324, 6.62846], [-176.23, 6.73137], [-176.127, 6.82567], [-176.016, 6.91064], [-175.898, 6.98564], [-175.774, 7.05009], [-175.645, 7.10351], [-175.512, 7.14548], [-175.376, 7.17569], [-175.238, 7.19391], [-175.098, 7.2], [-174.959, 7.19391], [-174.82, 7.17569], [-174.684, 7.14548], [-174.551, 7.10351], [-174.422, 7.05009], [-174.298, 6.98564], [-174.18, 6.91064], [-174.07, 6.82567], [-173.967, 6.73137], [-173.872, 6.62846], [-173.788, 6.51772], [-173.713, 6.4], [-173.648, 6.27619], [-173.595, 6.14723], [-173.553, 6.01411], [-173.522, 5.87784], [-173.504, 5.73945]],
    "il34": [[-173.498, -19.4], [-173.504, -19.5394], [-173.522, -19.6778], [-173.553, -19.8141], [-173.595, -19.9472], [-173.648, -20.0762], [-173.713, -20.2], [-173.788, -20.3177], [-173.872, -20.4285], [-173.967, -20.5314], [-174.07, -20.6257], [-174.18, -20.7106], [-174.298, -20.7856], [-174.422, -20.8501], [-174.551, -20.9035], [-174.684, -20.9455], [-174.82, -20.9757], [-174.959, -20.9939], [-175.098, -21], [-175.238, -20.9939], [-175.376, -20.9757], [-175.512, -20.9455], [-175.645, -20.9035], [-175.774, -20.8501], [-175.898, -20.7856], [-176.016, -20.7106], [-176.127, -20.6257], [-176.23, -20.5314], [-176.324, -20.4285], [-176.409, -20.3177], [-176.484, -20.2], [-176.548, -20.0762], [-176.602, -19.9472], [-176.644, -19.8141], [-176.674, -19.6778], [-176.692, -19.5394], [-176.698, -19.4], [-176.692, -19.2606], [-176.674, -19.1222], [-176.644, -18.9859], [-176.602, -18.8528], [-176.548, -18.7238], [-176.484, -18.6], [-176.409, -18.4823], [-176.324, -18.3715], [-176.23, -18.2686], [-176.127, -18.1743], [-176.016, -18.0894], [-175.898, -18.0144], [-175.774, -17.9499], [-175.645, -17.8965], [-175.512, -17.8545], [-175.376, -17.8243], [-175.238, -17.8061], [-175.098, -17.8], [-174.959, -17.8061], [-174.82, -17.8243], [-174.684, -17.8545], [-174.551, -17.8965], [-174.422, -17.9499], [-174.298, -18.0144], [-174.18, -18.0894], [-174.07, -18.1743], [-173.967, -18.2686], [-173.872, -18.3715], [-173.788, -18.4823], [-173.713, -18.6], [-173.648, -18.7238], [-173.595, -18.8528], [-173.553, -18.9859], [-173.522, -19.1222], [-173.504, -19.2606]],
    "il35": [[-281.498, 5.6], [-281.504, 5.46055], [-281.522, 5.32216], [-281.553, 5.18589], [-281.595, 5.05277], [-281.648, 4.92381], [-281.713, 4.8], [-281.788, 4.68228], [-281.872, 4.57154], [-281.967, 4.46863], [-282.07, 4.37433], [-282.18, 4.28936], [-282.298, 4.21436], [-282.422, 4.14991], [-282.551, 4.09649], [-282.684, 4.05452], [-282.82, 4.02431], [-282.959, 4.00609], [-283.098, 4], [-283.238, 4.00609], [-283.376, 4.02431], [-283.512, 4.05452], [-283.645, 4.09649], [-283.774, 4.14991], [-283.898, 4.21436], [-284.016, 4.28936], [-284.127, 4.37433], [-284.23, 4.46863], [-284.324, 4.57154], [-284.409, 4.68228], [-284.484, 4.8], [-284.548, 4.92381], [-284.602, 5.05277], [-284.644, 5.18589], [-284.674, 5.32216], [-284.692, 5.46055], [-284.698, 5.6], [-284.692, 5.73945], [-284.674, 5.87784], [-284.644, 6.01411], [-284.602, 6.14723], [-284.548, 6.27619], [-284.484, 6.4], [-284.409, 6.51772], [-284.324, 6.62846], [-284.23, 6.73137], [-284.127, 6.82567], [-284.016, 6.91064], [-283.898, 6.98564], [-283.774, 7.05009], [-283.645, 7.10351], [-283.512, 7.14548], [-283.376, 7.17569], [-283.238, 7.19391], [-283.098, 7.2], [-282.959, 7.19391], [-282.82, 7.17569], [-282.684, 7.14548], [-282.551, 7.10351], [-282.422, 7.05009], [-282.298, 6.98564], [-282.18, 6.91064], [-282.07, 6.82567], [-281.967, 6.73137], [-281.872, 6.62846], [-281.788, 6.51772], [-281.713, 6.4], [-281.648, 6.27619], [-281.595, 6.14723], [-281.553, 6.01411], [-281.522, 5.87784], [-281.504, 5.73945]],
    "il36": [[-281.498, -19.4], [-281.504, -19.5394], [-281.522, -19.6778], [-281.553, -19.8141], [-281.595, -19.9472], [-281.648, -20.0762], [-281.713, -20.2], [-281.788, -20.3177], [-281.872, -20.4285], [-281.967, -20.5314], [-282.07, -20.6257], [-282.18, -20.7106], [-282.298, -20.7856], [-282.422, -20.8501], [-282.551, -20.9035], [-282.684, -20.9455], [-282.82, -20.9757], [-282.959, -20.9939], [-283.098, -21], [-283.238, -20.9939], [-283.376, -20.9757], [-283.512, -20.9455], [-283.645, -20.9035], [-283.774, -20.8501], [-283.898, -20.7856], [-284.016, -20.7106], [-284.127, -20.6257], [-284.23, -20.5314], [-284.324, -20.4285], [-284.409, -20.3177], [-284.484, -20.2], [-284.548, -20.0762], [-284.602, -19.9472], [-284.644, -19.8141], [-284.674, -19.6778], [-284.692, -19.5394], [-284.698, -19.4], [-284.692, -19.2606], [-284.674, -19.1222], [-284.644, -18.9859], [-284.602, -18.8528], [-284.548, -18.7238], [-284.484, -18.6], [-284.409, -18.4823], [-284.324, -18.3715], [-284.23, -18.2686], [-284.127, -18.1743], [-284.016, -18.0894], [-283.898, -18.0144], [-283.774, -17.9499], [-283.645, -17.8965], [-283.512, -17.8545], [-283.376, -17.8243], [-283.238, -17.8061], [-283.098, -17.8], [-282.959, -17.8061], [-282.82, -17.8243], [-282.684, -17.8545], [-282.551, -17.8965], [-282.422, -17.9499], [-282.298, -18.0144], [-282.18, -18.0894], [-282.07, -18.1743], [-281.967, -18.2686], [-281.872, -18.3715], [-281.788, -18.4823], [-281.713, -18.6], [-281.648, -18.7238], [-281.595, -18.8528], [-281.553, -18.9859], [-281.522, -19.1222], [-281.504, -19.2606]],
    "il37": [[-381.598, 0.1], [-381.598, -13.9], [-381.61, -14.1615], [-381.644, -14.4209], [-381.7, -14.6765], [-381.779, -14.9261], [-381.879, -15.1679], [-382, -15.4], [-382.141, -15.6207], [-382.3, -15.8284], [-382.477, -16.0213], [-382.67, -16.1981], [-382.877, -16.3575], [-383.098, -16.4981], [-383.33, -16.6189], [-383.572, -16.7191], [-383.822, -16.7978], [-384.077, -16.8544], [-384.337, -16.8886], [-384.598, -16.9], [-389.598, -16.9], [-389.86, -16.8886], [-390.119, -16.8544], [-390.375, -16.7978], [-390.624, -16.7191], [-390.866, -16.6189], [-391.098, -16.4981], [-391.319, -16.3575], [-391.527, -16.1981], [-391.719, -16.0213], [-391.896, -15.8284], [-392.056, -15.6207], [-392.196, -15.4], [-392.317, -15.1679], [-392.417, -14.9261], [-392.496, -14.6765], [-392.553, -14.4209], [-392.587, -14.1615], [-392.598, -13.9], [-392.598, 0.1], [-392.587, 0.361467], [-392.553, 0.620945], [-392.496, 0.876457], [-392.417, 1.12606], [-392.317, 1.36785], [-392.196, 1.6], [-392.056, 1.82073], [-391.896, 2.02836], [-391.719, 2.22132], [-391.527, 2.39813], [-391.319, 2.55746], [-391.098, 2.69808], [-390.866, 2.81892], [-390.624, 2.91908], [-390.375, 2.99778], [-390.119, 3.05442], [-389.86, 3.08858], [-389.598, 3.1], [-384.598, 3.1], [-384.337, 3.08858], [-384.077, 3.05442], [-383.822, 2.99778], [-383.572, 2.91908], [-383.33, 2.81892], [-383.098, 2.69808], [-382.877, 2.55746], [-382.67, 2.39813], [-382.477, 2.22132], [-382.3, 2.02836], [-382.141, 1.82073], [-382, 1.6], [-381.879, 1.36785], [-381.779, 1.12606], [-381.7, 0.876457], [-381.644, 0.620945], [-381.61, 0.361467]],
    "il38": [[-241.598, 0.1], [-241.598, -13.9], [-241.61, -14.1615], [-241.644, -14.4209], [-241.7, -14.6765], [-241.779, -14.9261], [-241.879, -15.1679], [-242, -15.4], [-242.141, -15.6207], [-242.3, -15.8284], [-242.477, -16.0213], [-242.67, -16.1981], [-242.877, -16.3575], [-243.098, -16.4981], [-243.33, -16.6189], [-243.572, -16.7191], [-243.822, -16.7978], [-244.077, -16.8544], [-244.337, -16.8886], [-244.598, -16.9], [-249.598, -16.9], [-249.86, -16.8886], [-250.119, -16.8544], [-250.375, -16.7978], [-250.624, -16.7191], [-250.866, -16.6189], [-251.098, -16.4981], [-251.319, -16.3575], [-251.527, -16.1981], [-251.719, -16.0213], [-251.896, -15.8284], [-252.056, -15.6207], [-252.196, -15.4], [-252.317, -15.1679], [-252.417, -14.9261], [-252.496, -14.6765], [-252.553, -14.4209], [-252.587, -14.1615], [-252.598, -13.9], [-252.598, 0.1], [-252.587, 0.361467], [-252.553, 0.620945], [-252.496, 0.876457], [-252.417, 1.12606], [-252.317, 1.36785], [-252.196, 1.6], [-252.056, 1.82073], [-251.896, 2.02836], [-251.719, 2.22132], [-251.527, 2.39813], [-251.319, 2.55746], [-251.098, 2.69808], [-250.866, 2.81892], [-250.624, 2.91908], [-250.375, 2.99778], [-250.119, 3.05442], [-249.86, 3.08858], [-249.598, 3.1], [-244.598, 3.1], [-244.337, 3.08858], [-244.077, 3.05442], [-243.822, 2.99778], [-243.572, 2.91908], [-243.33, 2.81892], [-243.098, 2.69808], [-242.877, 2.55746], [-242.67, 2.39813], [-242.477, 2.22132], [-242.3, 2.02836], [-242.141, 1.82073], [-242, 1.6], [-241.879, 1.36785], [-241.779, 1.12606], [-241.7, 0.876457], [-241.644, 0.620945], [-241.61, 0.361467]],
    "il39": [[-205.598, 0.1], [-205.598, -13.9], [-205.61, -14.1615], [-205.644, -14.4209], [-205.7, -14.6765], [-205.779, -14.9261], [-205.879, -15.1679], [-206, -15.4], [-206.141, -15.6207], [-206.3, -15.8284], [-206.477, -16.0213], [-206.67, -16.1981], [-206.877, -16.3575], [-207.098, -16.4981], [-207.33, -16.6189], [-207.572, -16.7191], [-207.822, -16.7978], [-208.077, -16.8544], [-208.337, -16.8886], [-208.598, -16.9], [-213.598, -16.9], [-213.86, -16.8886], [-214.119, -16.8544], [-214.375, -16.7978], [-214.624, -16.7191], [-214.866, -16.6189], [-215.098, -16.4981], [-215.319, -16.3575], [-215.527, -16.1981], [-215.719, -16.0213], [-215.896, -15.8284], [-216.056, -15.6207], [-216.196, -15.4], [-216.317, -15.1679], [-216.417, -14.9261], [-216.496, -14.6765], [-216.553, -14.4209], [-216.587, -14.1615], [-216.598, -13.9], [-216.598, 0.1], [-216.587, 0.361467], [-216.553, 0.620945], [-216.496, 0.876457], [-216.417, 1.12606], [-216.317, 1.36785], [-216.196, 1.6], [-216.056, 1.82073], [-215.896, 2.02836], [-215.719, 2.22132], [-215.527, 2.39813], [-215.319, 2.55746], [-215.098, 2.69808], [-214.866, 2.81892], [-214.624, 2.91908], [-214.375, 2.99778], [-214.119, 3.05442], [-213.86, 3.08858], [-213.598, 3.1], [-208.598, 3.1], [-208.337, 3.08858], [-208.077, 3.05442], [-207.822, 2.99778], [-207.572, 2.91908], [-207.33, 2.81892], [-207.098, 2.69808], [-206.877, 2.55746], [-206.67, 2.39813], [-206.477, 2.22132], [-206.3, 2.02836], [-206.141, 1.82073], [-206, 1.6], [-205.879, 1.36785], [-205.779, 1.12606], [-205.7, 0.876457], [-205.644, 0.620945], [-205.61, 0.361467]],
    "il40": [[-169.598, 0.1], [-169.598, -13.9], [-169.61, -14.1615], [-169.644, -14.4209], [-169.7, -14.6765], [-169.779, -14.9261], [-169.879, -15.1679], [-170, -15.4], [-170.141, -15.6207], [-170.3, -15.8284], [-170.477, -16.0213], [-170.67, -16.1981], [-170.877, -16.3575], [-171.098, -16.4981], [-171.33, -16.6189], [-171.572, -16.7191], [-171.822, -16.7978], [-172.077, -16.8544], [-172.337, -16.8886], [-172.598, -16.9], [-177.598, -16.9], [-177.86, -16.8886], [-178.119, -16.8544], [-178.375, -16.7978], [-178.624, -16.7191], [-178.866, -16.6189], [-179.098, -16.4981], [-179.319, -16.3575], [-179.527, -16.1981], [-179.719, -16.0213], [-179.896, -15.8284], [-180.056, -15.6207], [-180.196, -15.4], [-180.317, -15.1679], [-180.417, -14.9261], [-180.496, -14.6765], [-180.553, -14.4209], [-180.587, -14.1615], [-180.598, -13.9], [-180.598, 0.1], [-180.587, 0.361467], [-180.553, 0.620945], [-180.496, 0.876457], [-180.417, 1.12606], [-180.317, 1.36785], [-180.196, 1.6], [-180.056, 1.82073], [-179.896, 2.02836], [-179.719, 2.22132], [-179.527, 2.39813], [-179.319, 2.55746], [-179.098, 2.69808], [-178.866, 2.81892], [-178.624, 2.91908], [-178.375, 2.99778], [-178.119, 3.05442], [-177.86, 3.08858], [-177.598, 3.1], [-172.598, 3.1], [-172.337, 3.08858], [-172.077, 3.05442], [-171.822, 2.99778], [-171.572, 2.91908], [-171.33, 2.81892], [-171.098, 2.69808], [-170.877, 2.55746], [-170.67, 2.39813], [-170.477, 2.22132], [-170.3, 2.02836], [-170.141, 1.82073], [-170, 1.6], [-169.879, 1.36785], [-169.779, 1.12606], [-169.7, 0.876457], [-169.644, 0.620945], [-169.61, 0.361467]],
    "il41": [[-178.461, 88.6129], [-178.619, 88.5401], [-178.784, 88.4813], [-178.952, 88.437], [-179.124, 88.4076], [-179.298, 88.3934], [-179.473, 88.3943], [-179.647, 88.4104], [-179.818, 88.4417], [-179.986, 88.4877], [-180.15, 88.5483], [-180.308, 88.6229], [-180.458, 88.7109], [-180.601, 88.8118], [-180.734, 88.9246], [-180.857, 89.0487], [-180.968, 89.1829], [-181.067, 89.3264], [-181.154, 89.478], [-181.227, 89.6365], [-181.285, 89.8008], [-181.33, 89.9695], [-181.359, 90.1415], [-181.373, 90.3154], [-181.372, 90.4899], [-181.356, 90.6636], [-181.325, 90.8353], [-181.279, 91.0036], [-181.218, 91.1672], [-181.144, 91.3249], [-181.056, 91.4756], [-180.955, 91.6179], [-180.842, 91.751], [-180.718, 91.8737], [-180.584, 91.9851], [-180.44, 92.0844], [-180.289, 92.1709], [-180.13, 92.2437], [-179.966, 92.3025], [-179.797, 92.3468], [-179.625, 92.3762], [-179.451, 92.3904], [-179.277, 92.3895], [-179.103, 92.3734], [-178.931, 92.3421], [-178.763, 92.2961], [-178.6, 92.2355], [-178.442, 92.1609], [-178.291, 92.0729], [-178.149, 91.972], [-178.016, 91.8592], [-177.893, 91.7351], [-177.782, 91.6009], [-177.682, 91.4574], [-177.596, 91.3059], [-177.523, 91.1473], [-177.464, 90.9831], [-177.42, 90.8143], [-177.391, 90.6423], [-177.376, 90.4684], [-177.377, 90.2939], [-177.393, 90.1202], [-177.425, 89.9485], [-177.471, 89.7802], [-177.531, 89.6166], [-177.606, 89.4589], [-177.694, 89.3083], [-177.795, 89.1659], [-177.908, 89.0328], [-178.032, 88.9101], [-178.166, 88.7987], [-178.309, 88.6994]],
    "il42": [[-310.916, -150.468], [-311.069, -150.461], [-311.22, -150.441], [-311.369, -150.408], [-311.515, -150.362], [-311.656, -150.304], [-311.791, -150.233], [-311.92, -150.151], [-312.041, -150.058], [-312.153, -149.955], [-312.257, -149.843], [-312.35, -149.722], [-312.432, -149.593], [-312.502, -149.457], [-312.561, -149.316], [-312.606, -149.171], [-312.639, -149.022], [-312.659, -148.87], [-312.666, -148.718], [-312.659, -148.565], [-312.639, -148.414], [-312.606, -148.265], [-312.561, -148.119], [-312.502, -147.978], [-312.432, -147.843], [-312.35, -147.714], [-312.257, -147.593], [-312.153, -147.48], [-312.041, -147.377], [-311.92, -147.284], [-311.791, -147.202], [-311.656, -147.132], [-311.515, -147.073], [-311.369, -147.028], [-311.22, -146.994], [-311.069, -146.975], [-310.916, -146.968], [-310.764, -146.975], [-310.612, -146.994], [-310.463, -147.028], [-310.318, -147.073], [-310.176, -147.132], [-310.041, -147.202], [-309.912, -147.284], [-309.791, -147.377], [-309.679, -147.48], [-309.575, -147.593], [-309.483, -147.714], [-309.4, -147.843], [-309.33, -147.978], [-309.272, -148.119], [-309.226, -148.265], [-309.193, -148.414], [-309.173, -148.565], [-309.166, -148.718], [-309.173, -148.87], [-309.193, -149.022], [-309.226, -149.171], [-309.272, -149.316], [-309.33, -149.457], [-309.4, -149.593], [-309.483, -149.722], [-309.575, -149.843], [-309.679, -149.955], [-309.791, -150.058], [-309.912, -150.151], [-310.041, -150.233], [-310.176, -150.304], [-310.318, -150.362], [-310.463, -150.408], [-310.612, -150.441], [-310.764, -150.461]],
    "il43": [[-305.416, -121.218], [-305.416, -143.218], [-305.427, -143.479], [-305.462, -143.739], [-305.518, -143.994], [-305.597, -144.244], [-305.697, -144.486], [-305.818, -144.718], [-305.959, -144.939], [-306.118, -145.146], [-306.295, -145.339], [-306.488, -145.516], [-306.695, -145.675], [-306.916, -145.816], [-307.148, -145.937], [-307.39, -146.037], [-307.64, -146.116], [-307.895, -146.172], [-308.155, -146.206], [-308.416, -146.218], [-313.416, -146.218], [-313.678, -146.206], [-313.937, -146.172], [-314.192, -146.116], [-314.442, -146.037], [-314.684, -145.937], [-314.916, -145.816], [-315.137, -145.675], [-315.344, -145.516], [-315.537, -145.339], [-315.714, -145.146], [-315.873, -144.939], [-316.014, -144.718], [-316.135, -144.486], [-316.235, -144.244], [-316.314, -143.994], [-316.37, -143.739], [-316.405, -143.479], [-316.416, -143.218], [-316.416, -121.218], [-316.405, -120.956], [-316.37, -120.697], [-316.314, -120.441], [-316.235, -120.192], [-316.135, -119.95], [-316.014, -119.718], [-315.873, -119.497], [-315.714, -119.29], [-315.537, -119.097], [-315.344, -118.92], [-315.137, -118.76], [-314.916, -118.62], [-314.684, -118.499], [-314.442, -118.399], [-314.192, -118.32], [-313.937, -118.263], [-313.678, -118.229], [-313.416, -118.218], [-308.416, -118.218], [-308.155, -118.229], [-307.895, -118.263], [-307.64, -118.32], [-307.39, -118.399], [-307.148, -118.499], [-306.916, -118.62], [-306.695, -118.76], [-306.488, -118.92], [-306.295, -119.097], [-306.118, -119.29], [-305.959, -119.497], [-305.818, -119.718], [-305.697, -119.95], [-305.597, -120.192], [-305.518, -120.441], [-305.462, -120.697], [-305.427, -120.956]],
    "il44": [[-310.916, -116.968], [-311.069, -116.961], [-311.22, -116.941], [-311.369, -116.908], [-311.515, -116.862], [-311.656, -116.804], [-311.791, -116.733], [-311.92, -116.651], [-312.041, -116.558], [-312.153, -116.455], [-312.257, -116.343], [-312.35, -116.222], [-312.432, -116.093], [-312.502, -115.957], [-312.561, -115.816], [-312.606, -115.671], [-312.639, -115.522], [-312.659, -115.37], [-312.666, -115.218], [-312.659, -115.065], [-312.639, -114.914], [-312.606, -114.765], [-312.561, -114.619], [-312.502, -114.478], [-312.432, -114.343], [-312.35, -114.214], [-312.257, -114.093], [-312.153, -113.98], [-312.041, -113.877], [-311.92, -113.784], [-311.791, -113.702], [-311.656, -113.632], [-311.515, -113.573], [-311.369, -113.528], [-311.22, -113.494], [-311.069, -113.475], [-310.916, -113.468], [-310.764, -113.475], [-310.612, -113.494], [-310.463, -113.528], [-310.318, -113.573], [-310.176, -113.632], [-310.041, -113.702], [-309.912, -113.784], [-309.791, -113.877], [-309.679, -113.98], [-309.575, -114.093], [-309.483, -114.214], [-309.4, -114.343], [-309.33, -114.478], [-309.272, -114.619], [-309.226, -114.765], [-309.193, -114.914], [-309.173, -115.065], [-309.166, -115.218], [-309.173, -115.37], [-309.193, -115.522], [-309.226, -115.671], [-309.272, -115.816], [-309.33, -115.957], [-309.4, -116.093], [-309.483, -116.222], [-309.575, -116.343], [-309.679, -116.455], [-309.791, -116.558], [-309.912, -116.651], [-310.041, -116.733], [-310.176, -116.804], [-310.318, -116.862], [-310.463, -116.908], [-310.612, -116.941], [-310.764, -116.961]],
    "il45": [[-571.734, -28.4], [-571.721, -28.095], [-571.681, -27.7922], [-571.615, -27.4941], [-571.523, -27.2029], [-571.406, -26.9208], [-571.265, -26.65], [-571.101, -26.3925], [-570.915, -26.1502], [-570.709, -25.9251], [-570.484, -25.7188], [-570.241, -25.533], [-569.984, -25.3689], [-569.713, -25.2279], [-569.431, -25.1111], [-569.14, -25.0193], [-568.842, -24.9532], [-568.539, -24.9133], [-568.234, -24.9], [-567.929, -24.9133], [-567.626, -24.9532], [-567.328, -25.0193], [-567.037, -25.1111], [-566.755, -25.2279], [-566.484, -25.3689], [-566.226, -25.533], [-565.984, -25.7188], [-565.759, -25.9251], [-565.553, -26.1502], [-565.367, -26.3925], [-565.203, -26.65], [-565.062, -26.9208], [-564.945, -27.2029], [-564.853, -27.4941], [-564.787, -27.7922], [-564.747, -28.095], [-564.734, -28.4], [-564.747, -28.705], [-564.787, -29.0078], [-564.853, -29.3059], [-564.945, -29.5971], [-565.062, -29.8792], [-565.203, -30.15], [-565.367, -30.4075], [-565.553, -30.6498], [-565.759, -30.8749], [-565.984, -31.0812], [-566.226, -31.267], [-566.484, -31.4311], [-566.755, -31.5721], [-567.037, -31.6889], [-567.328, -31.7807], [-567.626, -31.8468], [-567.929, -31.8867], [-568.234, -31.9], [-568.539, -31.8867], [-568.842, -31.8468], [-569.14, -31.7807], [-569.431, -31.6889], [-569.713, -31.5721], [-569.984, -31.4311], [-570.241, -31.267], [-570.484, -31.0812], [-570.709, -30.8749], [-570.915, -30.6498], [-571.101, -30.4075], [-571.265, -30.15], [-571.406, -29.8792], [-571.523, -29.5971], [-571.615, -29.3059], [-571.681, -29.0078], [-571.721, -28.705]],
    "il46": [[-560.196, 2.5], [-560.371, 2.50761], [-560.544, 2.53038], [-560.714, 2.56815], [-560.88, 2.62061], [-561.042, 2.68738], [-561.196, 2.76795], [-561.343, 2.8617], [-561.482, 2.96791], [-561.611, 3.08579], [-561.728, 3.21442], [-561.835, 3.35285], [-561.928, 3.5], [-562.009, 3.65476], [-562.076, 3.81596], [-562.128, 3.98236], [-562.166, 4.1527], [-562.189, 4.32569], [-562.196, 4.5], [-562.189, 4.67431], [-562.166, 4.8473], [-562.128, 5.01764], [-562.076, 5.18404], [-562.009, 5.34524], [-561.928, 5.5], [-561.835, 5.64715], [-561.728, 5.78558], [-561.611, 5.91421], [-561.482, 6.03209], [-561.343, 6.1383], [-561.196, 6.23205], [-561.042, 6.31262], [-560.88, 6.37939], [-560.714, 6.43185], [-560.544, 6.46962], [-560.371, 6.49239], [-560.196, 6.5], [-560.022, 6.49239], [-559.849, 6.46962], [-559.679, 6.43185], [-559.512, 6.37939], [-559.351, 6.31262], [-559.196, 6.23205], [-559.049, 6.1383], [-558.911, 6.03209], [-558.782, 5.91421], [-558.664, 5.78558], [-558.558, 5.64715], [-558.464, 5.5], [-558.384, 5.34524], [-558.317, 5.18404], [-558.264, 5.01764], [-558.227, 4.8473], [-558.204, 4.67431], [-558.196, 4.5], [-558.204, 4.32569], [-558.227, 4.1527], [-558.264, 3.98236], [-558.317, 3.81596], [-558.384, 3.65476], [-558.464, 3.5], [-558.558, 3.35285], [-558.664, 3.21442], [-558.782, 3.08579], [-558.911, 2.96791], [-559.049, 2.8617], [-559.196, 2.76795], [-559.351, 2.68738], [-559.512, 2.62061], [-559.679, 2.56815], [-559.849, 2.53038], [-560.022, 2.50761]],
    "il47": [[-557.196, 7.15], [-563.196, 7.15], [-563.458, 7.16142], [-563.717, 7.19558], [-563.973, 7.25222], [-564.222, 7.33092], [-564.464, 7.43108], [-564.696, 7.55192], [-564.917, 7.69254], [-565.125, 7.85187], [-565.318, 8.02868], [-565.494, 8.22164], [-565.654, 8.42927], [-565.794, 8.65], [-565.915, 8.88215], [-566.015, 9.12394], [-566.094, 9.37354], [-566.151, 9.62906], [-566.185, 9.88853], [-566.196, 10.15], [-566.196, 32.15], [-566.185, 32.4115], [-566.151, 32.6709], [-566.094, 32.9265], [-566.015, 33.1761], [-565.915, 33.4179], [-565.794, 33.65], [-565.654, 33.8707], [-565.494, 34.0784], [-565.318, 34.2713], [-565.125, 34.4481], [-564.917, 34.6075], [-564.696, 34.7481], [-564.464, 34.8689], [-564.222, 34.9691], [-563.973, 35.0478], [-563.717, 35.1044], [-563.458, 35.1386], [-563.196, 35.15], [-557.196, 35.15], [-556.935, 35.1386], [-556.675, 35.1044], [-556.42, 35.0478], [-556.17, 34.9691], [-555.928, 34.8689], [-555.696, 34.7481], [-555.476, 34.6075], [-555.268, 34.4481], [-555.075, 34.2713], [-554.898, 34.0784], [-554.739, 33.8707], [-554.598, 33.65], [-554.477, 33.4179], [-554.377, 33.1761], [-554.299, 32.9265], [-554.242, 32.6709], [-554.208, 32.4115], [-554.196, 32.15], [-554.196, 10.15], [-554.208, 9.88853], [-554.242, 9.62906], [-554.299, 9.37354], [-554.377, 9.12394], [-554.477, 8.88215], [-554.598, 8.65], [-554.739, 8.42927], [-554.898, 8.22164], [-555.075, 8.02868], [-555.268, 7.85187], [-555.476, 7.69254], [-555.696, 7.55192], [-555.928, 7.43108], [-556.17, 7.33092], [-556.42, 7.25222], [-556.675, 7.19558], [-556.935, 7.16142]],
    "il48": [[-560.196, 35.8], [-560.371, 35.8076], [-560.544, 35.8304], [-560.714, 35.8681], [-560.88, 35.9206], [-561.042, 35.9874], [-561.196, 36.0679], [-561.343, 36.1617], [-561.482, 36.2679], [-561.611, 36.3858], [-561.728, 36.5144], [-561.835, 36.6528], [-561.928, 36.8], [-562.009, 36.9548], [-562.076, 37.116], [-562.128, 37.2824], [-562.166, 37.4527], [-562.189, 37.6257], [-562.196, 37.8], [-562.189, 37.9743], [-562.166, 38.1473], [-562.128, 38.3176], [-562.076, 38.484], [-562.009, 38.6452], [-561.928, 38.8], [-561.835, 38.9472], [-561.728, 39.0856], [-561.611, 39.2142], [-561.482, 39.3321], [-561.343, 39.4383], [-561.196, 39.5321], [-561.042, 39.6126], [-560.88, 39.6794], [-560.714, 39.7319], [-560.544, 39.7696], [-560.371, 39.7924], [-560.196, 39.8], [-560.022, 39.7924], [-559.849, 39.7696], [-559.679, 39.7319], [-559.512, 39.6794], [-559.351, 39.6126], [-559.196, 39.5321], [-559.049, 39.4383], [-558.911, 39.3321], [-558.782, 39.2142], [-558.664, 39.0856], [-558.558, 38.9472], [-558.464, 38.8], [-558.384, 38.6452], [-558.317, 38.484], [-558.264, 38.3176], [-558.227, 38.1473], [-558.204, 37.9743], [-558.196, 37.8], [-558.204, 37.6257], [-558.227, 37.4527], [-558.264, 37.2824], [-558.317, 37.116], [-558.384, 36.9548], [-558.464, 36.8], [-558.558, 36.6528], [-558.664, 36.5144], [-558.782, 36.3858], [-558.911, 36.2679], [-559.049, 36.1617], [-559.196, 36.0679], [-559.351, 35.9874], [-559.512, 35.9206], [-559.679, 35.8681], [-559.849, 35.8304], [-560.022, 35.8076]],
    "il49": [[-571.734, 52.1], [-571.721, 52.405], [-571.681, 52.7078], [-571.615, 53.0059], [-571.523, 53.2971], [-571.406, 53.5792], [-571.265, 53.85], [-571.101, 54.1075], [-570.915, 54.3498], [-570.709, 54.5749], [-570.484, 54.7812], [-570.241, 54.967], [-569.984, 55.1311], [-569.713, 55.2721], [-569.431, 55.3889], [-569.14, 55.4807], [-568.842, 55.5468], [-568.539, 55.5867], [-568.234, 55.6], [-567.929, 55.5867], [-567.626, 55.5468], [-567.328, 55.4807], [-567.037, 55.3889], [-566.755, 55.2721], [-566.484, 55.1311], [-566.226, 54.967], [-565.984, 54.7812], [-565.759, 54.5749], [-565.553, 54.3498], [-565.367, 54.1075], [-565.203, 53.85], [-565.062, 53.5792], [-564.945, 53.2971], [-564.853, 53.0059], [-564.787, 52.7078], [-564.747, 52.405], [-564.734, 52.1], [-564.747, 51.795], [-564.787, 51.4922], [-564.853, 51.1941], [-564.945, 50.9029], [-565.062, 50.6208], [-565.203, 50.35], [-565.367, 50.0925], [-565.553, 49.8502], [-565.759, 49.6251], [-565.984, 49.4188], [-566.226, 49.233], [-566.484, 49.0689], [-566.755, 48.9279], [-567.037, 48.8111], [-567.328, 48.7193], [-567.626, 48.6532], [-567.929, 48.6133], [-568.234, 48.6], [-568.539, 48.6133], [-568.842, 48.6532], [-569.14, 48.7193], [-569.431, 48.8111], [-569.713, 48.9279], [-569.984, 49.0689], [-570.241, 49.233], [-570.484, 49.4188], [-570.709, 49.6251], [-570.915, 49.8502], [-571.101, 50.0925], [-571.265, 50.35], [-571.406, 50.6208], [-571.523, 50.9029], [-571.615, 51.1941], [-571.681, 51.4922], [-571.721, 51.795]],
    "il50": [[-368.908, 92.1709], [-368.756, 92.0844], [-368.612, 91.9851], [-368.478, 91.8737], [-368.354, 91.751], [-368.241, 91.6179], [-368.14, 91.4756], [-368.052, 91.3249], [-367.978, 91.1672], [-367.917, 91.0036], [-367.871, 90.8353], [-367.84, 90.6636], [-367.824, 90.4899], [-367.823, 90.3154], [-367.837, 90.1415], [-367.867, 89.9695], [-367.911, 89.8008], [-367.97, 89.6365], [-368.043, 89.478], [-368.129, 89.3264], [-368.228, 89.1829], [-368.34, 89.0487], [-368.462, 88.9246], [-368.595, 88.8118], [-368.738, 88.7109], [-368.888, 88.6229], [-369.046, 88.5483], [-369.21, 88.4877], [-369.378, 88.4417], [-369.55, 88.4104], [-369.723, 88.3943], [-369.898, 88.3934], [-370.072, 88.4076], [-370.244, 88.437], [-370.413, 88.4813], [-370.577, 88.5401], [-370.735, 88.6129], [-370.887, 88.6994], [-371.03, 88.7987], [-371.165, 88.9101], [-371.289, 89.0328], [-371.402, 89.1659], [-371.502, 89.3083], [-371.591, 89.4589], [-371.665, 89.6166], [-371.726, 89.7802], [-371.772, 89.9485], [-371.803, 90.1202], [-371.819, 90.2939], [-371.82, 90.4684], [-371.806, 90.6423], [-371.776, 90.8143], [-371.732, 90.9831], [-371.673, 91.1473], [-371.6, 91.3059], [-371.514, 91.4574], [-371.415, 91.6009], [-371.303, 91.7351], [-371.181, 91.8592], [-371.048, 91.972], [-370.905, 92.0729], [-370.754, 92.1609], [-370.597, 92.2355], [-370.433, 92.2961], [-370.265, 92.3421], [-370.093, 92.3734], [-369.919, 92.3895], [-369.745, 92.3904], [-369.571, 92.3762], [-369.399, 92.3468], [-369.23, 92.3025], [-369.066, 92.2437]]
  },
  "count": 1,
  "angleStepDeg": 30
}
